{"type":"system","subtype":"init","cwd":"/Users/kunchen/.treehouse/axi-8d75ad/1/axi/bench/results/mcp-compressed-high/find_fix_for_bug/run4/workspace","session_id":"959f638b-7784-458d-a265-5a7d8fbcf328","tools":["Task","TaskOutput","Bash","Glob","Grep","ExitPlanMode","Read","Edit","Write","NotebookEdit","WebFetch","TodoWrite","WebSearch","TaskStop","AskUserQuestion","Skill","EnterPlanMode","EnterWorktree","ExitWorktree","CronCreate","CronDelete","CronList","mcp__chrome-devtools__click","mcp__chrome-devtools__close_page","mcp__chrome-devtools__drag","mcp__chrome-devtools__emulate","mcp__chrome-devtools__evaluate_script","mcp__chrome-devtools__fill","mcp__chrome-devtools__fill_form","mcp__chrome-devtools__get_console_message","mcp__chrome-devtools__get_network_request","mcp__chrome-devtools__handle_dialog","mcp__chrome-devtools__hover","mcp__chrome-devtools__lighthouse_audit","mcp__chrome-devtools__list_console_messages","mcp__chrome-devtools__list_network_requests","mcp__chrome-devtools__list_pages","mcp__chrome-devtools__navigate_page","mcp__chrome-devtools__new_page","mcp__chrome-devtools__performance_analyze_insight","mcp__chrome-devtools__performance_start_trace","mcp__chrome-devtools__performance_stop_trace","mcp__chrome-devtools__press_key","mcp__chrome-devtools__resize_page","mcp__chrome-devtools__select_page","mcp__chrome-devtools__take_memory_snapshot","mcp__chrome-devtools__take_screenshot","mcp__chrome-devtools__take_snapshot","mcp__chrome-devtools__type_text","mcp__chrome-devtools__upload_file","mcp__chrome-devtools__wait_for","mcp__compressed-github__github_get_tool_schema","mcp__compressed-github__github_invoke_tool","ListMcpResourcesTool","ReadMcpResourceTool","LSP"],"mcp_servers":[{"name":"chrome-devtools","status":"connected"},{"name":"compressed-github","status":"connected"},{"name":"claude.ai Google Calendar","status":"needs-auth"},{"name":"claude.ai Gmail","status":"needs-auth"}],"model":"claude-sonnet-4-6","permissionMode":"bypassPermissions","slash_commands":["update-config","debug","simplify","batch","loop","claude-api","test-driven-development","axi","compact","context","cost","heapdump","init","pr-comments","release-notes","review","security-review","extra-usage","insights","mcp__compressed-github__AssignCodingAgent","mcp__compressed-github__issue_to_fix_workflow"],"apiKeySource":"none","claude_code_version":"2.1.77","output_style":"default","agents":["general-purpose","statusline-setup","Explore","Plan","claude-code-guide"],"skills":["update-config","debug","simplify","batch","loop","claude-api","test-driven-development","axi"],"plugins":[{"name":"rust-analyzer-lsp","path":"/Users/kunchen/.claude/plugins/cache/claude-plugins-official/rust-analyzer-lsp/1.0.0"}],"uuid":"fe249050-e2da-4b78-93e6-b6f642693b4e","fast_mode_state":"off"}
{"type":"assistant","message":{"model":"claude-sonnet-4-6","id":"msg_014js5XFPkTg9T9tKkM9Sdp3","type":"message","role":"assistant","content":[{"type":"thinking","thinking":"Let me find the most recent open issue labeled 'bug' in openclaw/openclaw, then check for any open PRs that reference that issue number.","signature":"ErECCkYIDBgCKkBTJDhI6FMfXqsK/QRsXaFin4+APEY9GOF6+0UUfxGHIrzeL0Q2Pmx5Zp841dOTEgivR8ReUZ4KEjCppbaBc0rsEgzQd80ZpKvUUHrtZK4aDJZLlXMYhu8/iiAoSCIwsFjPEIj7tGcPK7al2Bv1e/ZITP6tw6Ka8I6Xrow7ONem4iZ0NFRRG4U3qqam4EOaKpgBqxhycAX+3IfGXN7u6W9toze9khGQFwqZGZhjZdZ4W0Jy3ZY/VcTmoIDmzMM2NtcYrGbyiDW2lKa8P1DomR7AEJCzqYy1wMCvXizzwK8297+RXqvI6DYceWM/ooSdxnqoAr02gBu/G6gtzL4tBTvjbum1pONtr9WQnXIBiPTuLgFrVgLVpyDPZ1HpJWkcCU0XYmnd2MY6izUYAQ=="}],"stop_reason":null,"stop_sequence":null,"usage":{"input_tokens":3,"cache_creation_input_tokens":6849,"cache_read_input_tokens":25909,"cache_creation":{"ephemeral_5m_input_tokens":0,"ephemeral_1h_input_tokens":6849},"output_tokens":0,"service_tier":"standard","inference_geo":"not_available"},"context_management":null},"parent_tool_use_id":null,"session_id":"959f638b-7784-458d-a265-5a7d8fbcf328","uuid":"b2f202ba-50b3-445a-8526-287b0caab5bb"}
{"type":"assistant","message":{"model":"claude-sonnet-4-6","id":"msg_014js5XFPkTg9T9tKkM9Sdp3","type":"message","role":"assistant","content":[{"type":"tool_use","id":"toolu_01J27jpRt9Kj2v9gk4CMHAxw","name":"mcp__compressed-github__github_get_tool_schema","input":{"tool_name":"list_issues"},"caller":{"type":"direct"}}],"stop_reason":null,"stop_sequence":null,"usage":{"input_tokens":3,"cache_creation_input_tokens":6849,"cache_read_input_tokens":25909,"cache_creation":{"ephemeral_5m_input_tokens":0,"ephemeral_1h_input_tokens":6849},"output_tokens":0,"service_tier":"standard","inference_geo":"not_available"},"context_management":null},"parent_tool_use_id":null,"session_id":"959f638b-7784-458d-a265-5a7d8fbcf328","uuid":"7da8f098-b0d1-4f4f-8a5e-3769f76a6f2c"}
{"type":"rate_limit_event","rate_limit_info":{"status":"allowed","resetsAt":1774342800,"rateLimitType":"five_hour","overageStatus":"rejected","overageDisabledReason":"org_level_disabled","isUsingOverage":false},"uuid":"190ffab6-116b-4e3f-a150-76cfbeb5af60","session_id":"959f638b-7784-458d-a265-5a7d8fbcf328"}
{"type":"user","message":{"role":"user","content":[{"tool_use_id":"toolu_01J27jpRt9Kj2v9gk4CMHAxw","type":"tool_result","content":"{\"result\":\"<tool>list_issues(after, direction, labels, orderBy, owner, perPage, repo, since, state): List issues in a GitHub repository. For pagination, use the 'endCursor' from the previous response's 'pageInfo' in the 'after' parameter.</tool>\\n\\n{\\n  \\\"type\\\": \\\"object\\\",\\n  \\\"properties\\\": {\\n    \\\"after\\\": {\\n      \\\"type\\\": \\\"string\\\",\\n      \\\"description\\\": \\\"Cursor for pagination. Use the endCursor from the previous page's PageInfo for GraphQL APIs.\\\"\\n    },\\n    \\\"direction\\\": {\\n      \\\"type\\\": \\\"string\\\",\\n      \\\"description\\\": \\\"Order direction. If provided, the 'orderBy' also needs to be provided.\\\",\\n      \\\"enum\\\": [\\n        \\\"ASC\\\",\\n        \\\"DESC\\\"\\n      ]\\n    },\\n    \\\"labels\\\": {\\n      \\\"type\\\": \\\"array\\\",\\n      \\\"items\\\": {\\n        \\\"type\\\": \\\"string\\\"\\n      },\\n      \\\"description\\\": \\\"Filter by labels\\\"\\n    },\\n    \\\"orderBy\\\": {\\n      \\\"type\\\": \\\"string\\\",\\n      \\\"description\\\": \\\"Order issues by field. If provided, the 'direction' also needs to be provided.\\\",\\n      \\\"enum\\\": [\\n        \\\"CREATED_AT\\\",\\n        \\\"UPDATED_AT\\\",\\n        \\\"COMMENTS\\\"\\n      ]\\n    },\\n    \\\"owner\\\": {\\n      \\\"type\\\": \\\"string\\\",\\n      \\\"description\\\": \\\"Repository owner\\\"\\n    },\\n    \\\"perPage\\\": {\\n      \\\"type\\\": \\\"number\\\",\\n      \\\"description\\\": \\\"Results per page for pagination (min 1, max 100)\\\",\\n      \\\"minimum\\\": 1,\\n      \\\"maximum\\\": 100\\n    },\\n    \\\"repo\\\": {\\n      \\\"type\\\": \\\"string\\\",\\n      \\\"description\\\": \\\"Repository name\\\"\\n    },\\n    \\\"since\\\": {\\n      \\\"type\\\": \\\"string\\\",\\n      \\\"description\\\": \\\"Filter by date (ISO 8601 timestamp)\\\"\\n    },\\n    \\\"state\\\": {\\n      \\\"type\\\": \\\"string\\\",\\n      \\\"description\\\": \\\"Filter by state, by default both open and closed issues are returned when not provided\\\",\\n      \\\"enum\\\": [\\n        \\\"OPEN\\\",\\n        \\\"CLOSED\\\"\\n      ]\\n    }\\n  },\\n  \\\"required\\\": [\\n    \\\"owner\\\",\\n    \\\"repo\\\"\\n  ]\\n}\"}"}]},"parent_tool_use_id":null,"session_id":"959f638b-7784-458d-a265-5a7d8fbcf328","uuid":"869fccf5-c75c-4bb5-9bca-dbaa85a37dd8","timestamp":"2026-03-24T08:19:07.274Z","tool_use_result":{"content":"{\"result\":\"<tool>list_issues(after, direction, labels, orderBy, owner, perPage, repo, since, state): List issues in a GitHub repository. For pagination, use the 'endCursor' from the previous response's 'pageInfo' in the 'after' parameter.</tool>\\n\\n{\\n  \\\"type\\\": \\\"object\\\",\\n  \\\"properties\\\": {\\n    \\\"after\\\": {\\n      \\\"type\\\": \\\"string\\\",\\n      \\\"description\\\": \\\"Cursor for pagination. Use the endCursor from the previous page's PageInfo for GraphQL APIs.\\\"\\n    },\\n    \\\"direction\\\": {\\n      \\\"type\\\": \\\"string\\\",\\n      \\\"description\\\": \\\"Order direction. If provided, the 'orderBy' also needs to be provided.\\\",\\n      \\\"enum\\\": [\\n        \\\"ASC\\\",\\n        \\\"DESC\\\"\\n      ]\\n    },\\n    \\\"labels\\\": {\\n      \\\"type\\\": \\\"array\\\",\\n      \\\"items\\\": {\\n        \\\"type\\\": \\\"string\\\"\\n      },\\n      \\\"description\\\": \\\"Filter by labels\\\"\\n    },\\n    \\\"orderBy\\\": {\\n      \\\"type\\\": \\\"string\\\",\\n      \\\"description\\\": \\\"Order issues by field. If provided, the 'direction' also needs to be provided.\\\",\\n      \\\"enum\\\": [\\n        \\\"CREATED_AT\\\",\\n        \\\"UPDATED_AT\\\",\\n        \\\"COMMENTS\\\"\\n      ]\\n    },\\n    \\\"owner\\\": {\\n      \\\"type\\\": \\\"string\\\",\\n      \\\"description\\\": \\\"Repository owner\\\"\\n    },\\n    \\\"perPage\\\": {\\n      \\\"type\\\": \\\"number\\\",\\n      \\\"description\\\": \\\"Results per page for pagination (min 1, max 100)\\\",\\n      \\\"minimum\\\": 1,\\n      \\\"maximum\\\": 100\\n    },\\n    \\\"repo\\\": {\\n      \\\"type\\\": \\\"string\\\",\\n      \\\"description\\\": \\\"Repository name\\\"\\n    },\\n    \\\"since\\\": {\\n      \\\"type\\\": \\\"string\\\",\\n      \\\"description\\\": \\\"Filter by date (ISO 8601 timestamp)\\\"\\n    },\\n    \\\"state\\\": {\\n      \\\"type\\\": \\\"string\\\",\\n      \\\"description\\\": \\\"Filter by state, by default both open and closed issues are returned when not provided\\\",\\n      \\\"enum\\\": [\\n        \\\"OPEN\\\",\\n        \\\"CLOSED\\\"\\n      ]\\n    }\\n  },\\n  \\\"required\\\": [\\n    \\\"owner\\\",\\n    \\\"repo\\\"\\n  ]\\n}\"}","structuredContent":{"result":"<tool>list_issues(after, direction, labels, orderBy, owner, perPage, repo, since, state): List issues in a GitHub repository. For pagination, use the 'endCursor' from the previous response's 'pageInfo' in the 'after' parameter.</tool>\n\n{\n  \"type\": \"object\",\n  \"properties\": {\n    \"after\": {\n      \"type\": \"string\",\n      \"description\": \"Cursor for pagination. Use the endCursor from the previous page's PageInfo for GraphQL APIs.\"\n    },\n    \"direction\": {\n      \"type\": \"string\",\n      \"description\": \"Order direction. If provided, the 'orderBy' also needs to be provided.\",\n      \"enum\": [\n        \"ASC\",\n        \"DESC\"\n      ]\n    },\n    \"labels\": {\n      \"type\": \"array\",\n      \"items\": {\n        \"type\": \"string\"\n      },\n      \"description\": \"Filter by labels\"\n    },\n    \"orderBy\": {\n      \"type\": \"string\",\n      \"description\": \"Order issues by field. If provided, the 'direction' also needs to be provided.\",\n      \"enum\": [\n        \"CREATED_AT\",\n        \"UPDATED_AT\",\n        \"COMMENTS\"\n      ]\n    },\n    \"owner\": {\n      \"type\": \"string\",\n      \"description\": \"Repository owner\"\n    },\n    \"perPage\": {\n      \"type\": \"number\",\n      \"description\": \"Results per page for pagination (min 1, max 100)\",\n      \"minimum\": 1,\n      \"maximum\": 100\n    },\n    \"repo\": {\n      \"type\": \"string\",\n      \"description\": \"Repository name\"\n    },\n    \"since\": {\n      \"type\": \"string\",\n      \"description\": \"Filter by date (ISO 8601 timestamp)\"\n    },\n    \"state\": {\n      \"type\": \"string\",\n      \"description\": \"Filter by state, by default both open and closed issues are returned when not provided\",\n      \"enum\": [\n        \"OPEN\",\n        \"CLOSED\"\n      ]\n    }\n  },\n  \"required\": [\n    \"owner\",\n    \"repo\"\n  ]\n}"}}}
{"type":"assistant","message":{"model":"claude-sonnet-4-6","id":"msg_01THm3zi6SvivTtqj18jfyNF","type":"message","role":"assistant","content":[{"type":"tool_use","id":"toolu_01Rozm4t2YMnYTpfdJmmAmxZ","name":"mcp__compressed-github__github_invoke_tool","input":{"tool_name":"list_issues","tool_input":{"owner":"openclaw","repo":"openclaw","state":"OPEN","labels":["bug"],"orderBy":"CREATED_AT","direction":"DESC","perPage":1}},"caller":{"type":"direct"}}],"stop_reason":null,"stop_sequence":null,"usage":{"input_tokens":1,"cache_creation_input_tokens":781,"cache_read_input_tokens":32758,"cache_creation":{"ephemeral_5m_input_tokens":0,"ephemeral_1h_input_tokens":781},"output_tokens":61,"service_tier":"standard","inference_geo":"not_available"},"context_management":null},"parent_tool_use_id":null,"session_id":"959f638b-7784-458d-a265-5a7d8fbcf328","uuid":"0bef1ccb-6034-48cb-9d10-ac7d41f37da3"}
{"type":"user","message":{"role":"user","content":[{"tool_use_id":"toolu_01Rozm4t2YMnYTpfdJmmAmxZ","type":"tool_result","content":[{"type":"text","text":"{\"issues\":[{\"number\":53537,\"title\":\"[Bug]: Gemini 2.5 Pro thinking content loops infinitely on model switch\",\"body\":\"### Bug type\\n\\nBehavior bug (incorrect output/state without crash)\\n\\n### Summary\\n\\nWhen switching from Gemini 2.5 Pro to another model, the `` content repeats infinitely\\n until OpenClaw aborts the run.\\n\\n### Steps to reproduce\\n\\n1. Set model to `github-copilot/gemini-2.5-pro`\\n   2. Send a message to trigger Gemini\\u0026#39;s reasoning/thinking output\\n   3. Send another message that switches model (e.g., to `moonshot/kimi-k2.5`)\\n   4. Observe the output\\n\\n### Expected behavior\\n\\nModel switch should work normally without repeating content.\\n\\n### Actual behavior\\n\\nThe `` content from Gemini 2.5 Pro repeats approximately 40+ times:\\n\\n### OpenClaw version\\n\\n2026.3.23-2 (7ffe7e4)\\n\\n### Operating system\\n\\nWindows 10.0.26200\\n\\n### Install method\\n\\nnpm global\\n\\n### Model\\n\\ngithub-copilot/gemini-2.5-pro/moonshot/kimi-k2.5\\n\\n### Provider / routing chain\\n\\nopenclaw-\\u0026gt;github-copilot/gemini-2.5-pro-\\u0026gt;moonshot/kimi-k2.5\\n\\n### Additional provider/model setup details\\n\\n_No response_\\n\\n### Logs, screenshots, and evidence\\n\\n```shell\\n\\n```\\n\\n### Impact and severity\\n\\nNOT_ENOUGH_INFO\\n\\n### Additional information\\n\\n_No response_\",\"state\":\"OPEN\",\"user\":{\"login\":\"mattyou\"},\"labels\":[\"bug\",\"bug:behavior\"],\"created_at\":\"2026-03-24T08:04:12Z\",\"updated_at\":\"2026-03-24T08:04:20Z\"}],\"totalCount\":2011,\"pageInfo\":{\"hasNextPage\":true,\"hasPreviousPage\":false,\"startCursor\":\"Y3Vyc29yOnYyOpK5MjAyNi0wMy0yNFQwMTowNDoxMi0wNzowMM717a92\",\"endCursor\":\"Y3Vyc29yOnYyOpK5MjAyNi0wMy0yNFQwMTowNDoxMi0wNzowMM717a92\"}}"}]}]},"parent_tool_use_id":null,"session_id":"959f638b-7784-458d-a265-5a7d8fbcf328","uuid":"c6dca2c7-3c21-4a60-80e4-1af216670a87","timestamp":"2026-03-24T08:19:11.739Z","tool_use_result":[{"type":"text","text":"{\"issues\":[{\"number\":53537,\"title\":\"[Bug]: Gemini 2.5 Pro thinking content loops infinitely on model switch\",\"body\":\"### Bug type\\n\\nBehavior bug (incorrect output/state without crash)\\n\\n### Summary\\n\\nWhen switching from Gemini 2.5 Pro to another model, the `` content repeats infinitely\\n until OpenClaw aborts the run.\\n\\n### Steps to reproduce\\n\\n1. Set model to `github-copilot/gemini-2.5-pro`\\n   2. Send a message to trigger Gemini\\u0026#39;s reasoning/thinking output\\n   3. Send another message that switches model (e.g., to `moonshot/kimi-k2.5`)\\n   4. Observe the output\\n\\n### Expected behavior\\n\\nModel switch should work normally without repeating content.\\n\\n### Actual behavior\\n\\nThe `` content from Gemini 2.5 Pro repeats approximately 40+ times:\\n\\n### OpenClaw version\\n\\n2026.3.23-2 (7ffe7e4)\\n\\n### Operating system\\n\\nWindows 10.0.26200\\n\\n### Install method\\n\\nnpm global\\n\\n### Model\\n\\ngithub-copilot/gemini-2.5-pro/moonshot/kimi-k2.5\\n\\n### Provider / routing chain\\n\\nopenclaw-\\u0026gt;github-copilot/gemini-2.5-pro-\\u0026gt;moonshot/kimi-k2.5\\n\\n### Additional provider/model setup details\\n\\n_No response_\\n\\n### Logs, screenshots, and evidence\\n\\n```shell\\n\\n```\\n\\n### Impact and severity\\n\\nNOT_ENOUGH_INFO\\n\\n### Additional information\\n\\n_No response_\",\"state\":\"OPEN\",\"user\":{\"login\":\"mattyou\"},\"labels\":[\"bug\",\"bug:behavior\"],\"created_at\":\"2026-03-24T08:04:12Z\",\"updated_at\":\"2026-03-24T08:04:20Z\"}],\"totalCount\":2011,\"pageInfo\":{\"hasNextPage\":true,\"hasPreviousPage\":false,\"startCursor\":\"Y3Vyc29yOnYyOpK5MjAyNi0wMy0yNFQwMTowNDoxMi0wNzowMM717a92\",\"endCursor\":\"Y3Vyc29yOnYyOpK5MjAyNi0wMy0yNFQwMTowNDoxMi0wNzowMM717a92\"}}"}]}
{"type":"assistant","message":{"model":"claude-sonnet-4-6","id":"msg_01Na1atr5xFmb8RFeRhf4KFz","type":"message","role":"assistant","content":[{"type":"thinking","thinking":"The most recent open bug issue is #53537. Now let me check for open PRs that reference this issue number.","signature":"EpECCkYIDBgCKkDZy7BTXj3JcL0afRkhYoQvmEw3NqzyQAqv38/tz/GVJ9Vg0T0hHEmhtQ9U8Fd3sYd/GUiWnycKpadX+kordlt7EgxGsE5VHB/5TjOrYzgaDLJvwaVGL9UYz35+UyIwAozs+hJOXyIOAe1yExBVYfdnCK6u8/C+G1+9G6TQRpS8a0dXUYkjYcn2Kmk4raufKnkhvTgJc6iIoQHQUWoBoGUDKVMtahq4dexa8q28PF+nKSYp82wlsZWcxHk8Li1wCDAdJa0gPI6Na8C0ZletWz3n5J+3hv3wczW+Ep7jihrY16gEstINznwAuAgO+jDJOINPOzzYGidSgN56+mnag/dCh0LXBiFwkPS7GAE="}],"stop_reason":null,"stop_sequence":null,"usage":{"input_tokens":1,"cache_creation_input_tokens":814,"cache_read_input_tokens":33539,"cache_creation":{"ephemeral_5m_input_tokens":0,"ephemeral_1h_input_tokens":814},"output_tokens":8,"service_tier":"standard","inference_geo":"not_available"},"context_management":null},"parent_tool_use_id":null,"session_id":"959f638b-7784-458d-a265-5a7d8fbcf328","uuid":"0a4d693b-fef0-4c82-9d2f-4635e013223e"}
{"type":"assistant","message":{"model":"claude-sonnet-4-6","id":"msg_01Na1atr5xFmb8RFeRhf4KFz","type":"message","role":"assistant","content":[{"type":"tool_use","id":"toolu_01E1kmoqkBBjPYsGyLoGqLCC","name":"mcp__compressed-github__github_get_tool_schema","input":{"tool_name":"search_pull_requests"},"caller":{"type":"direct"}}],"stop_reason":null,"stop_sequence":null,"usage":{"input_tokens":1,"cache_creation_input_tokens":814,"cache_read_input_tokens":33539,"cache_creation":{"ephemeral_5m_input_tokens":0,"ephemeral_1h_input_tokens":814},"output_tokens":8,"service_tier":"standard","inference_geo":"not_available"},"context_management":null},"parent_tool_use_id":null,"session_id":"959f638b-7784-458d-a265-5a7d8fbcf328","uuid":"e09804d2-fcc0-4803-93b0-66f374322d83"}
{"type":"user","message":{"role":"user","content":[{"tool_use_id":"toolu_01E1kmoqkBBjPYsGyLoGqLCC","type":"tool_result","content":"{\"result\":\"<tool>search_pull_requests(order, owner, page, perPage, query, repo, sort): Search for pull requests in GitHub repositories using issues search syntax already scoped to is:pr</tool>\\n\\n{\\n  \\\"type\\\": \\\"object\\\",\\n  \\\"properties\\\": {\\n    \\\"order\\\": {\\n      \\\"type\\\": \\\"string\\\",\\n      \\\"description\\\": \\\"Sort order\\\",\\n      \\\"enum\\\": [\\n        \\\"asc\\\",\\n        \\\"desc\\\"\\n      ]\\n    },\\n    \\\"owner\\\": {\\n      \\\"type\\\": \\\"string\\\",\\n      \\\"description\\\": \\\"Optional repository owner. If provided with repo, only pull requests for this repository are listed.\\\"\\n    },\\n    \\\"page\\\": {\\n      \\\"type\\\": \\\"number\\\",\\n      \\\"description\\\": \\\"Page number for pagination (min 1)\\\",\\n      \\\"minimum\\\": 1\\n    },\\n    \\\"perPage\\\": {\\n      \\\"type\\\": \\\"number\\\",\\n      \\\"description\\\": \\\"Results per page for pagination (min 1, max 100)\\\",\\n      \\\"minimum\\\": 1,\\n      \\\"maximum\\\": 100\\n    },\\n    \\\"query\\\": {\\n      \\\"type\\\": \\\"string\\\",\\n      \\\"description\\\": \\\"Search query using GitHub pull request search syntax\\\"\\n    },\\n    \\\"repo\\\": {\\n      \\\"type\\\": \\\"string\\\",\\n      \\\"description\\\": \\\"Optional repository name. If provided with owner, only pull requests for this repository are listed.\\\"\\n    },\\n    \\\"sort\\\": {\\n      \\\"type\\\": \\\"string\\\",\\n      \\\"description\\\": \\\"Sort field by number of matches of categories, defaults to best match\\\",\\n      \\\"enum\\\": [\\n        \\\"comments\\\",\\n        \\\"reactions\\\",\\n        \\\"reactions-+1\\\",\\n        \\\"reactions--1\\\",\\n        \\\"reactions-smile\\\",\\n        \\\"reactions-thinking_face\\\",\\n        \\\"reactions-heart\\\",\\n        \\\"reactions-tada\\\",\\n        \\\"interactions\\\",\\n        \\\"created\\\",\\n        \\\"updated\\\"\\n      ]\\n    }\\n  },\\n  \\\"required\\\": [\\n    \\\"query\\\"\\n  ]\\n}\"}"}]},"parent_tool_use_id":null,"session_id":"959f638b-7784-458d-a265-5a7d8fbcf328","uuid":"e2da0e04-f4b1-49ca-877c-5c2a843fe744","timestamp":"2026-03-24T08:19:15.846Z","tool_use_result":{"content":"{\"result\":\"<tool>search_pull_requests(order, owner, page, perPage, query, repo, sort): Search for pull requests in GitHub repositories using issues search syntax already scoped to is:pr</tool>\\n\\n{\\n  \\\"type\\\": \\\"object\\\",\\n  \\\"properties\\\": {\\n    \\\"order\\\": {\\n      \\\"type\\\": \\\"string\\\",\\n      \\\"description\\\": \\\"Sort order\\\",\\n      \\\"enum\\\": [\\n        \\\"asc\\\",\\n        \\\"desc\\\"\\n      ]\\n    },\\n    \\\"owner\\\": {\\n      \\\"type\\\": \\\"string\\\",\\n      \\\"description\\\": \\\"Optional repository owner. If provided with repo, only pull requests for this repository are listed.\\\"\\n    },\\n    \\\"page\\\": {\\n      \\\"type\\\": \\\"number\\\",\\n      \\\"description\\\": \\\"Page number for pagination (min 1)\\\",\\n      \\\"minimum\\\": 1\\n    },\\n    \\\"perPage\\\": {\\n      \\\"type\\\": \\\"number\\\",\\n      \\\"description\\\": \\\"Results per page for pagination (min 1, max 100)\\\",\\n      \\\"minimum\\\": 1,\\n      \\\"maximum\\\": 100\\n    },\\n    \\\"query\\\": {\\n      \\\"type\\\": \\\"string\\\",\\n      \\\"description\\\": \\\"Search query using GitHub pull request search syntax\\\"\\n    },\\n    \\\"repo\\\": {\\n      \\\"type\\\": \\\"string\\\",\\n      \\\"description\\\": \\\"Optional repository name. If provided with owner, only pull requests for this repository are listed.\\\"\\n    },\\n    \\\"sort\\\": {\\n      \\\"type\\\": \\\"string\\\",\\n      \\\"description\\\": \\\"Sort field by number of matches of categories, defaults to best match\\\",\\n      \\\"enum\\\": [\\n        \\\"comments\\\",\\n        \\\"reactions\\\",\\n        \\\"reactions-+1\\\",\\n        \\\"reactions--1\\\",\\n        \\\"reactions-smile\\\",\\n        \\\"reactions-thinking_face\\\",\\n        \\\"reactions-heart\\\",\\n        \\\"reactions-tada\\\",\\n        \\\"interactions\\\",\\n        \\\"created\\\",\\n        \\\"updated\\\"\\n      ]\\n    }\\n  },\\n  \\\"required\\\": [\\n    \\\"query\\\"\\n  ]\\n}\"}","structuredContent":{"result":"<tool>search_pull_requests(order, owner, page, perPage, query, repo, sort): Search for pull requests in GitHub repositories using issues search syntax already scoped to is:pr</tool>\n\n{\n  \"type\": \"object\",\n  \"properties\": {\n    \"order\": {\n      \"type\": \"string\",\n      \"description\": \"Sort order\",\n      \"enum\": [\n        \"asc\",\n        \"desc\"\n      ]\n    },\n    \"owner\": {\n      \"type\": \"string\",\n      \"description\": \"Optional repository owner. If provided with repo, only pull requests for this repository are listed.\"\n    },\n    \"page\": {\n      \"type\": \"number\",\n      \"description\": \"Page number for pagination (min 1)\",\n      \"minimum\": 1\n    },\n    \"perPage\": {\n      \"type\": \"number\",\n      \"description\": \"Results per page for pagination (min 1, max 100)\",\n      \"minimum\": 1,\n      \"maximum\": 100\n    },\n    \"query\": {\n      \"type\": \"string\",\n      \"description\": \"Search query using GitHub pull request search syntax\"\n    },\n    \"repo\": {\n      \"type\": \"string\",\n      \"description\": \"Optional repository name. If provided with owner, only pull requests for this repository are listed.\"\n    },\n    \"sort\": {\n      \"type\": \"string\",\n      \"description\": \"Sort field by number of matches of categories, defaults to best match\",\n      \"enum\": [\n        \"comments\",\n        \"reactions\",\n        \"reactions-+1\",\n        \"reactions--1\",\n        \"reactions-smile\",\n        \"reactions-thinking_face\",\n        \"reactions-heart\",\n        \"reactions-tada\",\n        \"interactions\",\n        \"created\",\n        \"updated\"\n      ]\n    }\n  },\n  \"required\": [\n    \"query\"\n  ]\n}"}}}
{"type":"assistant","message":{"model":"claude-sonnet-4-6","id":"msg_01D5zmNouJYaP34shMopKeRD","type":"message","role":"assistant","content":[{"type":"tool_use","id":"toolu_01VNtq3hzkvBhPYCuNmGtsVP","name":"mcp__compressed-github__github_invoke_tool","input":{"tool_name":"search_pull_requests","tool_input":{"query":"repo:openclaw/openclaw is:open 53537","owner":"openclaw","repo":"openclaw"}},"caller":{"type":"direct"}}],"stop_reason":null,"stop_sequence":null,"usage":{"input_tokens":1,"cache_creation_input_tokens":681,"cache_read_input_tokens":34353,"cache_creation":{"ephemeral_5m_input_tokens":0,"ephemeral_1h_input_tokens":681},"output_tokens":66,"service_tier":"standard","inference_geo":"not_available"},"context_management":null},"parent_tool_use_id":null,"session_id":"959f638b-7784-458d-a265-5a7d8fbcf328","uuid":"acca2aed-704d-4032-a110-2d2ad7358b8d"}
{"type":"user","message":{"role":"user","content":[{"tool_use_id":"toolu_01VNtq3hzkvBhPYCuNmGtsVP","type":"tool_result","content":[{"type":"text","text":"{\"total_count\":0,\"incomplete_results\":false}"}]}]},"parent_tool_use_id":null,"session_id":"959f638b-7784-458d-a265-5a7d8fbcf328","uuid":"5f56689b-c1a6-4111-b4e9-58b8e26e068a","timestamp":"2026-03-24T08:19:19.303Z","tool_use_result":[{"type":"text","text":"{\"total_count\":0,\"incomplete_results\":false}"}]}
{"type":"assistant","message":{"model":"claude-sonnet-4-6","id":"msg_01RYkBETgEeqEq6fMKu3VHTL","type":"message","role":"assistant","content":[{"type":"text","text":"**Most recent open bug issue:** [#53537](https://github.com/openclaw/openclaw/issues/53537) — **\"[Bug]: Gemini 2.5 Pro thinking content loops infinitely on model switch\"**\n\n- **Filed:** 2026-03-24 by `mattyou`\n- **Description:** When switching from `gemini-2.5-pro` to another model, the `<think>` content repeats 40+ times until OpenClaw aborts the run.\n\n**Fix in progress?** No — no open PRs reference issue #53537 in their title or body. The bug appears to have no active fix underway."}],"stop_reason":null,"stop_sequence":null,"usage":{"input_tokens":1,"cache_creation_input_tokens":142,"cache_read_input_tokens":35034,"cache_creation":{"ephemeral_5m_input_tokens":0,"ephemeral_1h_input_tokens":142},"output_tokens":1,"service_tier":"standard","inference_geo":"not_available"},"context_management":null},"parent_tool_use_id":null,"session_id":"959f638b-7784-458d-a265-5a7d8fbcf328","uuid":"4d00f859-f6b9-4706-976d-b1e27bde4f6d"}
{"type":"result","subtype":"success","is_error":false,"duration_ms":21404,"duration_api_ms":16189,"num_turns":5,"result":"**Most recent open bug issue:** [#53537](https://github.com/openclaw/openclaw/issues/53537) — **\"[Bug]: Gemini 2.5 Pro thinking content loops infinitely on model switch\"**\n\n- **Filed:** 2026-03-24 by `mattyou`\n- **Description:** When switching from `gemini-2.5-pro` to another model, the `<think>` content repeats 40+ times until OpenClaw aborts the run.\n\n**Fix in progress?** No — no open PRs reference issue #53537 in their title or body. The bug appears to have no active fix underway.","stop_reason":"end_turn","session_id":"959f638b-7784-458d-a265-5a7d8fbcf328","total_cost_usd":0.09274515,"usage":{"input_tokens":7,"cache_creation_input_tokens":9267,"cache_read_input_tokens":161593,"output_tokens":633,"server_tool_use":{"web_search_requests":0,"web_fetch_requests":0},"service_tier":"standard","cache_creation":{"ephemeral_1h_input_tokens":9267,"ephemeral_5m_input_tokens":0},"inference_geo":"","iterations":[],"speed":"standard"},"modelUsage":{"claude-sonnet-4-6":{"inputTokens":7,"outputTokens":633,"cacheReadInputTokens":161593,"cacheCreationInputTokens":9267,"webSearchRequests":0,"costUSD":0.09274515,"contextWindow":200000,"maxOutputTokens":32000}},"permission_denials":[],"fast_mode_state":"off","uuid":"92920221-766d-47c8-a5ee-da8f363af653"}
