{"type":"system","subtype":"init","cwd":"/Users/kunchen/.treehouse/axi-8d75ad/1/axi/bench/results/mcp-compressed-medium/find_fix_for_bug/run1/workspace","session_id":"600c08c5-d4d7-46f0-91bd-c6324e7470c8","tools":["Task","TaskOutput","Bash","Glob","Grep","ExitPlanMode","Read","Edit","Write","NotebookEdit","WebFetch","TodoWrite","WebSearch","TaskStop","AskUserQuestion","Skill","EnterPlanMode","EnterWorktree","ExitWorktree","CronCreate","CronDelete","CronList","mcp__chrome-devtools__click","mcp__chrome-devtools__close_page","mcp__chrome-devtools__drag","mcp__chrome-devtools__emulate","mcp__chrome-devtools__evaluate_script","mcp__chrome-devtools__fill","mcp__chrome-devtools__fill_form","mcp__chrome-devtools__get_console_message","mcp__chrome-devtools__get_network_request","mcp__chrome-devtools__handle_dialog","mcp__chrome-devtools__hover","mcp__chrome-devtools__lighthouse_audit","mcp__chrome-devtools__list_console_messages","mcp__chrome-devtools__list_network_requests","mcp__chrome-devtools__list_pages","mcp__chrome-devtools__navigate_page","mcp__chrome-devtools__new_page","mcp__chrome-devtools__performance_analyze_insight","mcp__chrome-devtools__performance_start_trace","mcp__chrome-devtools__performance_stop_trace","mcp__chrome-devtools__press_key","mcp__chrome-devtools__resize_page","mcp__chrome-devtools__select_page","mcp__chrome-devtools__take_memory_snapshot","mcp__chrome-devtools__take_screenshot","mcp__chrome-devtools__take_snapshot","mcp__chrome-devtools__type_text","mcp__chrome-devtools__upload_file","mcp__chrome-devtools__wait_for","mcp__compressed-github__github_get_tool_schema","mcp__compressed-github__github_invoke_tool","ListMcpResourcesTool","ReadMcpResourceTool","LSP"],"mcp_servers":[{"name":"chrome-devtools","status":"connected"},{"name":"compressed-github","status":"connected"},{"name":"claude.ai Google Calendar","status":"needs-auth"},{"name":"claude.ai Gmail","status":"needs-auth"}],"model":"claude-sonnet-4-6","permissionMode":"bypassPermissions","slash_commands":["update-config","debug","simplify","batch","loop","claude-api","test-driven-development","axi","compact","context","cost","heapdump","init","pr-comments","release-notes","review","security-review","extra-usage","insights","mcp__compressed-github__AssignCodingAgent","mcp__compressed-github__issue_to_fix_workflow"],"apiKeySource":"none","claude_code_version":"2.1.77","output_style":"default","agents":["general-purpose","statusline-setup","Explore","Plan","claude-code-guide"],"skills":["update-config","debug","simplify","batch","loop","claude-api","test-driven-development","axi"],"plugins":[{"name":"rust-analyzer-lsp","path":"/Users/kunchen/.claude/plugins/cache/claude-plugins-official/rust-analyzer-lsp/1.0.0"}],"uuid":"01c57d79-84c6-49dc-8590-f5fd5a607106","fast_mode_state":"off"}
{"type":"assistant","message":{"model":"claude-sonnet-4-6","id":"msg_01KvKgdqfvXfxTSM52c49bhP","type":"message","role":"assistant","content":[{"type":"thinking","thinking":"Let me find the most recent open issue labeled 'bug' in the openclaw/openclaw repository, then check for any open PRs that reference that issue.","signature":"ErkCCkYIDBgCKkDhcLn3ViEZj/ia3X+zUFa1Tc1GKEUffn2u0Fjxb4vxxLE0+PvM5E30835K65JKnIyygz5ADG99oADYpy1mSbR+Egza5V+3ykEMYN4IvlUaDN5GfS86EATGIutDySIwv9fBVyBGj0/+dsZWyXU/L27yFUhhVFSKzJcaU4Bip7bBUvu8ey36IQWKrH3MKUr5KqABlmTJKOgNQ0qDmlutGjI4/OCFe5SAKouN8kGKwMpu37LIj2jwRHCPtU+sGNSllu1O0VgDsLhEZTr+uLU9qN0vfJyY22ucnP7miwmt3Sj8jDLpnysOa48UbE7oXw2ai8dD7WqPTQlkzvxBG1X5rJSXzoYPL1QSI45rnjArIrz26ooRwqK/0CSNQqJVoySn7VTPv1Pj2cUw+8QpkuPguAXSkBgB"}],"stop_reason":null,"stop_sequence":null,"usage":{"input_tokens":3,"cache_creation_input_tokens":6854,"cache_read_input_tokens":26438,"cache_creation":{"ephemeral_5m_input_tokens":0,"ephemeral_1h_input_tokens":6854},"output_tokens":0,"service_tier":"standard","inference_geo":"not_available"},"context_management":null},"parent_tool_use_id":null,"session_id":"600c08c5-d4d7-46f0-91bd-c6324e7470c8","uuid":"19a52287-d195-4e83-889c-4f885e250160"}
{"type":"assistant","message":{"model":"claude-sonnet-4-6","id":"msg_01KvKgdqfvXfxTSM52c49bhP","type":"message","role":"assistant","content":[{"type":"tool_use","id":"toolu_01Hoox7N7VHn7NHntSqVsw3D","name":"mcp__compressed-github__github_invoke_tool","input":{"tool_name":"list_issues","tool_input":{"owner":"openclaw","repo":"openclaw","state":"open","labels":["bug"],"perPage":1,"orderBy":"created_at","direction":"desc"}},"caller":{"type":"direct"}}],"stop_reason":null,"stop_sequence":null,"usage":{"input_tokens":3,"cache_creation_input_tokens":6854,"cache_read_input_tokens":26438,"cache_creation":{"ephemeral_5m_input_tokens":0,"ephemeral_1h_input_tokens":6854},"output_tokens":0,"service_tier":"standard","inference_geo":"not_available"},"context_management":null},"parent_tool_use_id":null,"session_id":"600c08c5-d4d7-46f0-91bd-c6324e7470c8","uuid":"59cc7fea-da85-498d-aa46-abfab38725d9"}
{"type":"rate_limit_event","rate_limit_info":{"status":"allowed","resetsAt":1774342800,"rateLimitType":"five_hour","overageStatus":"rejected","overageDisabledReason":"org_level_disabled","isUsingOverage":false},"uuid":"11ab1f9c-6b6c-4e2e-b353-3970ef75aff5","session_id":"600c08c5-d4d7-46f0-91bd-c6324e7470c8"}
{"type":"user","message":{"role":"user","content":[{"tool_use_id":"toolu_01Hoox7N7VHn7NHntSqVsw3D","type":"tool_result","content":[{"type":"text","text":"{\"issues\":[{\"number\":53537,\"title\":\"[Bug]: Gemini 2.5 Pro thinking content loops infinitely on model switch\",\"body\":\"### Bug type\\n\\nBehavior bug (incorrect output/state without crash)\\n\\n### Summary\\n\\nWhen switching from Gemini 2.5 Pro to another model, the `` content repeats infinitely\\n until OpenClaw aborts the run.\\n\\n### Steps to reproduce\\n\\n1. Set model to `github-copilot/gemini-2.5-pro`\\n   2. Send a message to trigger Gemini\\u0026#39;s reasoning/thinking output\\n   3. Send another message that switches model (e.g., to `moonshot/kimi-k2.5`)\\n   4. Observe the output\\n\\n### Expected behavior\\n\\nModel switch should work normally without repeating content.\\n\\n### Actual behavior\\n\\nThe `` content from Gemini 2.5 Pro repeats approximately 40+ times:\\n\\n### OpenClaw version\\n\\n2026.3.23-2 (7ffe7e4)\\n\\n### Operating system\\n\\nWindows 10.0.26200\\n\\n### Install method\\n\\nnpm global\\n\\n### Model\\n\\ngithub-copilot/gemini-2.5-pro/moonshot/kimi-k2.5\\n\\n### Provider / routing chain\\n\\nopenclaw-\\u0026gt;github-copilot/gemini-2.5-pro-\\u0026gt;moonshot/kimi-k2.5\\n\\n### Additional provider/model setup details\\n\\n_No response_\\n\\n### Logs, screenshots, and evidence\\n\\n```shell\\n\\n```\\n\\n### Impact and severity\\n\\nNOT_ENOUGH_INFO\\n\\n### Additional information\\n\\n_No response_\",\"state\":\"OPEN\",\"user\":{\"login\":\"mattyou\"},\"labels\":[\"bug\",\"bug:behavior\"],\"created_at\":\"2026-03-24T08:04:12Z\",\"updated_at\":\"2026-03-24T08:04:20Z\"}],\"totalCount\":2011,\"pageInfo\":{\"hasNextPage\":true,\"hasPreviousPage\":false,\"startCursor\":\"Y3Vyc29yOnYyOpK5MjAyNi0wMy0yNFQwMTowNDoxMi0wNzowMM717a92\",\"endCursor\":\"Y3Vyc29yOnYyOpK5MjAyNi0wMy0yNFQwMTowNDoxMi0wNzowMM717a92\"}}"}]}]},"parent_tool_use_id":null,"session_id":"600c08c5-d4d7-46f0-91bd-c6324e7470c8","uuid":"d6ad01e7-a9c3-4ff3-9f72-ebca3fd26f98","timestamp":"2026-03-24T08:14:58.059Z","tool_use_result":[{"type":"text","text":"{\"issues\":[{\"number\":53537,\"title\":\"[Bug]: Gemini 2.5 Pro thinking content loops infinitely on model switch\",\"body\":\"### Bug type\\n\\nBehavior bug (incorrect output/state without crash)\\n\\n### Summary\\n\\nWhen switching from Gemini 2.5 Pro to another model, the `` content repeats infinitely\\n until OpenClaw aborts the run.\\n\\n### Steps to reproduce\\n\\n1. Set model to `github-copilot/gemini-2.5-pro`\\n   2. Send a message to trigger Gemini\\u0026#39;s reasoning/thinking output\\n   3. Send another message that switches model (e.g., to `moonshot/kimi-k2.5`)\\n   4. Observe the output\\n\\n### Expected behavior\\n\\nModel switch should work normally without repeating content.\\n\\n### Actual behavior\\n\\nThe `` content from Gemini 2.5 Pro repeats approximately 40+ times:\\n\\n### OpenClaw version\\n\\n2026.3.23-2 (7ffe7e4)\\n\\n### Operating system\\n\\nWindows 10.0.26200\\n\\n### Install method\\n\\nnpm global\\n\\n### Model\\n\\ngithub-copilot/gemini-2.5-pro/moonshot/kimi-k2.5\\n\\n### Provider / routing chain\\n\\nopenclaw-\\u0026gt;github-copilot/gemini-2.5-pro-\\u0026gt;moonshot/kimi-k2.5\\n\\n### Additional provider/model setup details\\n\\n_No response_\\n\\n### Logs, screenshots, and evidence\\n\\n```shell\\n\\n```\\n\\n### Impact and severity\\n\\nNOT_ENOUGH_INFO\\n\\n### Additional information\\n\\n_No response_\",\"state\":\"OPEN\",\"user\":{\"login\":\"mattyou\"},\"labels\":[\"bug\",\"bug:behavior\"],\"created_at\":\"2026-03-24T08:04:12Z\",\"updated_at\":\"2026-03-24T08:04:20Z\"}],\"totalCount\":2011,\"pageInfo\":{\"hasNextPage\":true,\"hasPreviousPage\":false,\"startCursor\":\"Y3Vyc29yOnYyOpK5MjAyNi0wMy0yNFQwMTowNDoxMi0wNzowMM717a92\",\"endCursor\":\"Y3Vyc29yOnYyOpK5MjAyNi0wMy0yNFQwMTowNDoxMi0wNzowMM717a92\"}}"}]}
{"type":"assistant","message":{"model":"claude-sonnet-4-6","id":"msg_01GX7DC5CKEaZPfC6KMrwzUm","type":"message","role":"assistant","content":[{"type":"tool_use","id":"toolu_01MciMaYSTxLmu7tcVFbz277","name":"mcp__compressed-github__github_invoke_tool","input":{"tool_name":"search_pull_requests","tool_input":{"owner":"openclaw","repo":"openclaw","query":"is:open 53537","perPage":10}},"caller":{"type":"direct"}}],"stop_reason":null,"stop_sequence":null,"usage":{"input_tokens":1,"cache_creation_input_tokens":864,"cache_read_input_tokens":33292,"cache_creation":{"ephemeral_5m_input_tokens":0,"ephemeral_1h_input_tokens":864},"output_tokens":58,"service_tier":"standard","inference_geo":"not_available"},"context_management":null},"parent_tool_use_id":null,"session_id":"600c08c5-d4d7-46f0-91bd-c6324e7470c8","uuid":"f1e2df00-38f7-41e6-abdc-194fe9ca4bc5"}
{"type":"user","message":{"role":"user","content":[{"tool_use_id":"toolu_01MciMaYSTxLmu7tcVFbz277","type":"tool_result","content":[{"type":"text","text":"{\"total_count\":0,\"incomplete_results\":false}"}]}]},"parent_tool_use_id":null,"session_id":"600c08c5-d4d7-46f0-91bd-c6324e7470c8","uuid":"24d6405d-4954-4909-8913-d3823c2078d7","timestamp":"2026-03-24T08:15:01.112Z","tool_use_result":[{"type":"text","text":"{\"total_count\":0,\"incomplete_results\":false}"}]}
{"type":"assistant","message":{"model":"claude-sonnet-4-6","id":"msg_01EFWh7Q3wyAgSMDpW8XA2on","type":"message","role":"assistant","content":[{"type":"text","text":"No open PRs reference issue #53537.\n\n---\n\n**Most recent open bug issue:** [#53537] **\"[Bug]: Gemini 2.5 Pro thinking content loops infinitely on model switch\"**\n\n- **Filed:** 2026-03-24 by `mattyou`\n- **Description:** When switching from `github-copilot/gemini-2.5-pro` to another model (e.g. `moonshot/kimi-k2.5`), the `<parameter name=\"thinking\">` content repeats 40+ times until OpenClaw aborts the run.\n- **Fix in progress:** No — no open PRs reference issue #53537."}],"stop_reason":null,"stop_sequence":null,"usage":{"input_tokens":1,"cache_creation_input_tokens":141,"cache_read_input_tokens":34156,"cache_creation":{"ephemeral_5m_input_tokens":0,"ephemeral_1h_input_tokens":141},"output_tokens":1,"service_tier":"standard","inference_geo":"not_available"},"context_management":null},"parent_tool_use_id":null,"session_id":"600c08c5-d4d7-46f0-91bd-c6324e7470c8","uuid":"47c243d6-bd50-478a-803a-2afb6c1fea5f"}
{"type":"result","subtype":"success","is_error":false,"duration_ms":14662,"duration_api_ms":8962,"num_turns":3,"result":"No open PRs reference issue #53537.\n\n---\n\n**Most recent open bug issue:** [#53537] **\"[Bug]: Gemini 2.5 Pro thinking content loops infinitely on model switch\"**\n\n- **Filed:** 2026-03-24 by `mattyou`\n- **Description:** When switching from `github-copilot/gemini-2.5-pro` to another model (e.g. `moonshot/kimi-k2.5`), the `<parameter name=\"thinking\">` content repeats 40+ times until OpenClaw aborts the run.\n- **Fix in progress:** No — no open PRs reference issue #53537.","stop_reason":"end_turn","session_id":"600c08c5-d4d7-46f0-91bd-c6324e7470c8","total_cost_usd":0.06456705,"usage":{"input_tokens":5,"cache_creation_input_tokens":7859,"cache_read_input_tokens":93886,"output_tokens":461,"server_tool_use":{"web_search_requests":0,"web_fetch_requests":0},"service_tier":"standard","cache_creation":{"ephemeral_1h_input_tokens":7859,"ephemeral_5m_input_tokens":0},"inference_geo":"","iterations":[],"speed":"standard"},"modelUsage":{"claude-sonnet-4-6":{"inputTokens":5,"outputTokens":461,"cacheReadInputTokens":93886,"cacheCreationInputTokens":7859,"webSearchRequests":0,"costUSD":0.06456705,"contextWindow":200000,"maxOutputTokens":32000}},"permission_denials":[],"fast_mode_state":"off","uuid":"7b3df29d-7974-473d-8051-e51e431b49e3"}
