{"type":"system","subtype":"init","cwd":"/Users/kunchen/.treehouse/axi-8d75ad/1/axi/bench/results/mcp-compressed-medium/find_fix_for_bug/run4/workspace","session_id":"4cabe338-351e-4315-9e87-2b8b511ebc2b","tools":["Task","TaskOutput","Bash","Glob","Grep","ExitPlanMode","Read","Edit","Write","NotebookEdit","WebFetch","TodoWrite","WebSearch","TaskStop","AskUserQuestion","Skill","EnterPlanMode","EnterWorktree","ExitWorktree","CronCreate","CronDelete","CronList","mcp__chrome-devtools__click","mcp__chrome-devtools__close_page","mcp__chrome-devtools__drag","mcp__chrome-devtools__emulate","mcp__chrome-devtools__evaluate_script","mcp__chrome-devtools__fill","mcp__chrome-devtools__fill_form","mcp__chrome-devtools__get_console_message","mcp__chrome-devtools__get_network_request","mcp__chrome-devtools__handle_dialog","mcp__chrome-devtools__hover","mcp__chrome-devtools__lighthouse_audit","mcp__chrome-devtools__list_console_messages","mcp__chrome-devtools__list_network_requests","mcp__chrome-devtools__list_pages","mcp__chrome-devtools__navigate_page","mcp__chrome-devtools__new_page","mcp__chrome-devtools__performance_analyze_insight","mcp__chrome-devtools__performance_start_trace","mcp__chrome-devtools__performance_stop_trace","mcp__chrome-devtools__press_key","mcp__chrome-devtools__resize_page","mcp__chrome-devtools__select_page","mcp__chrome-devtools__take_memory_snapshot","mcp__chrome-devtools__take_screenshot","mcp__chrome-devtools__take_snapshot","mcp__chrome-devtools__type_text","mcp__chrome-devtools__upload_file","mcp__chrome-devtools__wait_for","mcp__compressed-github__github_get_tool_schema","mcp__compressed-github__github_invoke_tool","ListMcpResourcesTool","ReadMcpResourceTool","LSP"],"mcp_servers":[{"name":"chrome-devtools","status":"connected"},{"name":"compressed-github","status":"connected"},{"name":"claude.ai Google Calendar","status":"needs-auth"},{"name":"claude.ai Gmail","status":"needs-auth"}],"model":"claude-sonnet-4-6","permissionMode":"bypassPermissions","slash_commands":["update-config","debug","simplify","batch","loop","claude-api","test-driven-development","axi","compact","context","cost","heapdump","init","pr-comments","release-notes","review","security-review","extra-usage","insights","mcp__compressed-github__AssignCodingAgent","mcp__compressed-github__issue_to_fix_workflow"],"apiKeySource":"none","claude_code_version":"2.1.77","output_style":"default","agents":["general-purpose","statusline-setup","Explore","Plan","claude-code-guide"],"skills":["update-config","debug","simplify","batch","loop","claude-api","test-driven-development","axi"],"plugins":[{"name":"rust-analyzer-lsp","path":"/Users/kunchen/.claude/plugins/cache/claude-plugins-official/rust-analyzer-lsp/1.0.0"}],"uuid":"4d682086-afac-4f5f-b4a3-9c209d40bff6","fast_mode_state":"off"}
{"type":"assistant","message":{"model":"claude-sonnet-4-6","id":"msg_014DHHmjD9qGyChNhjmxicTi","type":"message","role":"assistant","content":[{"type":"thinking","thinking":"Let me find the most recent open issue labeled 'bug' in openclaw/openclaw, then check for any open PRs that reference that issue number.","signature":"ErECCkYIDBgCKkBTJDhI6FMfXqsK/QRsXaFin4+APEY9GOF6+0UUfxGHIrzeL0Q2Pmx5Zp841dOTEgivR8ReUZ4KEjCppbaBc0rsEgz9fbBxIcqJnzg29lcaDB/MJ/GDVzElUbkuNyIwQdM803QpM4VRwxKfM1x99S4/+XW+FU7uLtK2Wm8CvnP2ynssV2wchjXHIhk6O15MKpgBY55zcwkIuHmYqPIfuBXFbOvrKCZyXCW4SM6aPwzdxb2SSZFVfCqsLVsOajDCZ7mlZgmwfhn+ox/PIHUKaW1n18boGcnZoshPH7ddU0VBRC5OTzc9Gbm8g7VS7EOuWklFEXIneaXRi14mDfgsg2FN2vfyWwBnHOlh6NZhHbOic76s9GNJ/W0HoC89npPWE9KWT++nqbMH3c0YAQ=="}],"stop_reason":null,"stop_sequence":null,"usage":{"input_tokens":3,"cache_creation_input_tokens":6854,"cache_read_input_tokens":26438,"cache_creation":{"ephemeral_5m_input_tokens":0,"ephemeral_1h_input_tokens":6854},"output_tokens":0,"service_tier":"standard","inference_geo":"not_available"},"context_management":null},"parent_tool_use_id":null,"session_id":"4cabe338-351e-4315-9e87-2b8b511ebc2b","uuid":"9bc90ccd-5f6a-431e-8e7f-17422532e2f3"}
{"type":"assistant","message":{"model":"claude-sonnet-4-6","id":"msg_014DHHmjD9qGyChNhjmxicTi","type":"message","role":"assistant","content":[{"type":"tool_use","id":"toolu_01DiqcFuv37sBZ3FZXcXRgS2","name":"mcp__compressed-github__github_invoke_tool","input":{"tool_name":"list_issues","tool_input":{"owner":"openclaw","repo":"openclaw","state":"open","labels":["bug"],"perPage":1,"orderBy":"CREATED_AT","direction":"DESC"}},"caller":{"type":"direct"}}],"stop_reason":null,"stop_sequence":null,"usage":{"input_tokens":3,"cache_creation_input_tokens":6854,"cache_read_input_tokens":26438,"cache_creation":{"ephemeral_5m_input_tokens":0,"ephemeral_1h_input_tokens":6854},"output_tokens":0,"service_tier":"standard","inference_geo":"not_available"},"context_management":null},"parent_tool_use_id":null,"session_id":"4cabe338-351e-4315-9e87-2b8b511ebc2b","uuid":"dfa63ea3-3a33-4770-af80-c283ba233156"}
{"type":"rate_limit_event","rate_limit_info":{"status":"allowed","resetsAt":1774342800,"rateLimitType":"five_hour","overageStatus":"rejected","overageDisabledReason":"org_level_disabled","isUsingOverage":false},"uuid":"90752324-24db-4e04-8dab-264786723f03","session_id":"4cabe338-351e-4315-9e87-2b8b511ebc2b"}
{"type":"user","message":{"role":"user","content":[{"tool_use_id":"toolu_01DiqcFuv37sBZ3FZXcXRgS2","type":"tool_result","content":[{"type":"text","text":"{\"issues\":[{\"number\":53537,\"title\":\"[Bug]: Gemini 2.5 Pro thinking content loops infinitely on model switch\",\"body\":\"### Bug type\\n\\nBehavior bug (incorrect output/state without crash)\\n\\n### Summary\\n\\nWhen switching from Gemini 2.5 Pro to another model, the `` content repeats infinitely\\n until OpenClaw aborts the run.\\n\\n### Steps to reproduce\\n\\n1. Set model to `github-copilot/gemini-2.5-pro`\\n   2. Send a message to trigger Gemini\\u0026#39;s reasoning/thinking output\\n   3. Send another message that switches model (e.g., to `moonshot/kimi-k2.5`)\\n   4. Observe the output\\n\\n### Expected behavior\\n\\nModel switch should work normally without repeating content.\\n\\n### Actual behavior\\n\\nThe `` content from Gemini 2.5 Pro repeats approximately 40+ times:\\n\\n### OpenClaw version\\n\\n2026.3.23-2 (7ffe7e4)\\n\\n### Operating system\\n\\nWindows 10.0.26200\\n\\n### Install method\\n\\nnpm global\\n\\n### Model\\n\\ngithub-copilot/gemini-2.5-pro/moonshot/kimi-k2.5\\n\\n### Provider / routing chain\\n\\nopenclaw-\\u0026gt;github-copilot/gemini-2.5-pro-\\u0026gt;moonshot/kimi-k2.5\\n\\n### Additional provider/model setup details\\n\\n_No response_\\n\\n### Logs, screenshots, and evidence\\n\\n```shell\\n\\n```\\n\\n### Impact and severity\\n\\nNOT_ENOUGH_INFO\\n\\n### Additional information\\n\\n_No response_\",\"state\":\"OPEN\",\"user\":{\"login\":\"mattyou\"},\"labels\":[\"bug\",\"bug:behavior\"],\"created_at\":\"2026-03-24T08:04:12Z\",\"updated_at\":\"2026-03-24T08:04:20Z\"}],\"totalCount\":2011,\"pageInfo\":{\"hasNextPage\":true,\"hasPreviousPage\":false,\"startCursor\":\"Y3Vyc29yOnYyOpK5MjAyNi0wMy0yNFQwMTowNDoxMi0wNzowMM717a92\",\"endCursor\":\"Y3Vyc29yOnYyOpK5MjAyNi0wMy0yNFQwMTowNDoxMi0wNzowMM717a92\"}}"}]}]},"parent_tool_use_id":null,"session_id":"4cabe338-351e-4315-9e87-2b8b511ebc2b","uuid":"fa7c0c82-147d-4ee6-9ef5-eb567c06c307","timestamp":"2026-03-24T08:16:18.189Z","tool_use_result":[{"type":"text","text":"{\"issues\":[{\"number\":53537,\"title\":\"[Bug]: Gemini 2.5 Pro thinking content loops infinitely on model switch\",\"body\":\"### Bug type\\n\\nBehavior bug (incorrect output/state without crash)\\n\\n### Summary\\n\\nWhen switching from Gemini 2.5 Pro to another model, the `` content repeats infinitely\\n until OpenClaw aborts the run.\\n\\n### Steps to reproduce\\n\\n1. Set model to `github-copilot/gemini-2.5-pro`\\n   2. Send a message to trigger Gemini\\u0026#39;s reasoning/thinking output\\n   3. Send another message that switches model (e.g., to `moonshot/kimi-k2.5`)\\n   4. Observe the output\\n\\n### Expected behavior\\n\\nModel switch should work normally without repeating content.\\n\\n### Actual behavior\\n\\nThe `` content from Gemini 2.5 Pro repeats approximately 40+ times:\\n\\n### OpenClaw version\\n\\n2026.3.23-2 (7ffe7e4)\\n\\n### Operating system\\n\\nWindows 10.0.26200\\n\\n### Install method\\n\\nnpm global\\n\\n### Model\\n\\ngithub-copilot/gemini-2.5-pro/moonshot/kimi-k2.5\\n\\n### Provider / routing chain\\n\\nopenclaw-\\u0026gt;github-copilot/gemini-2.5-pro-\\u0026gt;moonshot/kimi-k2.5\\n\\n### Additional provider/model setup details\\n\\n_No response_\\n\\n### Logs, screenshots, and evidence\\n\\n```shell\\n\\n```\\n\\n### Impact and severity\\n\\nNOT_ENOUGH_INFO\\n\\n### Additional information\\n\\n_No response_\",\"state\":\"OPEN\",\"user\":{\"login\":\"mattyou\"},\"labels\":[\"bug\",\"bug:behavior\"],\"created_at\":\"2026-03-24T08:04:12Z\",\"updated_at\":\"2026-03-24T08:04:20Z\"}],\"totalCount\":2011,\"pageInfo\":{\"hasNextPage\":true,\"hasPreviousPage\":false,\"startCursor\":\"Y3Vyc29yOnYyOpK5MjAyNi0wMy0yNFQwMTowNDoxMi0wNzowMM717a92\",\"endCursor\":\"Y3Vyc29yOnYyOpK5MjAyNi0wMy0yNFQwMTowNDoxMi0wNzowMM717a92\"}}"}]}
{"type":"assistant","message":{"model":"claude-sonnet-4-6","id":"msg_01QfLiMzK7ra4K8EjVXLr64D","type":"message","role":"assistant","content":[{"type":"tool_use","id":"toolu_01Gj5hcYErZdQwDfYPY3wyS3","name":"mcp__compressed-github__github_invoke_tool","input":{"tool_name":"search_pull_requests","tool_input":{"owner":"openclaw","repo":"openclaw","query":"53537 is:open","perPage":5}},"caller":{"type":"direct"}}],"stop_reason":null,"stop_sequence":null,"usage":{"input_tokens":1,"cache_creation_input_tokens":864,"cache_read_input_tokens":33292,"cache_creation":{"ephemeral_5m_input_tokens":0,"ephemeral_1h_input_tokens":864},"output_tokens":51,"service_tier":"standard","inference_geo":"not_available"},"context_management":null},"parent_tool_use_id":null,"session_id":"4cabe338-351e-4315-9e87-2b8b511ebc2b","uuid":"e4761452-7eb3-43c4-bcca-4f20b9eb1f84"}
{"type":"user","message":{"role":"user","content":[{"tool_use_id":"toolu_01Gj5hcYErZdQwDfYPY3wyS3","type":"tool_result","content":[{"type":"text","text":"{\"total_count\":0,\"incomplete_results\":false}"}]}]},"parent_tool_use_id":null,"session_id":"4cabe338-351e-4315-9e87-2b8b511ebc2b","uuid":"090af4f9-21d1-40a9-93dc-900d3b07697a","timestamp":"2026-03-24T08:16:22.725Z","tool_use_result":[{"type":"text","text":"{\"total_count\":0,\"incomplete_results\":false}"}]}
{"type":"assistant","message":{"model":"claude-sonnet-4-6","id":"msg_01VS8X4NfncAnc3aGPmppCr9","type":"message","role":"assistant","content":[{"type":"text","text":"No open PRs reference issue #53537.\n\n---\n\n**Most recent open bug issue:**\n\n**#53537 — \"[Bug]: Gemini 2.5 Pro thinking content loops infinitely on model switch\"**\n\n- **Summary:** When switching from `github-copilot/gemini-2.5-pro` to another model (e.g. `moonshot/kimi-k2.5`), the `"}],"stop_reason":null,"stop_sequence":null,"usage":{"input_tokens":1,"cache_creation_input_tokens":141,"cache_read_input_tokens":34156,"cache_creation":{"ephemeral_5m_input_tokens":0,"ephemeral_1h_input_tokens":141},"output_tokens":1,"service_tier":"standard","inference_geo":"not_available"},"context_management":null},"parent_tool_use_id":null,"session_id":"4cabe338-351e-4315-9e87-2b8b511ebc2b","uuid":"fb8c3de1-306f-43e2-b349-59d4eb0f87bd"}
{"type":"assistant","message":{"model":"claude-sonnet-4-6","id":"msg_01VS8X4NfncAnc3aGPmppCr9","type":"message","role":"assistant","content":[{"type":"thinking","thinking":"` content from Gemini repeats 40+ times until OpenClaw aborts the run.\n- **Opened:** 2026-03-24 by `mattyou`\n- **Fix in progress:** No — no open PRs reference issue #53537 in their title or body.","signature":"Eu4CCkYIDBgCKkDEyASOGPKs71KRe8YSrKFQ7Z+3xAWmqA3sAb82RMD6mqRqhObQvsaTGDqtHgT0H/aZRxI+yNOh01Z932q6T+Y6Egw07Q4nU5ca4NGMn7UaDGIjLWLSC9eQXmexbCIwhDvyJF2Va3ke1GUntx53cd1ihzCiqUYi5vZHUZCqt74s9e6JLFa6vPPgMMMhRigsKtUB/KoxkgpSZGjGXUI640XajfXdMC2OdGdABVRvzeTJmQ3Bc5UkX/Feh1owLI82TY6/btz+52FZvpuEnQ0cjIKt0i3nfPfmhpAnMuFhKMYJZsEC59I7yLKzvWUsrxX4g1k8+NhpoW+P5MefIIQTdH89Fzg+9TESWPE4rf/MO93q3hZx1QLRZ07Z5LuzKEfNjiRLByXshO1TBG8lsGxTrlB7S+ixm91egJk486Y6G3m2SNUYQ5MLIt8+XCKUnkGYfbjaEhbQ0EoooFX/oCI27ya1RC0kJhBFGAE="}],"stop_reason":null,"stop_sequence":null,"usage":{"input_tokens":1,"cache_creation_input_tokens":141,"cache_read_input_tokens":34156,"cache_creation":{"ephemeral_5m_input_tokens":0,"ephemeral_1h_input_tokens":141},"output_tokens":1,"service_tier":"standard","inference_geo":"not_available"},"context_management":null},"parent_tool_use_id":null,"session_id":"4cabe338-351e-4315-9e87-2b8b511ebc2b","uuid":"242d0d8c-4e11-4d54-9b41-27c127d110d9"}
{"type":"result","subtype":"success","is_error":false,"duration_ms":16433,"duration_api_ms":12525,"num_turns":3,"result":"","stop_reason":"end_turn","session_id":"4cabe338-351e-4315-9e87-2b8b511ebc2b","total_cost_usd":0.06468705,"usage":{"input_tokens":5,"cache_creation_input_tokens":7859,"cache_read_input_tokens":93886,"output_tokens":469,"server_tool_use":{"web_search_requests":0,"web_fetch_requests":0},"service_tier":"standard","cache_creation":{"ephemeral_1h_input_tokens":7859,"ephemeral_5m_input_tokens":0},"inference_geo":"","iterations":[],"speed":"standard"},"modelUsage":{"claude-sonnet-4-6":{"inputTokens":5,"outputTokens":469,"cacheReadInputTokens":93886,"cacheCreationInputTokens":7859,"webSearchRequests":0,"costUSD":0.06468705,"contextWindow":200000,"maxOutputTokens":32000}},"permission_denials":[],"fast_mode_state":"off","uuid":"6336504b-6f63-49be-9d74-72432a438169"}
