{"type":"system","subtype":"init","cwd":"/Users/kunchen/.treehouse/axi-8d75ad/1/axi/bench/results/mcp-compressed-high/find_fix_for_bug/run5/workspace","session_id":"075a48e3-5678-4654-bb06-988ed2cdf1f2","tools":["Task","TaskOutput","Bash","Glob","Grep","ExitPlanMode","Read","Edit","Write","NotebookEdit","WebFetch","TodoWrite","WebSearch","TaskStop","AskUserQuestion","Skill","EnterPlanMode","EnterWorktree","ExitWorktree","CronCreate","CronDelete","CronList","mcp__chrome-devtools__click","mcp__chrome-devtools__close_page","mcp__chrome-devtools__drag","mcp__chrome-devtools__emulate","mcp__chrome-devtools__evaluate_script","mcp__chrome-devtools__fill","mcp__chrome-devtools__fill_form","mcp__chrome-devtools__get_console_message","mcp__chrome-devtools__get_network_request","mcp__chrome-devtools__handle_dialog","mcp__chrome-devtools__hover","mcp__chrome-devtools__lighthouse_audit","mcp__chrome-devtools__list_console_messages","mcp__chrome-devtools__list_network_requests","mcp__chrome-devtools__list_pages","mcp__chrome-devtools__navigate_page","mcp__chrome-devtools__new_page","mcp__chrome-devtools__performance_analyze_insight","mcp__chrome-devtools__performance_start_trace","mcp__chrome-devtools__performance_stop_trace","mcp__chrome-devtools__press_key","mcp__chrome-devtools__resize_page","mcp__chrome-devtools__select_page","mcp__chrome-devtools__take_memory_snapshot","mcp__chrome-devtools__take_screenshot","mcp__chrome-devtools__take_snapshot","mcp__chrome-devtools__type_text","mcp__chrome-devtools__upload_file","mcp__chrome-devtools__wait_for","mcp__compressed-github__github_get_tool_schema","mcp__compressed-github__github_invoke_tool","ListMcpResourcesTool","ReadMcpResourceTool","LSP"],"mcp_servers":[{"name":"chrome-devtools","status":"connected"},{"name":"compressed-github","status":"connected"},{"name":"claude.ai Google Calendar","status":"needs-auth"},{"name":"claude.ai Gmail","status":"needs-auth"}],"model":"claude-sonnet-4-6","permissionMode":"bypassPermissions","slash_commands":["update-config","debug","simplify","batch","loop","claude-api","test-driven-development","axi","compact","context","cost","heapdump","init","pr-comments","release-notes","review","security-review","extra-usage","insights","mcp__compressed-github__AssignCodingAgent","mcp__compressed-github__issue_to_fix_workflow"],"apiKeySource":"none","claude_code_version":"2.1.77","output_style":"default","agents":["general-purpose","statusline-setup","Explore","Plan","claude-code-guide"],"skills":["update-config","debug","simplify","batch","loop","claude-api","test-driven-development","axi"],"plugins":[{"name":"rust-analyzer-lsp","path":"/Users/kunchen/.claude/plugins/cache/claude-plugins-official/rust-analyzer-lsp/1.0.0"}],"uuid":"6f6d57a1-1eab-47a9-bfef-1d38e706dbf2","fast_mode_state":"off"}
{"type":"assistant","message":{"model":"claude-sonnet-4-6","id":"msg_01NCqdgG8CrfXLUuWSJQQyQZ","type":"message","role":"assistant","content":[{"type":"thinking","thinking":"Let me find the most recent open bug issue in openclaw/openclaw, then check for PRs that reference it.","signature":"Eo4CCkYIDBgCKkAIkmtdBSE6ZrRuaXNrx80Xkb7PEZwp9XNPKgcKQ3o7BLRqAtbu2tPvSMNA0ALi6VZgiNF076sOpI42IeMPihbxEgwLRjRz4d6O9o5elXkaDOqpVTYWNKCbudagoiIwwDr32JnjG5JssFSkSyGeNsRMkKjsNaA1ZTS4yZ36kDigAvmdU1LZDZus2xSXD04pKnaExlHpSjeVgUuqPQNmfuro0YadYxBSiHJ1xwglauWbvTax9UDb7hRuF4Fy1fB+sVTXFio9CJ5D1ieqbqGanKdMuOqEpDd82gVO+3i3eDjkzSM52acMa1eTqzrdHwB2qITXkfb6M6SYF210XNOi3X4CiTPdHt/VGAE="}],"stop_reason":null,"stop_sequence":null,"usage":{"input_tokens":3,"cache_creation_input_tokens":6849,"cache_read_input_tokens":25909,"cache_creation":{"ephemeral_5m_input_tokens":0,"ephemeral_1h_input_tokens":6849},"output_tokens":1,"service_tier":"standard","inference_geo":"not_available"},"context_management":null},"parent_tool_use_id":null,"session_id":"075a48e3-5678-4654-bb06-988ed2cdf1f2","uuid":"4ba415ba-b4bf-459d-969d-e03f54931c56"}
{"type":"assistant","message":{"model":"claude-sonnet-4-6","id":"msg_01NCqdgG8CrfXLUuWSJQQyQZ","type":"message","role":"assistant","content":[{"type":"tool_use","id":"toolu_01E7Sor8sJDeAXzjiWqyxEmg","name":"mcp__compressed-github__github_get_tool_schema","input":{"tool_name":"list_issues"},"caller":{"type":"direct"}}],"stop_reason":null,"stop_sequence":null,"usage":{"input_tokens":3,"cache_creation_input_tokens":6849,"cache_read_input_tokens":25909,"cache_creation":{"ephemeral_5m_input_tokens":0,"ephemeral_1h_input_tokens":6849},"output_tokens":1,"service_tier":"standard","inference_geo":"not_available"},"context_management":null},"parent_tool_use_id":null,"session_id":"075a48e3-5678-4654-bb06-988ed2cdf1f2","uuid":"71d423ee-0389-4f29-bcba-6857723c750b"}
{"type":"rate_limit_event","rate_limit_info":{"status":"allowed","resetsAt":1774342800,"rateLimitType":"five_hour","overageStatus":"rejected","overageDisabledReason":"org_level_disabled","isUsingOverage":false},"uuid":"a7803825-507a-4a25-af78-766f70489cdd","session_id":"075a48e3-5678-4654-bb06-988ed2cdf1f2"}
{"type":"user","message":{"role":"user","content":[{"tool_use_id":"toolu_01E7Sor8sJDeAXzjiWqyxEmg","type":"tool_result","content":"{\"result\":\"<tool>list_issues(after, direction, labels, orderBy, owner, perPage, repo, since, state): List issues in a GitHub repository. For pagination, use the 'endCursor' from the previous response's 'pageInfo' in the 'after' parameter.</tool>\\n\\n{\\n  \\\"type\\\": \\\"object\\\",\\n  \\\"properties\\\": {\\n    \\\"after\\\": {\\n      \\\"type\\\": \\\"string\\\",\\n      \\\"description\\\": \\\"Cursor for pagination. Use the endCursor from the previous page's PageInfo for GraphQL APIs.\\\"\\n    },\\n    \\\"direction\\\": {\\n      \\\"type\\\": \\\"string\\\",\\n      \\\"description\\\": \\\"Order direction. If provided, the 'orderBy' also needs to be provided.\\\",\\n      \\\"enum\\\": [\\n        \\\"ASC\\\",\\n        \\\"DESC\\\"\\n      ]\\n    },\\n    \\\"labels\\\": {\\n      \\\"type\\\": \\\"array\\\",\\n      \\\"items\\\": {\\n        \\\"type\\\": \\\"string\\\"\\n      },\\n      \\\"description\\\": \\\"Filter by labels\\\"\\n    },\\n    \\\"orderBy\\\": {\\n      \\\"type\\\": \\\"string\\\",\\n      \\\"description\\\": \\\"Order issues by field. If provided, the 'direction' also needs to be provided.\\\",\\n      \\\"enum\\\": [\\n        \\\"CREATED_AT\\\",\\n        \\\"UPDATED_AT\\\",\\n        \\\"COMMENTS\\\"\\n      ]\\n    },\\n    \\\"owner\\\": {\\n      \\\"type\\\": \\\"string\\\",\\n      \\\"description\\\": \\\"Repository owner\\\"\\n    },\\n    \\\"perPage\\\": {\\n      \\\"type\\\": \\\"number\\\",\\n      \\\"description\\\": \\\"Results per page for pagination (min 1, max 100)\\\",\\n      \\\"minimum\\\": 1,\\n      \\\"maximum\\\": 100\\n    },\\n    \\\"repo\\\": {\\n      \\\"type\\\": \\\"string\\\",\\n      \\\"description\\\": \\\"Repository name\\\"\\n    },\\n    \\\"since\\\": {\\n      \\\"type\\\": \\\"string\\\",\\n      \\\"description\\\": \\\"Filter by date (ISO 8601 timestamp)\\\"\\n    },\\n    \\\"state\\\": {\\n      \\\"type\\\": \\\"string\\\",\\n      \\\"description\\\": \\\"Filter by state, by default both open and closed issues are returned when not provided\\\",\\n      \\\"enum\\\": [\\n        \\\"OPEN\\\",\\n        \\\"CLOSED\\\"\\n      ]\\n    }\\n  },\\n  \\\"required\\\": [\\n    \\\"owner\\\",\\n    \\\"repo\\\"\\n  ]\\n}\"}"}]},"parent_tool_use_id":null,"session_id":"075a48e3-5678-4654-bb06-988ed2cdf1f2","uuid":"0105302b-e506-4615-8413-b2f123a98fe1","timestamp":"2026-03-24T08:19:40.793Z","tool_use_result":{"content":"{\"result\":\"<tool>list_issues(after, direction, labels, orderBy, owner, perPage, repo, since, state): List issues in a GitHub repository. For pagination, use the 'endCursor' from the previous response's 'pageInfo' in the 'after' parameter.</tool>\\n\\n{\\n  \\\"type\\\": \\\"object\\\",\\n  \\\"properties\\\": {\\n    \\\"after\\\": {\\n      \\\"type\\\": \\\"string\\\",\\n      \\\"description\\\": \\\"Cursor for pagination. Use the endCursor from the previous page's PageInfo for GraphQL APIs.\\\"\\n    },\\n    \\\"direction\\\": {\\n      \\\"type\\\": \\\"string\\\",\\n      \\\"description\\\": \\\"Order direction. If provided, the 'orderBy' also needs to be provided.\\\",\\n      \\\"enum\\\": [\\n        \\\"ASC\\\",\\n        \\\"DESC\\\"\\n      ]\\n    },\\n    \\\"labels\\\": {\\n      \\\"type\\\": \\\"array\\\",\\n      \\\"items\\\": {\\n        \\\"type\\\": \\\"string\\\"\\n      },\\n      \\\"description\\\": \\\"Filter by labels\\\"\\n    },\\n    \\\"orderBy\\\": {\\n      \\\"type\\\": \\\"string\\\",\\n      \\\"description\\\": \\\"Order issues by field. If provided, the 'direction' also needs to be provided.\\\",\\n      \\\"enum\\\": [\\n        \\\"CREATED_AT\\\",\\n        \\\"UPDATED_AT\\\",\\n        \\\"COMMENTS\\\"\\n      ]\\n    },\\n    \\\"owner\\\": {\\n      \\\"type\\\": \\\"string\\\",\\n      \\\"description\\\": \\\"Repository owner\\\"\\n    },\\n    \\\"perPage\\\": {\\n      \\\"type\\\": \\\"number\\\",\\n      \\\"description\\\": \\\"Results per page for pagination (min 1, max 100)\\\",\\n      \\\"minimum\\\": 1,\\n      \\\"maximum\\\": 100\\n    },\\n    \\\"repo\\\": {\\n      \\\"type\\\": \\\"string\\\",\\n      \\\"description\\\": \\\"Repository name\\\"\\n    },\\n    \\\"since\\\": {\\n      \\\"type\\\": \\\"string\\\",\\n      \\\"description\\\": \\\"Filter by date (ISO 8601 timestamp)\\\"\\n    },\\n    \\\"state\\\": {\\n      \\\"type\\\": \\\"string\\\",\\n      \\\"description\\\": \\\"Filter by state, by default both open and closed issues are returned when not provided\\\",\\n      \\\"enum\\\": [\\n        \\\"OPEN\\\",\\n        \\\"CLOSED\\\"\\n      ]\\n    }\\n  },\\n  \\\"required\\\": [\\n    \\\"owner\\\",\\n    \\\"repo\\\"\\n  ]\\n}\"}","structuredContent":{"result":"<tool>list_issues(after, direction, labels, orderBy, owner, perPage, repo, since, state): List issues in a GitHub repository. For pagination, use the 'endCursor' from the previous response's 'pageInfo' in the 'after' parameter.</tool>\n\n{\n  \"type\": \"object\",\n  \"properties\": {\n    \"after\": {\n      \"type\": \"string\",\n      \"description\": \"Cursor for pagination. Use the endCursor from the previous page's PageInfo for GraphQL APIs.\"\n    },\n    \"direction\": {\n      \"type\": \"string\",\n      \"description\": \"Order direction. If provided, the 'orderBy' also needs to be provided.\",\n      \"enum\": [\n        \"ASC\",\n        \"DESC\"\n      ]\n    },\n    \"labels\": {\n      \"type\": \"array\",\n      \"items\": {\n        \"type\": \"string\"\n      },\n      \"description\": \"Filter by labels\"\n    },\n    \"orderBy\": {\n      \"type\": \"string\",\n      \"description\": \"Order issues by field. If provided, the 'direction' also needs to be provided.\",\n      \"enum\": [\n        \"CREATED_AT\",\n        \"UPDATED_AT\",\n        \"COMMENTS\"\n      ]\n    },\n    \"owner\": {\n      \"type\": \"string\",\n      \"description\": \"Repository owner\"\n    },\n    \"perPage\": {\n      \"type\": \"number\",\n      \"description\": \"Results per page for pagination (min 1, max 100)\",\n      \"minimum\": 1,\n      \"maximum\": 100\n    },\n    \"repo\": {\n      \"type\": \"string\",\n      \"description\": \"Repository name\"\n    },\n    \"since\": {\n      \"type\": \"string\",\n      \"description\": \"Filter by date (ISO 8601 timestamp)\"\n    },\n    \"state\": {\n      \"type\": \"string\",\n      \"description\": \"Filter by state, by default both open and closed issues are returned when not provided\",\n      \"enum\": [\n        \"OPEN\",\n        \"CLOSED\"\n      ]\n    }\n  },\n  \"required\": [\n    \"owner\",\n    \"repo\"\n  ]\n}"}}}
{"type":"assistant","message":{"model":"claude-sonnet-4-6","id":"msg_019uhz9ykwLCCFJLSd5vZwi7","type":"message","role":"assistant","content":[{"type":"tool_use","id":"toolu_015h61mXV3j4DbUeHfZbSFd5","name":"mcp__compressed-github__github_invoke_tool","input":{"tool_name":"list_issues","tool_input":{"owner":"openclaw","repo":"openclaw","state":"OPEN","labels":["bug"],"orderBy":"CREATED_AT","direction":"DESC","perPage":1}},"caller":{"type":"direct"}}],"stop_reason":null,"stop_sequence":null,"usage":{"input_tokens":1,"cache_creation_input_tokens":773,"cache_read_input_tokens":32758,"cache_creation":{"ephemeral_5m_input_tokens":0,"ephemeral_1h_input_tokens":773},"output_tokens":61,"service_tier":"standard","inference_geo":"not_available"},"context_management":null},"parent_tool_use_id":null,"session_id":"075a48e3-5678-4654-bb06-988ed2cdf1f2","uuid":"8cd348e8-3f51-45ad-80a6-26620be20175"}
{"type":"user","message":{"role":"user","content":[{"tool_use_id":"toolu_015h61mXV3j4DbUeHfZbSFd5","type":"tool_result","content":[{"type":"text","text":"{\"issues\":[{\"number\":53537,\"title\":\"[Bug]: Gemini 2.5 Pro thinking content loops infinitely on model switch\",\"body\":\"### Bug type\\n\\nBehavior bug (incorrect output/state without crash)\\n\\n### Summary\\n\\nWhen switching from Gemini 2.5 Pro to another model, the `` content repeats infinitely\\n until OpenClaw aborts the run.\\n\\n### Steps to reproduce\\n\\n1. Set model to `github-copilot/gemini-2.5-pro`\\n   2. Send a message to trigger Gemini\\u0026#39;s reasoning/thinking output\\n   3. Send another message that switches model (e.g., to `moonshot/kimi-k2.5`)\\n   4. Observe the output\\n\\n### Expected behavior\\n\\nModel switch should work normally without repeating content.\\n\\n### Actual behavior\\n\\nThe `` content from Gemini 2.5 Pro repeats approximately 40+ times:\\n\\n### OpenClaw version\\n\\n2026.3.23-2 (7ffe7e4)\\n\\n### Operating system\\n\\nWindows 10.0.26200\\n\\n### Install method\\n\\nnpm global\\n\\n### Model\\n\\ngithub-copilot/gemini-2.5-pro/moonshot/kimi-k2.5\\n\\n### Provider / routing chain\\n\\nopenclaw-\\u0026gt;github-copilot/gemini-2.5-pro-\\u0026gt;moonshot/kimi-k2.5\\n\\n### Additional provider/model setup details\\n\\n_No response_\\n\\n### Logs, screenshots, and evidence\\n\\n```shell\\n\\n```\\n\\n### Impact and severity\\n\\nNOT_ENOUGH_INFO\\n\\n### Additional information\\n\\n_No response_\",\"state\":\"OPEN\",\"user\":{\"login\":\"mattyou\"},\"labels\":[\"bug\",\"bug:behavior\"],\"created_at\":\"2026-03-24T08:04:12Z\",\"updated_at\":\"2026-03-24T08:04:20Z\"}],\"totalCount\":2011,\"pageInfo\":{\"hasNextPage\":true,\"hasPreviousPage\":false,\"startCursor\":\"Y3Vyc29yOnYyOpK5MjAyNi0wMy0yNFQwMTowNDoxMi0wNzowMM717a92\",\"endCursor\":\"Y3Vyc29yOnYyOpK5MjAyNi0wMy0yNFQwMTowNDoxMi0wNzowMM717a92\"}}"}]}]},"parent_tool_use_id":null,"session_id":"075a48e3-5678-4654-bb06-988ed2cdf1f2","uuid":"9ebd6278-a9cf-46c1-b062-d9c42754a017","timestamp":"2026-03-24T08:19:46.114Z","tool_use_result":[{"type":"text","text":"{\"issues\":[{\"number\":53537,\"title\":\"[Bug]: Gemini 2.5 Pro thinking content loops infinitely on model switch\",\"body\":\"### Bug type\\n\\nBehavior bug (incorrect output/state without crash)\\n\\n### Summary\\n\\nWhen switching from Gemini 2.5 Pro to another model, the `` content repeats infinitely\\n until OpenClaw aborts the run.\\n\\n### Steps to reproduce\\n\\n1. Set model to `github-copilot/gemini-2.5-pro`\\n   2. Send a message to trigger Gemini\\u0026#39;s reasoning/thinking output\\n   3. Send another message that switches model (e.g., to `moonshot/kimi-k2.5`)\\n   4. Observe the output\\n\\n### Expected behavior\\n\\nModel switch should work normally without repeating content.\\n\\n### Actual behavior\\n\\nThe `` content from Gemini 2.5 Pro repeats approximately 40+ times:\\n\\n### OpenClaw version\\n\\n2026.3.23-2 (7ffe7e4)\\n\\n### Operating system\\n\\nWindows 10.0.26200\\n\\n### Install method\\n\\nnpm global\\n\\n### Model\\n\\ngithub-copilot/gemini-2.5-pro/moonshot/kimi-k2.5\\n\\n### Provider / routing chain\\n\\nopenclaw-\\u0026gt;github-copilot/gemini-2.5-pro-\\u0026gt;moonshot/kimi-k2.5\\n\\n### Additional provider/model setup details\\n\\n_No response_\\n\\n### Logs, screenshots, and evidence\\n\\n```shell\\n\\n```\\n\\n### Impact and severity\\n\\nNOT_ENOUGH_INFO\\n\\n### Additional information\\n\\n_No response_\",\"state\":\"OPEN\",\"user\":{\"login\":\"mattyou\"},\"labels\":[\"bug\",\"bug:behavior\"],\"created_at\":\"2026-03-24T08:04:12Z\",\"updated_at\":\"2026-03-24T08:04:20Z\"}],\"totalCount\":2011,\"pageInfo\":{\"hasNextPage\":true,\"hasPreviousPage\":false,\"startCursor\":\"Y3Vyc29yOnYyOpK5MjAyNi0wMy0yNFQwMTowNDoxMi0wNzowMM717a92\",\"endCursor\":\"Y3Vyc29yOnYyOpK5MjAyNi0wMy0yNFQwMTowNDoxMi0wNzowMM717a92\"}}"}]}
{"type":"assistant","message":{"model":"claude-sonnet-4-6","id":"msg_01BrA386KTmaMe7ywjk8JsC3","type":"message","role":"assistant","content":[{"type":"tool_use","id":"toolu_015Zp9yfx3nrkFdLRB4Kf6PC","name":"mcp__compressed-github__github_get_tool_schema","input":{"tool_name":"search_pull_requests"},"caller":{"type":"direct"}}],"stop_reason":null,"stop_sequence":null,"usage":{"input_tokens":1,"cache_creation_input_tokens":814,"cache_read_input_tokens":33531,"cache_creation":{"ephemeral_5m_input_tokens":0,"ephemeral_1h_input_tokens":814},"output_tokens":54,"service_tier":"standard","inference_geo":"not_available"},"context_management":null},"parent_tool_use_id":null,"session_id":"075a48e3-5678-4654-bb06-988ed2cdf1f2","uuid":"48fd7b38-2684-49cd-9214-95a2ea177404"}
{"type":"user","message":{"role":"user","content":[{"tool_use_id":"toolu_015Zp9yfx3nrkFdLRB4Kf6PC","type":"tool_result","content":"{\"result\":\"<tool>search_pull_requests(order, owner, page, perPage, query, repo, sort): Search for pull requests in GitHub repositories using issues search syntax already scoped to is:pr</tool>\\n\\n{\\n  \\\"type\\\": \\\"object\\\",\\n  \\\"properties\\\": {\\n    \\\"order\\\": {\\n      \\\"type\\\": \\\"string\\\",\\n      \\\"description\\\": \\\"Sort order\\\",\\n      \\\"enum\\\": [\\n        \\\"asc\\\",\\n        \\\"desc\\\"\\n      ]\\n    },\\n    \\\"owner\\\": {\\n      \\\"type\\\": \\\"string\\\",\\n      \\\"description\\\": \\\"Optional repository owner. If provided with repo, only pull requests for this repository are listed.\\\"\\n    },\\n    \\\"page\\\": {\\n      \\\"type\\\": \\\"number\\\",\\n      \\\"description\\\": \\\"Page number for pagination (min 1)\\\",\\n      \\\"minimum\\\": 1\\n    },\\n    \\\"perPage\\\": {\\n      \\\"type\\\": \\\"number\\\",\\n      \\\"description\\\": \\\"Results per page for pagination (min 1, max 100)\\\",\\n      \\\"minimum\\\": 1,\\n      \\\"maximum\\\": 100\\n    },\\n    \\\"query\\\": {\\n      \\\"type\\\": \\\"string\\\",\\n      \\\"description\\\": \\\"Search query using GitHub pull request search syntax\\\"\\n    },\\n    \\\"repo\\\": {\\n      \\\"type\\\": \\\"string\\\",\\n      \\\"description\\\": \\\"Optional repository name. If provided with owner, only pull requests for this repository are listed.\\\"\\n    },\\n    \\\"sort\\\": {\\n      \\\"type\\\": \\\"string\\\",\\n      \\\"description\\\": \\\"Sort field by number of matches of categories, defaults to best match\\\",\\n      \\\"enum\\\": [\\n        \\\"comments\\\",\\n        \\\"reactions\\\",\\n        \\\"reactions-+1\\\",\\n        \\\"reactions--1\\\",\\n        \\\"reactions-smile\\\",\\n        \\\"reactions-thinking_face\\\",\\n        \\\"reactions-heart\\\",\\n        \\\"reactions-tada\\\",\\n        \\\"interactions\\\",\\n        \\\"created\\\",\\n        \\\"updated\\\"\\n      ]\\n    }\\n  },\\n  \\\"required\\\": [\\n    \\\"query\\\"\\n  ]\\n}\"}"}]},"parent_tool_use_id":null,"session_id":"075a48e3-5678-4654-bb06-988ed2cdf1f2","uuid":"95767c91-be84-4497-a9b7-e17f7307430f","timestamp":"2026-03-24T08:19:50.170Z","tool_use_result":{"content":"{\"result\":\"<tool>search_pull_requests(order, owner, page, perPage, query, repo, sort): Search for pull requests in GitHub repositories using issues search syntax already scoped to is:pr</tool>\\n\\n{\\n  \\\"type\\\": \\\"object\\\",\\n  \\\"properties\\\": {\\n    \\\"order\\\": {\\n      \\\"type\\\": \\\"string\\\",\\n      \\\"description\\\": \\\"Sort order\\\",\\n      \\\"enum\\\": [\\n        \\\"asc\\\",\\n        \\\"desc\\\"\\n      ]\\n    },\\n    \\\"owner\\\": {\\n      \\\"type\\\": \\\"string\\\",\\n      \\\"description\\\": \\\"Optional repository owner. If provided with repo, only pull requests for this repository are listed.\\\"\\n    },\\n    \\\"page\\\": {\\n      \\\"type\\\": \\\"number\\\",\\n      \\\"description\\\": \\\"Page number for pagination (min 1)\\\",\\n      \\\"minimum\\\": 1\\n    },\\n    \\\"perPage\\\": {\\n      \\\"type\\\": \\\"number\\\",\\n      \\\"description\\\": \\\"Results per page for pagination (min 1, max 100)\\\",\\n      \\\"minimum\\\": 1,\\n      \\\"maximum\\\": 100\\n    },\\n    \\\"query\\\": {\\n      \\\"type\\\": \\\"string\\\",\\n      \\\"description\\\": \\\"Search query using GitHub pull request search syntax\\\"\\n    },\\n    \\\"repo\\\": {\\n      \\\"type\\\": \\\"string\\\",\\n      \\\"description\\\": \\\"Optional repository name. If provided with owner, only pull requests for this repository are listed.\\\"\\n    },\\n    \\\"sort\\\": {\\n      \\\"type\\\": \\\"string\\\",\\n      \\\"description\\\": \\\"Sort field by number of matches of categories, defaults to best match\\\",\\n      \\\"enum\\\": [\\n        \\\"comments\\\",\\n        \\\"reactions\\\",\\n        \\\"reactions-+1\\\",\\n        \\\"reactions--1\\\",\\n        \\\"reactions-smile\\\",\\n        \\\"reactions-thinking_face\\\",\\n        \\\"reactions-heart\\\",\\n        \\\"reactions-tada\\\",\\n        \\\"interactions\\\",\\n        \\\"created\\\",\\n        \\\"updated\\\"\\n      ]\\n    }\\n  },\\n  \\\"required\\\": [\\n    \\\"query\\\"\\n  ]\\n}\"}","structuredContent":{"result":"<tool>search_pull_requests(order, owner, page, perPage, query, repo, sort): Search for pull requests in GitHub repositories using issues search syntax already scoped to is:pr</tool>\n\n{\n  \"type\": \"object\",\n  \"properties\": {\n    \"order\": {\n      \"type\": \"string\",\n      \"description\": \"Sort order\",\n      \"enum\": [\n        \"asc\",\n        \"desc\"\n      ]\n    },\n    \"owner\": {\n      \"type\": \"string\",\n      \"description\": \"Optional repository owner. If provided with repo, only pull requests for this repository are listed.\"\n    },\n    \"page\": {\n      \"type\": \"number\",\n      \"description\": \"Page number for pagination (min 1)\",\n      \"minimum\": 1\n    },\n    \"perPage\": {\n      \"type\": \"number\",\n      \"description\": \"Results per page for pagination (min 1, max 100)\",\n      \"minimum\": 1,\n      \"maximum\": 100\n    },\n    \"query\": {\n      \"type\": \"string\",\n      \"description\": \"Search query using GitHub pull request search syntax\"\n    },\n    \"repo\": {\n      \"type\": \"string\",\n      \"description\": \"Optional repository name. If provided with owner, only pull requests for this repository are listed.\"\n    },\n    \"sort\": {\n      \"type\": \"string\",\n      \"description\": \"Sort field by number of matches of categories, defaults to best match\",\n      \"enum\": [\n        \"comments\",\n        \"reactions\",\n        \"reactions-+1\",\n        \"reactions--1\",\n        \"reactions-smile\",\n        \"reactions-thinking_face\",\n        \"reactions-heart\",\n        \"reactions-tada\",\n        \"interactions\",\n        \"created\",\n        \"updated\"\n      ]\n    }\n  },\n  \"required\": [\n    \"query\"\n  ]\n}"}}}
{"type":"assistant","message":{"model":"claude-sonnet-4-6","id":"msg_01A7TdE7zuGLbsGxa6k7iHs4","type":"message","role":"assistant","content":[{"type":"tool_use","id":"toolu_01K6xPgrL25DBRQn4SFYRcth","name":"mcp__compressed-github__github_invoke_tool","input":{"tool_name":"search_pull_requests","tool_input":{"query":"repo:openclaw/openclaw is:open is:pr 53537"}},"caller":{"type":"direct"}}],"stop_reason":null,"stop_sequence":null,"usage":{"input_tokens":1,"cache_creation_input_tokens":641,"cache_read_input_tokens":34345,"cache_creation":{"ephemeral_5m_input_tokens":0,"ephemeral_1h_input_tokens":641},"output_tokens":64,"service_tier":"standard","inference_geo":"not_available"},"context_management":null},"parent_tool_use_id":null,"session_id":"075a48e3-5678-4654-bb06-988ed2cdf1f2","uuid":"e5005db7-a754-4b3a-9841-c6776e79f8ae"}
{"type":"user","message":{"role":"user","content":[{"tool_use_id":"toolu_01K6xPgrL25DBRQn4SFYRcth","type":"tool_result","content":[{"type":"text","text":"{\"total_count\":0,\"incomplete_results\":false}"}]}]},"parent_tool_use_id":null,"session_id":"075a48e3-5678-4654-bb06-988ed2cdf1f2","uuid":"871e6ffa-b6eb-4357-9e60-de85a7db6b38","timestamp":"2026-03-24T08:19:54.220Z","tool_use_result":[{"type":"text","text":"{\"total_count\":0,\"incomplete_results\":false}"}]}
{"type":"assistant","message":{"model":"claude-sonnet-4-6","id":"msg_01CCwwb8a9zcqHjnLmJTt874","type":"message","role":"assistant","content":[{"type":"text","text":"**Most recent open bug issue:** [#53537](https://github.com/openclaw/openclaw/issues/53537)\n**Title:** `[Bug]: Gemini 2.5 Pro thinking content loops infinitely on model switch`\n\n**Summary:** When switching from Gemini 2.5 Pro to another model, `<think>` content repeats 40+ times until OpenClaw aborts. Reported on version 2026.3.23-2, Windows 10, via npm.\n\n**Fix in progress:** No — no open PRs reference issue #53537 in their title or body. No fix appears to be in progress yet."}],"stop_reason":null,"stop_sequence":null,"usage":{"input_tokens":1,"cache_creation_input_tokens":131,"cache_read_input_tokens":34986,"cache_creation":{"ephemeral_5m_input_tokens":0,"ephemeral_1h_input_tokens":131},"output_tokens":1,"service_tier":"standard","inference_geo":"not_available"},"context_management":null},"parent_tool_use_id":null,"session_id":"075a48e3-5678-4654-bb06-988ed2cdf1f2","uuid":"e5d24bb1-7cff-4661-b4ba-42cbe955ddc9"}
{"type":"result","subtype":"success","is_error":false,"duration_ms":25022,"duration_api_ms":19860,"num_turns":5,"result":"**Most recent open bug issue:** [#53537](https://github.com/openclaw/openclaw/issues/53537)\n**Title:** `[Bug]: Gemini 2.5 Pro thinking content loops infinitely on model switch`\n\n**Summary:** When switching from Gemini 2.5 Pro to another model, `<think>` content repeats 40+ times until OpenClaw aborts. Reported on version 2026.3.23-2, Windows 10, via npm.\n\n**Fix in progress:** No — no open PRs reference issue #53537 in their title or body. No fix appears to be in progress yet.","stop_reason":"end_turn","session_id":"075a48e3-5678-4654-bb06-988ed2cdf1f2","total_cost_usd":0.0915447,"usage":{"input_tokens":7,"cache_creation_input_tokens":9208,"cache_read_input_tokens":161529,"output_tokens":569,"server_tool_use":{"web_search_requests":0,"web_fetch_requests":0},"service_tier":"standard","cache_creation":{"ephemeral_1h_input_tokens":9208,"ephemeral_5m_input_tokens":0},"inference_geo":"","iterations":[],"speed":"standard"},"modelUsage":{"claude-sonnet-4-6":{"inputTokens":7,"outputTokens":569,"cacheReadInputTokens":161529,"cacheCreationInputTokens":9208,"webSearchRequests":0,"costUSD":0.0915447,"contextWindow":200000,"maxOutputTokens":32000}},"permission_denials":[],"fast_mode_state":"off","uuid":"a31041b4-187e-4339-a42a-31b64ff2960c"}
