{"type":"system","subtype":"init","cwd":"/Users/kunchen/.treehouse/axi-8d75ad/1/axi/bench/results/mcp-compressed-low/list_open_issues/run2/workspace","session_id":"b20ec830-3f45-4891-9311-60b107cd06d1","tools":["Task","TaskOutput","Bash","Glob","Grep","ExitPlanMode","Read","Edit","Write","NotebookEdit","WebFetch","TodoWrite","WebSearch","TaskStop","AskUserQuestion","Skill","EnterPlanMode","EnterWorktree","ExitWorktree","CronCreate","CronDelete","CronList","mcp__chrome-devtools__click","mcp__chrome-devtools__close_page","mcp__chrome-devtools__drag","mcp__chrome-devtools__emulate","mcp__chrome-devtools__evaluate_script","mcp__chrome-devtools__fill","mcp__chrome-devtools__fill_form","mcp__chrome-devtools__get_console_message","mcp__chrome-devtools__get_network_request","mcp__chrome-devtools__handle_dialog","mcp__chrome-devtools__hover","mcp__chrome-devtools__lighthouse_audit","mcp__chrome-devtools__list_console_messages","mcp__chrome-devtools__list_network_requests","mcp__chrome-devtools__list_pages","mcp__chrome-devtools__navigate_page","mcp__chrome-devtools__new_page","mcp__chrome-devtools__performance_analyze_insight","mcp__chrome-devtools__performance_start_trace","mcp__chrome-devtools__performance_stop_trace","mcp__chrome-devtools__press_key","mcp__chrome-devtools__resize_page","mcp__chrome-devtools__select_page","mcp__chrome-devtools__take_memory_snapshot","mcp__chrome-devtools__take_screenshot","mcp__chrome-devtools__take_snapshot","mcp__chrome-devtools__type_text","mcp__chrome-devtools__upload_file","mcp__chrome-devtools__wait_for","mcp__compressed-github__github_get_tool_schema","mcp__compressed-github__github_invoke_tool","ListMcpResourcesTool","ReadMcpResourceTool","LSP"],"mcp_servers":[{"name":"chrome-devtools","status":"connected"},{"name":"compressed-github","status":"connected"},{"name":"claude.ai Google Calendar","status":"needs-auth"},{"name":"claude.ai Gmail","status":"needs-auth"}],"model":"claude-sonnet-4-6","permissionMode":"bypassPermissions","slash_commands":["update-config","debug","simplify","batch","loop","claude-api","test-driven-development","axi","compact","context","cost","heapdump","init","pr-comments","release-notes","review","security-review","extra-usage","insights","mcp__compressed-github__AssignCodingAgent","mcp__compressed-github__issue_to_fix_workflow"],"apiKeySource":"none","claude_code_version":"2.1.77","output_style":"default","agents":["general-purpose","statusline-setup","Explore","Plan","claude-code-guide"],"skills":["update-config","debug","simplify","batch","loop","claude-api","test-driven-development","axi"],"plugins":[{"name":"rust-analyzer-lsp","path":"/Users/kunchen/.claude/plugins/cache/claude-plugins-official/rust-analyzer-lsp/1.0.0"}],"uuid":"8c70f34c-bd1a-4aad-bcc2-f8dcc0c17244","fast_mode_state":"off"}
{"type":"assistant","message":{"model":"claude-sonnet-4-6","id":"msg_01BaBfMHYf8qefya7Zbt9uKn","type":"message","role":"assistant","content":[{"type":"thinking","thinking":"The user wants to list open issues in the `openclaw/openclaw` repository and find the most recent one. I'll use the GitHub MCP tool to do this.","signature":"ErgCCkYIDBgCKkAzuHiEJttfyqJZtEgHH/I25Dhg37gdanP4Ou6dDhSBG5OyBGfuBrD8k24YD3T2L5QfQ6sDFXmKFmpE6pVZW6NQEgzCxGZqJ3lR/ZU4m1caDHXccL6d+CBrAVIspiIwP79f8yONSGjRclW85u6vXgSq7wNgGFd9booiOrfDfTZiIEv9ulmHx0HA0kkgsSbNKp8B1kPLs8cA5Uz+XYVE5ajvK0fzDMzcQIoM13/m/gQ2rJAxLmGB8BD4rcq2VR/8hdy8mN2Q4+BPpbfPwywKVpKBuaZVfdE9OjRaD5gtBx2kxvv7jMhPBQyinL5/4LaXP7A9IM0nKtGnefP3bVtHmd7VLKAvOcBwElvJMBHvfqTHo0HGachzxGRDFIc9z7x3sLxlG8P7mrYH5a4r3mQSKjAbGAE="}],"stop_reason":null,"stop_sequence":null,"usage":{"input_tokens":3,"cache_creation_input_tokens":0,"cache_read_input_tokens":34075,"cache_creation":{"ephemeral_5m_input_tokens":0,"ephemeral_1h_input_tokens":0},"output_tokens":0,"service_tier":"standard","inference_geo":"not_available"},"context_management":null},"parent_tool_use_id":null,"session_id":"b20ec830-3f45-4891-9311-60b107cd06d1","uuid":"ab7683c8-7206-4698-8cec-51ff866a0777"}
{"type":"assistant","message":{"model":"claude-sonnet-4-6","id":"msg_01BaBfMHYf8qefya7Zbt9uKn","type":"message","role":"assistant","content":[{"type":"tool_use","id":"toolu_01QnjscisJxynK8GEQyJtFh5","name":"mcp__compressed-github__github_invoke_tool","input":{"tool_name":"list_issues","tool_input":{"owner":"openclaw","repo":"openclaw","state":"open","orderBy":"CREATED_AT","direction":"desc","perPage":1}},"caller":{"type":"direct"}}],"stop_reason":null,"stop_sequence":null,"usage":{"input_tokens":3,"cache_creation_input_tokens":0,"cache_read_input_tokens":34075,"cache_creation":{"ephemeral_5m_input_tokens":0,"ephemeral_1h_input_tokens":0},"output_tokens":0,"service_tier":"standard","inference_geo":"not_available"},"context_management":null},"parent_tool_use_id":null,"session_id":"b20ec830-3f45-4891-9311-60b107cd06d1","uuid":"7e64faaa-4d8d-411c-ba6b-dd19459c41b4"}
{"type":"rate_limit_event","rate_limit_info":{"status":"allowed","resetsAt":1774342800,"rateLimitType":"five_hour","overageStatus":"rejected","overageDisabledReason":"org_level_disabled","isUsingOverage":false},"uuid":"e55065e1-defb-4a66-a445-4d7ef221b355","session_id":"b20ec830-3f45-4891-9311-60b107cd06d1"}
{"type":"user","message":{"role":"user","content":[{"tool_use_id":"toolu_01QnjscisJxynK8GEQyJtFh5","type":"tool_result","content":[{"type":"text","text":"{\"issues\":[{\"number\":53457,\"title\":\"Feature: Global system prompt injection for multi-agent governance (with NemoClaw analysis)\",\"body\":\"## Summary\\n\\nWhen running multiple agents across a portfolio (different workspaces, different servers), there is no single configuration point to inject mandatory rules into every agent\\u0026#39;s system prompt.\\n\\n## Use Case\\n\\nAn organization operating multiple agents needs to enforce a universal policy (e.g., citation verification, compliance rules, output safety standards) across all agents. Today, the only option is to manually add the rule to each agent\\u0026#39;s SOUL.md or AGENTS.md — one file per workspace, per server.\\n\\nThis works but doesn\\u0026#39;t scale:\\n- New agents can be deployed without the rule\\n- There\\u0026#39;s no enforcement at the framework level — it\\u0026#39;s convention, not configuration\\n- Multi-server deployments require SSH\\u0026#39;ing into each machine to update workspace files\\n\\n## Proposed Solution\\n\\nA new configuration key at the `agents.defaults` level:\\n\\n```json5\\n{\\n  agents: {\\n    defaults: {\\n      systemPromptAppend: \\u0026#34;Never fabricate a URL, citation, or verifiable fact. If unsure, say so.\\u0026#34;,\\n      // or for multi-line:\\n      systemPromptAppendFile: \\u0026#34;policies/global-rules.md\\u0026#34;,\\n    }\\n  }\\n}\\n```\\n\\nThis text would be injected into the system prompt for **every agent run** on that gateway, regardless of which agent or workspace is active.\\n\\n## Alternatives Considered\\n\\n1. **Per-workspace bootstrap files (AGENTS.md, SOUL.md)** — works today but requires per-workspace maintenance and has no enforcement mechanism\\n2. **Per-channel `systemPrompt`** — channel-scoped, not agent-scoped; requires N configs to maintain\\n3. **`agent:bootstrap` hooks** — internal/code-level, not a user-facing config\\n\\n---\\n\\n## NemoClaw Analysis — Does It Already Solve This?\\n\\nWe evaluated [NVIDIA NemoClaw](https://github.com/NVIDIA/NemoClaw) (alpha since March 16, 2026) to determine whether it addresses this need.\\n\\n### What NemoClaw Provides\\n\\nNemoClaw runs OpenClaw inside NVIDIA OpenShell sandboxes with:\\n- **Network isolation** — Deny-by-default egress with declarative YAML policies. Unknown hosts blocked and surfaced for operator approval.\\n- **Filesystem sandboxing** — Landlock LSM enforcement. Agents write only to `/sandbox` and `/tmp`.\\n- **Process isolation** — seccomp + network namespaces. Blocks privilege escalation and dangerous syscalls.\\n- **Inference routing** — All model API calls pass through the OpenShell gateway. Transparent to the agent.\\n\\n### What NemoClaw Does NOT Provide\\n\\nNemoClaw controls the **execution environment** (what agents can *do*), not **prompt content** (what agents *say*).\\n\\n| Capability | NemoClaw | This Feature Request |\\n|---|---|---|\\n| Prevent unauthorized network access | ✅ Deny-by-default | N/A |\\n| Prevent filesystem escape | ✅ Landlock | N/A |\\n| Inject governance rules into system prompt | ❌ Not supported | ✅ Core request |\\n| Validate output content (URL verification) | ❌ Not in scope | Related (post-generation) |\\n| Apply policy across multiple agents from one config | ❌ Single-sandbox model | ✅ Multi-agent governance |\\n| Intercept/modify prompt before LLM call | ❌ Transparent proxy | Potential future hook |\\n\\n### Engineering Assessment\\n\\n**From an SRE perspective:** NemoClaw\\u0026#39;s OpenShell inference routing is a transparent destination proxy, not a payload transformer. There is no documented hook for prompt mutation, and forking OpenShell to add one is not practical. The deny-by-default egress policy does provide useful defense-in-depth (agents can\\u0026#39;t silently validate fabricated URLs against unreachable hosts), but that\\u0026#39;s orthogonal to content governance.\\n\\n**From a security perspective:** NemoClaw\\u0026#39;s sandbox model (Landlock + seccomp + network namespaces) is genuine infrastructure-level isolation — useful for preventing data exfiltration and unauthorized access. However, content-level governance (preventing fabricated citations, hallucinated facts) operates at a different layer entirely. No amount of network or process isolation prevents an LLM from generating a plausible-looking but fake URL in its output. The gateway-level `systemPromptAppend` is the correct architectural layer for this problem.\\n\\n### Conclusion\\n\\n**NemoClaw and `systemPromptAppend` are complementary, not overlapping:**\\n- **NemoClaw** = execution-level guardrails (what the agent can *do*)\\n- **`systemPromptAppend`** = content-level guardrails (what the agent should *say* and *not fabricate*)\\n\\nA complete multi-agent governance stack needs both. NemoClaw prevents unauthorized actions. `systemPromptAppend` prevents fabricated content.\\n\\n**Potential future hook:** NemoClaw\\u0026#39;s inference routing intercepts all model API calls before they reach the provider. This could theoretically be extended to inject system prompt rules at the proxy layer — worth exploring as a complementary NemoClaw/OpenShell feature request.\\n\\n---\\n\\n## Impact\\n\\nThis is particularly important for organizations using OpenClaw in regulated or public-facing contexts where hallucinated facts, fabricated citations, or policy violations carry real reputational or compliance risk.\\n\",\"state\":\"OPEN\",\"user\":{\"login\":\"noosphera-deploy\"},\"created_at\":\"2026-03-24T06:16:21Z\",\"updated_at\":\"2026-03-24T06:16:21Z\"}],\"totalCount\":9055,\"pageInfo\":{\"hasNextPage\":true,\"hasPreviousPage\":false,\"startCursor\":\"Y3Vyc29yOnYyOpK5MjAyNi0wMy0yM1QyMzoxNjoyMS0wNzowMM715roA\",\"endCursor\":\"Y3Vyc29yOnYyOpK5MjAyNi0wMy0yM1QyMzoxNjoyMS0wNzowMM715roA\"}}"}]}]},"parent_tool_use_id":null,"session_id":"b20ec830-3f45-4891-9311-60b107cd06d1","uuid":"8a41da0a-6e80-4324-bdfd-80b51a21794c","timestamp":"2026-03-24T06:27:28.770Z","tool_use_result":[{"type":"text","text":"{\"issues\":[{\"number\":53457,\"title\":\"Feature: Global system prompt injection for multi-agent governance (with NemoClaw analysis)\",\"body\":\"## Summary\\n\\nWhen running multiple agents across a portfolio (different workspaces, different servers), there is no single configuration point to inject mandatory rules into every agent\\u0026#39;s system prompt.\\n\\n## Use Case\\n\\nAn organization operating multiple agents needs to enforce a universal policy (e.g., citation verification, compliance rules, output safety standards) across all agents. Today, the only option is to manually add the rule to each agent\\u0026#39;s SOUL.md or AGENTS.md — one file per workspace, per server.\\n\\nThis works but doesn\\u0026#39;t scale:\\n- New agents can be deployed without the rule\\n- There\\u0026#39;s no enforcement at the framework level — it\\u0026#39;s convention, not configuration\\n- Multi-server deployments require SSH\\u0026#39;ing into each machine to update workspace files\\n\\n## Proposed Solution\\n\\nA new configuration key at the `agents.defaults` level:\\n\\n```json5\\n{\\n  agents: {\\n    defaults: {\\n      systemPromptAppend: \\u0026#34;Never fabricate a URL, citation, or verifiable fact. If unsure, say so.\\u0026#34;,\\n      // or for multi-line:\\n      systemPromptAppendFile: \\u0026#34;policies/global-rules.md\\u0026#34;,\\n    }\\n  }\\n}\\n```\\n\\nThis text would be injected into the system prompt for **every agent run** on that gateway, regardless of which agent or workspace is active.\\n\\n## Alternatives Considered\\n\\n1. **Per-workspace bootstrap files (AGENTS.md, SOUL.md)** — works today but requires per-workspace maintenance and has no enforcement mechanism\\n2. **Per-channel `systemPrompt`** — channel-scoped, not agent-scoped; requires N configs to maintain\\n3. **`agent:bootstrap` hooks** — internal/code-level, not a user-facing config\\n\\n---\\n\\n## NemoClaw Analysis — Does It Already Solve This?\\n\\nWe evaluated [NVIDIA NemoClaw](https://github.com/NVIDIA/NemoClaw) (alpha since March 16, 2026) to determine whether it addresses this need.\\n\\n### What NemoClaw Provides\\n\\nNemoClaw runs OpenClaw inside NVIDIA OpenShell sandboxes with:\\n- **Network isolation** — Deny-by-default egress with declarative YAML policies. Unknown hosts blocked and surfaced for operator approval.\\n- **Filesystem sandboxing** — Landlock LSM enforcement. Agents write only to `/sandbox` and `/tmp`.\\n- **Process isolation** — seccomp + network namespaces. Blocks privilege escalation and dangerous syscalls.\\n- **Inference routing** — All model API calls pass through the OpenShell gateway. Transparent to the agent.\\n\\n### What NemoClaw Does NOT Provide\\n\\nNemoClaw controls the **execution environment** (what agents can *do*), not **prompt content** (what agents *say*).\\n\\n| Capability | NemoClaw | This Feature Request |\\n|---|---|---|\\n| Prevent unauthorized network access | ✅ Deny-by-default | N/A |\\n| Prevent filesystem escape | ✅ Landlock | N/A |\\n| Inject governance rules into system prompt | ❌ Not supported | ✅ Core request |\\n| Validate output content (URL verification) | ❌ Not in scope | Related (post-generation) |\\n| Apply policy across multiple agents from one config | ❌ Single-sandbox model | ✅ Multi-agent governance |\\n| Intercept/modify prompt before LLM call | ❌ Transparent proxy | Potential future hook |\\n\\n### Engineering Assessment\\n\\n**From an SRE perspective:** NemoClaw\\u0026#39;s OpenShell inference routing is a transparent destination proxy, not a payload transformer. There is no documented hook for prompt mutation, and forking OpenShell to add one is not practical. The deny-by-default egress policy does provide useful defense-in-depth (agents can\\u0026#39;t silently validate fabricated URLs against unreachable hosts), but that\\u0026#39;s orthogonal to content governance.\\n\\n**From a security perspective:** NemoClaw\\u0026#39;s sandbox model (Landlock + seccomp + network namespaces) is genuine infrastructure-level isolation — useful for preventing data exfiltration and unauthorized access. However, content-level governance (preventing fabricated citations, hallucinated facts) operates at a different layer entirely. No amount of network or process isolation prevents an LLM from generating a plausible-looking but fake URL in its output. The gateway-level `systemPromptAppend` is the correct architectural layer for this problem.\\n\\n### Conclusion\\n\\n**NemoClaw and `systemPromptAppend` are complementary, not overlapping:**\\n- **NemoClaw** = execution-level guardrails (what the agent can *do*)\\n- **`systemPromptAppend`** = content-level guardrails (what the agent should *say* and *not fabricate*)\\n\\nA complete multi-agent governance stack needs both. NemoClaw prevents unauthorized actions. `systemPromptAppend` prevents fabricated content.\\n\\n**Potential future hook:** NemoClaw\\u0026#39;s inference routing intercepts all model API calls before they reach the provider. This could theoretically be extended to inject system prompt rules at the proxy layer — worth exploring as a complementary NemoClaw/OpenShell feature request.\\n\\n---\\n\\n## Impact\\n\\nThis is particularly important for organizations using OpenClaw in regulated or public-facing contexts where hallucinated facts, fabricated citations, or policy violations carry real reputational or compliance risk.\\n\",\"state\":\"OPEN\",\"user\":{\"login\":\"noosphera-deploy\"},\"created_at\":\"2026-03-24T06:16:21Z\",\"updated_at\":\"2026-03-24T06:16:21Z\"}],\"totalCount\":9055,\"pageInfo\":{\"hasNextPage\":true,\"hasPreviousPage\":false,\"startCursor\":\"Y3Vyc29yOnYyOpK5MjAyNi0wMy0yM1QyMzoxNjoyMS0wNzowMM715roA\",\"endCursor\":\"Y3Vyc29yOnYyOpK5MjAyNi0wMy0yM1QyMzoxNjoyMS0wNzowMM715roA\"}}"}]}
{"type":"assistant","message":{"model":"claude-sonnet-4-6","id":"msg_018KtLC39okCHdJvZ3rMyrXi","type":"message","role":"assistant","content":[{"type":"text","text":"The most recent open issue in `openclaw/openclaw` is:\n\n**#53457 — \"Feature: Global system prompt injection for multi-agent governance (with NemoClaw analysis)\"**\n\nCreated by `noosphera-deploy` on 2026-03-24."}],"stop_reason":null,"stop_sequence":null,"usage":{"input_tokens":1,"cache_creation_input_tokens":1834,"cache_read_input_tokens":34075,"cache_creation":{"ephemeral_5m_input_tokens":0,"ephemeral_1h_input_tokens":1834},"output_tokens":1,"service_tier":"standard","inference_geo":"not_available"},"context_management":null},"parent_tool_use_id":null,"session_id":"b20ec830-3f45-4891-9311-60b107cd06d1","uuid":"c01c411d-ad7e-4195-b27d-d73568254459"}
{"type":"result","subtype":"success","is_error":false,"duration_ms":7267,"duration_api_ms":6292,"num_turns":2,"result":"The most recent open issue in `openclaw/openclaw` is:\n\n**#53457 — \"Feature: Global system prompt injection for multi-agent governance (with NemoClaw analysis)\"**\n\nCreated by `noosphera-deploy` on 2026-03-24.","stop_reason":"end_turn","session_id":"b20ec830-3f45-4891-9311-60b107cd06d1","total_cost_usd":0.0309645,"usage":{"input_tokens":4,"cache_creation_input_tokens":1834,"cache_read_input_tokens":68150,"output_tokens":242,"server_tool_use":{"web_search_requests":0,"web_fetch_requests":0},"service_tier":"standard","cache_creation":{"ephemeral_1h_input_tokens":1834,"ephemeral_5m_input_tokens":0},"inference_geo":"","iterations":[],"speed":"standard"},"modelUsage":{"claude-sonnet-4-6":{"inputTokens":4,"outputTokens":242,"cacheReadInputTokens":68150,"cacheCreationInputTokens":1834,"webSearchRequests":0,"costUSD":0.0309645,"contextWindow":200000,"maxOutputTokens":32000}},"permission_denials":[],"fast_mode_state":"off","uuid":"40f5b4f7-0c34-4c46-bf79-dafe93770081"}
