{"type":"system","subtype":"init","cwd":"/Users/kunchen/.treehouse/axi-8d75ad/1/axi/bench/results/mcp-compressed-medium/find_fix_for_bug/run3/workspace","session_id":"17c9e888-45c2-4d69-8eba-f2559ccf7c5e","tools":["Task","TaskOutput","Bash","Glob","Grep","ExitPlanMode","Read","Edit","Write","NotebookEdit","WebFetch","TodoWrite","WebSearch","TaskStop","AskUserQuestion","Skill","EnterPlanMode","EnterWorktree","ExitWorktree","CronCreate","CronDelete","CronList","mcp__chrome-devtools__click","mcp__chrome-devtools__close_page","mcp__chrome-devtools__drag","mcp__chrome-devtools__emulate","mcp__chrome-devtools__evaluate_script","mcp__chrome-devtools__fill","mcp__chrome-devtools__fill_form","mcp__chrome-devtools__get_console_message","mcp__chrome-devtools__get_network_request","mcp__chrome-devtools__handle_dialog","mcp__chrome-devtools__hover","mcp__chrome-devtools__lighthouse_audit","mcp__chrome-devtools__list_console_messages","mcp__chrome-devtools__list_network_requests","mcp__chrome-devtools__list_pages","mcp__chrome-devtools__navigate_page","mcp__chrome-devtools__new_page","mcp__chrome-devtools__performance_analyze_insight","mcp__chrome-devtools__performance_start_trace","mcp__chrome-devtools__performance_stop_trace","mcp__chrome-devtools__press_key","mcp__chrome-devtools__resize_page","mcp__chrome-devtools__select_page","mcp__chrome-devtools__take_memory_snapshot","mcp__chrome-devtools__take_screenshot","mcp__chrome-devtools__take_snapshot","mcp__chrome-devtools__type_text","mcp__chrome-devtools__upload_file","mcp__chrome-devtools__wait_for","mcp__compressed-github__github_get_tool_schema","mcp__compressed-github__github_invoke_tool","ListMcpResourcesTool","ReadMcpResourceTool","LSP"],"mcp_servers":[{"name":"chrome-devtools","status":"connected"},{"name":"compressed-github","status":"connected"},{"name":"claude.ai Google Calendar","status":"needs-auth"},{"name":"claude.ai Gmail","status":"needs-auth"}],"model":"claude-sonnet-4-6","permissionMode":"bypassPermissions","slash_commands":["update-config","debug","simplify","batch","loop","claude-api","test-driven-development","axi","compact","context","cost","heapdump","init","pr-comments","release-notes","review","security-review","extra-usage","insights","mcp__compressed-github__AssignCodingAgent","mcp__compressed-github__issue_to_fix_workflow"],"apiKeySource":"none","claude_code_version":"2.1.77","output_style":"default","agents":["general-purpose","statusline-setup","Explore","Plan","claude-code-guide"],"skills":["update-config","debug","simplify","batch","loop","claude-api","test-driven-development","axi"],"plugins":[{"name":"rust-analyzer-lsp","path":"/Users/kunchen/.claude/plugins/cache/claude-plugins-official/rust-analyzer-lsp/1.0.0"}],"uuid":"532313f5-0a1c-4ecb-8fd9-f1494a5729c6","fast_mode_state":"off"}
{"type":"assistant","message":{"model":"claude-sonnet-4-6","id":"msg_01Lv7w3Jby73We9Gn73HCZ1T","type":"message","role":"assistant","content":[{"type":"thinking","thinking":"Let me find the most recent open issue labeled 'bug' in openclaw/openclaw, then check for open PRs that reference that issue number.","signature":"Eq0CCkYIDBgCKkAwm9wv9SUzlbN8tMBgrN5zfZ4tZxL4uAjTW/nA7vDy2obe54vIhLrVoPQueAst9WIUobmClD//BO4CWWcwsV+sEgwi1lAjXsSM9/txHnQaDEIeI+HmeFuTVg8NzSIwA/H4XUwIK70fSR2vKdSSxjBWgF+lt2iQi1LH6VCX3SNc1z8nGOBUcQG1wYmnUz36KpQB1JXH1j0Db3dnV6SEKqMPgqhYX7OQJiTBmaGWgPt4Bd6pyxlJsFzQ+ugQRXSZC29F9JPEItk/zRqPWCt6UsxogiqnyhDpbViRdw2f7+l7PUwHxn54ZXZEiIZZOVxOsOR+WnbHnocU+Pezxik4O2qGC3jT/4v6CBg7h5xUrfjQfGOeGxK86vjjdOMCPj7NTiQy9z3NyRgB"}],"stop_reason":null,"stop_sequence":null,"usage":{"input_tokens":3,"cache_creation_input_tokens":6854,"cache_read_input_tokens":26438,"cache_creation":{"ephemeral_5m_input_tokens":0,"ephemeral_1h_input_tokens":6854},"output_tokens":0,"service_tier":"standard","inference_geo":"not_available"},"context_management":null},"parent_tool_use_id":null,"session_id":"17c9e888-45c2-4d69-8eba-f2559ccf7c5e","uuid":"8ec085fe-01c4-4faa-9c15-a1cafb3e4615"}
{"type":"assistant","message":{"model":"claude-sonnet-4-6","id":"msg_01Lv7w3Jby73We9Gn73HCZ1T","type":"message","role":"assistant","content":[{"type":"tool_use","id":"toolu_01B8nTYHxb9XYwwfsTv7k35U","name":"mcp__compressed-github__github_invoke_tool","input":{"tool_name":"list_issues","tool_input":{"owner":"openclaw","repo":"openclaw","state":"open","labels":["bug"],"perPage":1}},"caller":{"type":"direct"}}],"stop_reason":null,"stop_sequence":null,"usage":{"input_tokens":3,"cache_creation_input_tokens":6854,"cache_read_input_tokens":26438,"cache_creation":{"ephemeral_5m_input_tokens":0,"ephemeral_1h_input_tokens":6854},"output_tokens":0,"service_tier":"standard","inference_geo":"not_available"},"context_management":null},"parent_tool_use_id":null,"session_id":"17c9e888-45c2-4d69-8eba-f2559ccf7c5e","uuid":"60a0a6c0-ebcf-459b-a3b2-1884d1a44c24"}
{"type":"rate_limit_event","rate_limit_info":{"status":"allowed","resetsAt":1774342800,"rateLimitType":"five_hour","overageStatus":"rejected","overageDisabledReason":"org_level_disabled","isUsingOverage":false},"uuid":"06c5d073-949b-4ea5-8224-73758548e438","session_id":"17c9e888-45c2-4d69-8eba-f2559ccf7c5e"}
{"type":"user","message":{"role":"user","content":[{"tool_use_id":"toolu_01B8nTYHxb9XYwwfsTv7k35U","type":"tool_result","content":[{"type":"text","text":"{\"issues\":[{\"number\":53537,\"title\":\"[Bug]: Gemini 2.5 Pro thinking content loops infinitely on model switch\",\"body\":\"### Bug type\\n\\nBehavior bug (incorrect output/state without crash)\\n\\n### Summary\\n\\nWhen switching from Gemini 2.5 Pro to another model, the `` content repeats infinitely\\n until OpenClaw aborts the run.\\n\\n### Steps to reproduce\\n\\n1. Set model to `github-copilot/gemini-2.5-pro`\\n   2. Send a message to trigger Gemini\\u0026#39;s reasoning/thinking output\\n   3. Send another message that switches model (e.g., to `moonshot/kimi-k2.5`)\\n   4. Observe the output\\n\\n### Expected behavior\\n\\nModel switch should work normally without repeating content.\\n\\n### Actual behavior\\n\\nThe `` content from Gemini 2.5 Pro repeats approximately 40+ times:\\n\\n### OpenClaw version\\n\\n2026.3.23-2 (7ffe7e4)\\n\\n### Operating system\\n\\nWindows 10.0.26200\\n\\n### Install method\\n\\nnpm global\\n\\n### Model\\n\\ngithub-copilot/gemini-2.5-pro/moonshot/kimi-k2.5\\n\\n### Provider / routing chain\\n\\nopenclaw-\\u0026gt;github-copilot/gemini-2.5-pro-\\u0026gt;moonshot/kimi-k2.5\\n\\n### Additional provider/model setup details\\n\\n_No response_\\n\\n### Logs, screenshots, and evidence\\n\\n```shell\\n\\n```\\n\\n### Impact and severity\\n\\nNOT_ENOUGH_INFO\\n\\n### Additional information\\n\\n_No response_\",\"state\":\"OPEN\",\"user\":{\"login\":\"mattyou\"},\"labels\":[\"bug\",\"bug:behavior\"],\"created_at\":\"2026-03-24T08:04:12Z\",\"updated_at\":\"2026-03-24T08:04:20Z\"}],\"totalCount\":2011,\"pageInfo\":{\"hasNextPage\":true,\"hasPreviousPage\":false,\"startCursor\":\"Y3Vyc29yOnYyOpK5MjAyNi0wMy0yNFQwMTowNDoxMi0wNzowMM717a92\",\"endCursor\":\"Y3Vyc29yOnYyOpK5MjAyNi0wMy0yNFQwMTowNDoxMi0wNzowMM717a92\"}}"}]}]},"parent_tool_use_id":null,"session_id":"17c9e888-45c2-4d69-8eba-f2559ccf7c5e","uuid":"9bc32deb-a2eb-44cd-89ac-a8d588a21aac","timestamp":"2026-03-24T08:15:53.647Z","tool_use_result":[{"type":"text","text":"{\"issues\":[{\"number\":53537,\"title\":\"[Bug]: Gemini 2.5 Pro thinking content loops infinitely on model switch\",\"body\":\"### Bug type\\n\\nBehavior bug (incorrect output/state without crash)\\n\\n### Summary\\n\\nWhen switching from Gemini 2.5 Pro to another model, the `` content repeats infinitely\\n until OpenClaw aborts the run.\\n\\n### Steps to reproduce\\n\\n1. Set model to `github-copilot/gemini-2.5-pro`\\n   2. Send a message to trigger Gemini\\u0026#39;s reasoning/thinking output\\n   3. Send another message that switches model (e.g., to `moonshot/kimi-k2.5`)\\n   4. Observe the output\\n\\n### Expected behavior\\n\\nModel switch should work normally without repeating content.\\n\\n### Actual behavior\\n\\nThe `` content from Gemini 2.5 Pro repeats approximately 40+ times:\\n\\n### OpenClaw version\\n\\n2026.3.23-2 (7ffe7e4)\\n\\n### Operating system\\n\\nWindows 10.0.26200\\n\\n### Install method\\n\\nnpm global\\n\\n### Model\\n\\ngithub-copilot/gemini-2.5-pro/moonshot/kimi-k2.5\\n\\n### Provider / routing chain\\n\\nopenclaw-\\u0026gt;github-copilot/gemini-2.5-pro-\\u0026gt;moonshot/kimi-k2.5\\n\\n### Additional provider/model setup details\\n\\n_No response_\\n\\n### Logs, screenshots, and evidence\\n\\n```shell\\n\\n```\\n\\n### Impact and severity\\n\\nNOT_ENOUGH_INFO\\n\\n### Additional information\\n\\n_No response_\",\"state\":\"OPEN\",\"user\":{\"login\":\"mattyou\"},\"labels\":[\"bug\",\"bug:behavior\"],\"created_at\":\"2026-03-24T08:04:12Z\",\"updated_at\":\"2026-03-24T08:04:20Z\"}],\"totalCount\":2011,\"pageInfo\":{\"hasNextPage\":true,\"hasPreviousPage\":false,\"startCursor\":\"Y3Vyc29yOnYyOpK5MjAyNi0wMy0yNFQwMTowNDoxMi0wNzowMM717a92\",\"endCursor\":\"Y3Vyc29yOnYyOpK5MjAyNi0wMy0yNFQwMTowNDoxMi0wNzowMM717a92\"}}"}]}
{"type":"assistant","message":{"model":"claude-sonnet-4-6","id":"msg_011PGHrB7bXUmEPLWoZnxeb6","type":"message","role":"assistant","content":[{"type":"tool_use","id":"toolu_017vNtZDy45hjcsWuV7u5WoD","name":"mcp__compressed-github__github_invoke_tool","input":{"tool_name":"search_pull_requests","tool_input":{"owner":"openclaw","repo":"openclaw","query":"53537 is:open","perPage":5}},"caller":{"type":"direct"}}],"stop_reason":null,"stop_sequence":null,"usage":{"input_tokens":1,"cache_creation_input_tokens":846,"cache_read_input_tokens":33292,"cache_creation":{"ephemeral_5m_input_tokens":0,"ephemeral_1h_input_tokens":846},"output_tokens":58,"service_tier":"standard","inference_geo":"not_available"},"context_management":null},"parent_tool_use_id":null,"session_id":"17c9e888-45c2-4d69-8eba-f2559ccf7c5e","uuid":"dc7a2f4a-f2e6-4bfa-aceb-653df774433e"}
{"type":"user","message":{"role":"user","content":[{"tool_use_id":"toolu_017vNtZDy45hjcsWuV7u5WoD","type":"tool_result","content":[{"type":"text","text":"{\"total_count\":0,\"incomplete_results\":false}"}]}]},"parent_tool_use_id":null,"session_id":"17c9e888-45c2-4d69-8eba-f2559ccf7c5e","uuid":"fbde79db-eebe-442e-b3be-d7ccf7839a47","timestamp":"2026-03-24T08:15:56.584Z","tool_use_result":[{"type":"text","text":"{\"total_count\":0,\"incomplete_results\":false}"}]}
{"type":"assistant","message":{"model":"claude-sonnet-4-6","id":"msg_011nbh7VGg8kSpPqpuqXAJsw","type":"message","role":"assistant","content":[{"type":"text","text":"No open PRs reference issue #53537.\n\n---\n\n**Most recent open bug issue:** [#53537] **\"[Bug]: Gemini 2.5 Pro thinking content loops infinitely on model switch\"**\n\n- Reported: 2026-03-24 by `mattyou`\n- When switching from `gemini-2.5-pro` to another model, the `<thinking>` content repeats 40+ times until OpenClaw aborts.\n\n**Fix in progress:** No — no open PRs reference this issue number. No fix appears to be in progress yet."}],"stop_reason":null,"stop_sequence":null,"usage":{"input_tokens":1,"cache_creation_input_tokens":141,"cache_read_input_tokens":34138,"cache_creation":{"ephemeral_5m_input_tokens":0,"ephemeral_1h_input_tokens":141},"output_tokens":1,"service_tier":"standard","inference_geo":"not_available"},"context_management":null},"parent_tool_use_id":null,"session_id":"17c9e888-45c2-4d69-8eba-f2559ccf7c5e","uuid":"29b53bf4-5996-459f-8a6b-3891a97e2d14"}
{"type":"result","subtype":"success","is_error":false,"duration_ms":12308,"duration_api_ms":8873,"num_turns":3,"result":"No open PRs reference issue #53537.\n\n---\n\n**Most recent open bug issue:** [#53537] **\"[Bug]: Gemini 2.5 Pro thinking content loops infinitely on model switch\"**\n\n- Reported: 2026-03-24 by `mattyou`\n- When switching from `gemini-2.5-pro` to another model, the `<thinking>` content repeats 40+ times until OpenClaw aborts.\n\n**Fix in progress:** No — no open PRs reference this issue number. No fix appears to be in progress yet.","stop_reason":"end_turn","session_id":"17c9e888-45c2-4d69-8eba-f2559ccf7c5e","total_cost_usd":0.06381915,"usage":{"input_tokens":5,"cache_creation_input_tokens":7841,"cache_read_input_tokens":93868,"output_tokens":416,"server_tool_use":{"web_search_requests":0,"web_fetch_requests":0},"service_tier":"standard","cache_creation":{"ephemeral_1h_input_tokens":7841,"ephemeral_5m_input_tokens":0},"inference_geo":"","iterations":[],"speed":"standard"},"modelUsage":{"claude-sonnet-4-6":{"inputTokens":5,"outputTokens":416,"cacheReadInputTokens":93868,"cacheCreationInputTokens":7841,"webSearchRequests":0,"costUSD":0.06381915,"contextWindow":200000,"maxOutputTokens":32000}},"permission_denials":[],"fast_mode_state":"off","uuid":"958c6579-2c46-44d7-b942-7473c325290f"}
