{"type":"system","subtype":"init","cwd":"/Users/kunchen/.treehouse/axi-8d75ad/1/axi/bench/results/mcp-compressed-high/issue_then_comments/run5/workspace","session_id":"a27a3488-9ead-4f1f-b46e-ff1ef90c9958","tools":["Task","TaskOutput","Bash","Glob","Grep","ExitPlanMode","Read","Edit","Write","NotebookEdit","WebFetch","TodoWrite","WebSearch","TaskStop","AskUserQuestion","Skill","EnterPlanMode","EnterWorktree","ExitWorktree","CronCreate","CronDelete","CronList","mcp__chrome-devtools__click","mcp__chrome-devtools__close_page","mcp__chrome-devtools__drag","mcp__chrome-devtools__emulate","mcp__chrome-devtools__evaluate_script","mcp__chrome-devtools__fill","mcp__chrome-devtools__fill_form","mcp__chrome-devtools__get_console_message","mcp__chrome-devtools__get_network_request","mcp__chrome-devtools__handle_dialog","mcp__chrome-devtools__hover","mcp__chrome-devtools__lighthouse_audit","mcp__chrome-devtools__list_console_messages","mcp__chrome-devtools__list_network_requests","mcp__chrome-devtools__list_pages","mcp__chrome-devtools__navigate_page","mcp__chrome-devtools__new_page","mcp__chrome-devtools__performance_analyze_insight","mcp__chrome-devtools__performance_start_trace","mcp__chrome-devtools__performance_stop_trace","mcp__chrome-devtools__press_key","mcp__chrome-devtools__resize_page","mcp__chrome-devtools__select_page","mcp__chrome-devtools__take_memory_snapshot","mcp__chrome-devtools__take_screenshot","mcp__chrome-devtools__take_snapshot","mcp__chrome-devtools__type_text","mcp__chrome-devtools__upload_file","mcp__chrome-devtools__wait_for","mcp__compressed-github__github_get_tool_schema","mcp__compressed-github__github_invoke_tool","ListMcpResourcesTool","ReadMcpResourceTool","LSP"],"mcp_servers":[{"name":"chrome-devtools","status":"connected"},{"name":"compressed-github","status":"connected"},{"name":"claude.ai Google Calendar","status":"needs-auth"},{"name":"claude.ai Gmail","status":"needs-auth"}],"model":"claude-sonnet-4-6","permissionMode":"bypassPermissions","slash_commands":["update-config","debug","simplify","batch","loop","claude-api","test-driven-development","axi","compact","context","cost","heapdump","init","pr-comments","release-notes","review","security-review","extra-usage","insights","mcp__compressed-github__AssignCodingAgent","mcp__compressed-github__issue_to_fix_workflow"],"apiKeySource":"none","claude_code_version":"2.1.77","output_style":"default","agents":["general-purpose","statusline-setup","Explore","Plan","claude-code-guide"],"skills":["update-config","debug","simplify","batch","loop","claude-api","test-driven-development","axi"],"plugins":[{"name":"rust-analyzer-lsp","path":"/Users/kunchen/.claude/plugins/cache/claude-plugins-official/rust-analyzer-lsp/1.0.0"}],"uuid":"74e03ca9-019e-4018-bcc0-cce00f276454","fast_mode_state":"off"}
{"type":"assistant","message":{"model":"claude-sonnet-4-6","id":"msg_01WxVmr7hDYLcfCpe99XtziN","type":"message","role":"assistant","content":[{"type":"thinking","thinking":"Let me find the most recent open issue with the label \"bug\" in openclaw/openclaw, then view its comments to find who commented last.","signature":"Eq0CCkYIDBgCKkB6PpfRnhIl/mxkD7ng+qIoCZ1E1ODTCUXdKbvEfK3/vgU1p8MZUoyiuhZ/NK4QdmXatRbKAKMqT0iKKr9qkEPoEgy71HzBby0jQHoQ1qcaDMqC8fW9KgYzIeHHOSIwIxTteQKwhgLPAUQS1YOTh5sXyt3cdH+RbeFunSwuPwVz2ghoHIxTkHAVTnmSHgUMKpQBvvqAua/xx9LyV+7lkeoy/2hJIN+657JLJFc0QWyyFN6++J4ovJoyHKCt7Cf/wFaJAsrCY1KH1kBEgfx8OqU72m8YdV9IR/DQqRzLGZx0zCaawyDTm0jgARmjm9fg2i1Py7nmNQogNyDghKQGOjSfnEEY6EzvKhlG20Dv92D9ISH8wy3O7Of4nrG/0dLw/t9zvjTQ7BgB"}],"stop_reason":null,"stop_sequence":null,"usage":{"input_tokens":3,"cache_creation_input_tokens":6836,"cache_read_input_tokens":25909,"cache_creation":{"ephemeral_5m_input_tokens":0,"ephemeral_1h_input_tokens":6836},"output_tokens":1,"service_tier":"standard","inference_geo":"not_available"},"context_management":null},"parent_tool_use_id":null,"session_id":"a27a3488-9ead-4f1f-b46e-ff1ef90c9958","uuid":"17ca189f-78f7-4952-9a0d-ccb3516649e9"}
{"type":"assistant","message":{"model":"claude-sonnet-4-6","id":"msg_01WxVmr7hDYLcfCpe99XtziN","type":"message","role":"assistant","content":[{"type":"tool_use","id":"toolu_01FoLM6bjX8cBGATGeh4Tx1H","name":"mcp__compressed-github__github_get_tool_schema","input":{"tool_name":"list_issues"},"caller":{"type":"direct"}}],"stop_reason":null,"stop_sequence":null,"usage":{"input_tokens":3,"cache_creation_input_tokens":6836,"cache_read_input_tokens":25909,"cache_creation":{"ephemeral_5m_input_tokens":0,"ephemeral_1h_input_tokens":6836},"output_tokens":1,"service_tier":"standard","inference_geo":"not_available"},"context_management":null},"parent_tool_use_id":null,"session_id":"a27a3488-9ead-4f1f-b46e-ff1ef90c9958","uuid":"494d119b-3743-4a54-b368-b89c032b8fba"}
{"type":"rate_limit_event","rate_limit_info":{"status":"allowed","resetsAt":1774342800,"rateLimitType":"five_hour","overageStatus":"rejected","overageDisabledReason":"org_level_disabled","isUsingOverage":false},"uuid":"574326c1-7f9c-4f02-9de7-c5c2e3977b03","session_id":"a27a3488-9ead-4f1f-b46e-ff1ef90c9958"}
{"type":"user","message":{"role":"user","content":[{"tool_use_id":"toolu_01FoLM6bjX8cBGATGeh4Tx1H","type":"tool_result","content":"{\"result\":\"<tool>list_issues(after, direction, labels, orderBy, owner, perPage, repo, since, state): List issues in a GitHub repository. For pagination, use the 'endCursor' from the previous response's 'pageInfo' in the 'after' parameter.</tool>\\n\\n{\\n  \\\"type\\\": \\\"object\\\",\\n  \\\"properties\\\": {\\n    \\\"after\\\": {\\n      \\\"type\\\": \\\"string\\\",\\n      \\\"description\\\": \\\"Cursor for pagination. Use the endCursor from the previous page's PageInfo for GraphQL APIs.\\\"\\n    },\\n    \\\"direction\\\": {\\n      \\\"type\\\": \\\"string\\\",\\n      \\\"description\\\": \\\"Order direction. If provided, the 'orderBy' also needs to be provided.\\\",\\n      \\\"enum\\\": [\\n        \\\"ASC\\\",\\n        \\\"DESC\\\"\\n      ]\\n    },\\n    \\\"labels\\\": {\\n      \\\"type\\\": \\\"array\\\",\\n      \\\"items\\\": {\\n        \\\"type\\\": \\\"string\\\"\\n      },\\n      \\\"description\\\": \\\"Filter by labels\\\"\\n    },\\n    \\\"orderBy\\\": {\\n      \\\"type\\\": \\\"string\\\",\\n      \\\"description\\\": \\\"Order issues by field. If provided, the 'direction' also needs to be provided.\\\",\\n      \\\"enum\\\": [\\n        \\\"CREATED_AT\\\",\\n        \\\"UPDATED_AT\\\",\\n        \\\"COMMENTS\\\"\\n      ]\\n    },\\n    \\\"owner\\\": {\\n      \\\"type\\\": \\\"string\\\",\\n      \\\"description\\\": \\\"Repository owner\\\"\\n    },\\n    \\\"perPage\\\": {\\n      \\\"type\\\": \\\"number\\\",\\n      \\\"description\\\": \\\"Results per page for pagination (min 1, max 100)\\\",\\n      \\\"minimum\\\": 1,\\n      \\\"maximum\\\": 100\\n    },\\n    \\\"repo\\\": {\\n      \\\"type\\\": \\\"string\\\",\\n      \\\"description\\\": \\\"Repository name\\\"\\n    },\\n    \\\"since\\\": {\\n      \\\"type\\\": \\\"string\\\",\\n      \\\"description\\\": \\\"Filter by date (ISO 8601 timestamp)\\\"\\n    },\\n    \\\"state\\\": {\\n      \\\"type\\\": \\\"string\\\",\\n      \\\"description\\\": \\\"Filter by state, by default both open and closed issues are returned when not provided\\\",\\n      \\\"enum\\\": [\\n        \\\"OPEN\\\",\\n        \\\"CLOSED\\\"\\n      ]\\n    }\\n  },\\n  \\\"required\\\": [\\n    \\\"owner\\\",\\n    \\\"repo\\\"\\n  ]\\n}\"}"}]},"parent_tool_use_id":null,"session_id":"a27a3488-9ead-4f1f-b46e-ff1ef90c9958","uuid":"9f9aeade-116d-4c54-8fae-e6f78675940c","timestamp":"2026-03-24T07:01:49.426Z","tool_use_result":{"content":"{\"result\":\"<tool>list_issues(after, direction, labels, orderBy, owner, perPage, repo, since, state): List issues in a GitHub repository. For pagination, use the 'endCursor' from the previous response's 'pageInfo' in the 'after' parameter.</tool>\\n\\n{\\n  \\\"type\\\": \\\"object\\\",\\n  \\\"properties\\\": {\\n    \\\"after\\\": {\\n      \\\"type\\\": \\\"string\\\",\\n      \\\"description\\\": \\\"Cursor for pagination. Use the endCursor from the previous page's PageInfo for GraphQL APIs.\\\"\\n    },\\n    \\\"direction\\\": {\\n      \\\"type\\\": \\\"string\\\",\\n      \\\"description\\\": \\\"Order direction. If provided, the 'orderBy' also needs to be provided.\\\",\\n      \\\"enum\\\": [\\n        \\\"ASC\\\",\\n        \\\"DESC\\\"\\n      ]\\n    },\\n    \\\"labels\\\": {\\n      \\\"type\\\": \\\"array\\\",\\n      \\\"items\\\": {\\n        \\\"type\\\": \\\"string\\\"\\n      },\\n      \\\"description\\\": \\\"Filter by labels\\\"\\n    },\\n    \\\"orderBy\\\": {\\n      \\\"type\\\": \\\"string\\\",\\n      \\\"description\\\": \\\"Order issues by field. If provided, the 'direction' also needs to be provided.\\\",\\n      \\\"enum\\\": [\\n        \\\"CREATED_AT\\\",\\n        \\\"UPDATED_AT\\\",\\n        \\\"COMMENTS\\\"\\n      ]\\n    },\\n    \\\"owner\\\": {\\n      \\\"type\\\": \\\"string\\\",\\n      \\\"description\\\": \\\"Repository owner\\\"\\n    },\\n    \\\"perPage\\\": {\\n      \\\"type\\\": \\\"number\\\",\\n      \\\"description\\\": \\\"Results per page for pagination (min 1, max 100)\\\",\\n      \\\"minimum\\\": 1,\\n      \\\"maximum\\\": 100\\n    },\\n    \\\"repo\\\": {\\n      \\\"type\\\": \\\"string\\\",\\n      \\\"description\\\": \\\"Repository name\\\"\\n    },\\n    \\\"since\\\": {\\n      \\\"type\\\": \\\"string\\\",\\n      \\\"description\\\": \\\"Filter by date (ISO 8601 timestamp)\\\"\\n    },\\n    \\\"state\\\": {\\n      \\\"type\\\": \\\"string\\\",\\n      \\\"description\\\": \\\"Filter by state, by default both open and closed issues are returned when not provided\\\",\\n      \\\"enum\\\": [\\n        \\\"OPEN\\\",\\n        \\\"CLOSED\\\"\\n      ]\\n    }\\n  },\\n  \\\"required\\\": [\\n    \\\"owner\\\",\\n    \\\"repo\\\"\\n  ]\\n}\"}","structuredContent":{"result":"<tool>list_issues(after, direction, labels, orderBy, owner, perPage, repo, since, state): List issues in a GitHub repository. For pagination, use the 'endCursor' from the previous response's 'pageInfo' in the 'after' parameter.</tool>\n\n{\n  \"type\": \"object\",\n  \"properties\": {\n    \"after\": {\n      \"type\": \"string\",\n      \"description\": \"Cursor for pagination. Use the endCursor from the previous page's PageInfo for GraphQL APIs.\"\n    },\n    \"direction\": {\n      \"type\": \"string\",\n      \"description\": \"Order direction. If provided, the 'orderBy' also needs to be provided.\",\n      \"enum\": [\n        \"ASC\",\n        \"DESC\"\n      ]\n    },\n    \"labels\": {\n      \"type\": \"array\",\n      \"items\": {\n        \"type\": \"string\"\n      },\n      \"description\": \"Filter by labels\"\n    },\n    \"orderBy\": {\n      \"type\": \"string\",\n      \"description\": \"Order issues by field. If provided, the 'direction' also needs to be provided.\",\n      \"enum\": [\n        \"CREATED_AT\",\n        \"UPDATED_AT\",\n        \"COMMENTS\"\n      ]\n    },\n    \"owner\": {\n      \"type\": \"string\",\n      \"description\": \"Repository owner\"\n    },\n    \"perPage\": {\n      \"type\": \"number\",\n      \"description\": \"Results per page for pagination (min 1, max 100)\",\n      \"minimum\": 1,\n      \"maximum\": 100\n    },\n    \"repo\": {\n      \"type\": \"string\",\n      \"description\": \"Repository name\"\n    },\n    \"since\": {\n      \"type\": \"string\",\n      \"description\": \"Filter by date (ISO 8601 timestamp)\"\n    },\n    \"state\": {\n      \"type\": \"string\",\n      \"description\": \"Filter by state, by default both open and closed issues are returned when not provided\",\n      \"enum\": [\n        \"OPEN\",\n        \"CLOSED\"\n      ]\n    }\n  },\n  \"required\": [\n    \"owner\",\n    \"repo\"\n  ]\n}"}}}
{"type":"assistant","message":{"model":"claude-sonnet-4-6","id":"msg_01EnvgK7PGa31XU8RcXERJCb","type":"message","role":"assistant","content":[{"type":"tool_use","id":"toolu_01TsAcnGZVMQUoN3dzZWvkgk","name":"mcp__compressed-github__github_invoke_tool","input":{"tool_name":"list_issues","tool_input":{"owner":"openclaw","repo":"openclaw","state":"OPEN","labels":["bug"],"orderBy":"CREATED_AT","direction":"DESC","perPage":1}},"caller":{"type":"direct"}}],"stop_reason":null,"stop_sequence":null,"usage":{"input_tokens":1,"cache_creation_input_tokens":779,"cache_read_input_tokens":32745,"cache_creation":{"ephemeral_5m_input_tokens":0,"ephemeral_1h_input_tokens":779},"output_tokens":59,"service_tier":"standard","inference_geo":"not_available"},"context_management":null},"parent_tool_use_id":null,"session_id":"a27a3488-9ead-4f1f-b46e-ff1ef90c9958","uuid":"44ec2109-a33e-4408-bb90-88a1d4711de1"}
{"type":"user","message":{"role":"user","content":[{"tool_use_id":"toolu_01TsAcnGZVMQUoN3dzZWvkgk","type":"tool_result","content":[{"type":"text","text":"{\"issues\":[{\"number\":53485,\"title\":\"[Bug]: the record of web chat lost after updated\",\"body\":\"### Bug type\\n\\nRegression (worked before, now fails)\\n\\n### Summary\\n\\nAfter upgrading from 2026.3.13 to 2026.3.26, I lost all message record with main agent in web chat. \\n\\n\\u003cimg width=\\\"2560\\\" height=\\\"1600\\\" alt=\\\"Image\\\" src=\\\"https://github.com/user-attachments/assets/e62fe081-32a2-4a7a-ac90-a966cfa8a7a5\\\"/\\u003e\\n\\n### Steps to reproduce\\n\\n1. start openclaw 2026.3.13 and have some talk with web chat\\n2. updated to 2026.3.26\\n3. then you lose the records\\n\\n### Expected behavior\\n\\nNOT_ENOUGH_INFO\\n\\n### Actual behavior\\n\\nNOT_ENOUGH_INFO\\n\\n### OpenClaw version\\n\\n2026.3.26\\n\\n### Operating system\\n\\nUbuntu\\n\\n### Install method\\n\\n_No response_\\n\\n### Model\\n\\nminimax 2.7\\n\\n### Provider / routing chain\\n\\nopenclaw-\\u0026gt;minimax-\\u0026gt;minimax\\n\\n### Additional provider/model setup details\\n\\n_No response_\\n\\n### Logs, screenshots, and evidence\\n\\n```shell\\n\\n```\\n\\n### Impact and severity\\n\\n_No response_\\n\\n### Additional information\\n\\n_No response_\",\"state\":\"OPEN\",\"user\":{\"login\":\"xion516\"},\"labels\":[\"bug\",\"regression\"],\"created_at\":\"2026-03-24T07:01:39Z\",\"updated_at\":\"2026-03-24T07:01:47Z\"}],\"totalCount\":2007,\"pageInfo\":{\"hasNextPage\":true,\"hasPreviousPage\":false,\"startCursor\":\"Y3Vyc29yOnYyOpK5MjAyNi0wMy0yNFQwMDowMTozOS0wNzowMM716XdD\",\"endCursor\":\"Y3Vyc29yOnYyOpK5MjAyNi0wMy0yNFQwMDowMTozOS0wNzowMM716XdD\"}}"}]}]},"parent_tool_use_id":null,"session_id":"a27a3488-9ead-4f1f-b46e-ff1ef90c9958","uuid":"6d3e727e-7a7a-4c0d-bf0a-566a562b1953","timestamp":"2026-03-24T07:01:54.256Z","tool_use_result":[{"type":"text","text":"{\"issues\":[{\"number\":53485,\"title\":\"[Bug]: the record of web chat lost after updated\",\"body\":\"### Bug type\\n\\nRegression (worked before, now fails)\\n\\n### Summary\\n\\nAfter upgrading from 2026.3.13 to 2026.3.26, I lost all message record with main agent in web chat. \\n\\n\\u003cimg width=\\\"2560\\\" height=\\\"1600\\\" alt=\\\"Image\\\" src=\\\"https://github.com/user-attachments/assets/e62fe081-32a2-4a7a-ac90-a966cfa8a7a5\\\"/\\u003e\\n\\n### Steps to reproduce\\n\\n1. start openclaw 2026.3.13 and have some talk with web chat\\n2. updated to 2026.3.26\\n3. then you lose the records\\n\\n### Expected behavior\\n\\nNOT_ENOUGH_INFO\\n\\n### Actual behavior\\n\\nNOT_ENOUGH_INFO\\n\\n### OpenClaw version\\n\\n2026.3.26\\n\\n### Operating system\\n\\nUbuntu\\n\\n### Install method\\n\\n_No response_\\n\\n### Model\\n\\nminimax 2.7\\n\\n### Provider / routing chain\\n\\nopenclaw-\\u0026gt;minimax-\\u0026gt;minimax\\n\\n### Additional provider/model setup details\\n\\n_No response_\\n\\n### Logs, screenshots, and evidence\\n\\n```shell\\n\\n```\\n\\n### Impact and severity\\n\\n_No response_\\n\\n### Additional information\\n\\n_No response_\",\"state\":\"OPEN\",\"user\":{\"login\":\"xion516\"},\"labels\":[\"bug\",\"regression\"],\"created_at\":\"2026-03-24T07:01:39Z\",\"updated_at\":\"2026-03-24T07:01:47Z\"}],\"totalCount\":2007,\"pageInfo\":{\"hasNextPage\":true,\"hasPreviousPage\":false,\"startCursor\":\"Y3Vyc29yOnYyOpK5MjAyNi0wMy0yNFQwMDowMTozOS0wNzowMM716XdD\",\"endCursor\":\"Y3Vyc29yOnYyOpK5MjAyNi0wMy0yNFQwMDowMTozOS0wNzowMM716XdD\"}}"}]}
{"type":"assistant","message":{"model":"claude-sonnet-4-6","id":"msg_01KtWduQqRoQpHYLFd64RnoY","type":"message","role":"assistant","content":[{"type":"thinking","thinking":"Found the most recent open issue with the \"bug\" label: issue #53485. Now let me get the comments for this issue.","signature":"EpkCCkYIDBgCKkBBg/jFQixZzyujt6SkFKWIoxotq0TsUOEHcTuO1YlALGV+DQEEWbIeG3gj5UZztWRUWsPK1f0g9NYyc6j6NmADEgxJMATXw0Y1enV8YGYaDDAnjh9HWAjsD36/uiIwv2otjKJOZMSx2udP8uMpMiRHUoGwnf9+t6JQsAZ/k896gL5HTpnpXKm0NgtVuxhXKoABTXWSg3zFxTHCFsAoqvKxGZzQPqxiUEQ2TQsVfUDMnqhDZQ/FLTymMB5WNB1G5DCtTDxt403x80VH52uLJVgn+QY2MiIo0zpetLHE8YtV5xoOQWAyRiNJj9upKsptm1y5yaEn9U5YSg8KJGze8am+gHmImDNoaEeS5Wk6UvNSzIoYAQ=="}],"stop_reason":null,"stop_sequence":null,"usage":{"input_tokens":1,"cache_creation_input_tokens":754,"cache_read_input_tokens":33524,"cache_creation":{"ephemeral_5m_input_tokens":0,"ephemeral_1h_input_tokens":754},"output_tokens":8,"service_tier":"standard","inference_geo":"not_available"},"context_management":null},"parent_tool_use_id":null,"session_id":"a27a3488-9ead-4f1f-b46e-ff1ef90c9958","uuid":"e58c0d44-3563-4344-af46-6d331f4285f9"}
{"type":"assistant","message":{"model":"claude-sonnet-4-6","id":"msg_01KtWduQqRoQpHYLFd64RnoY","type":"message","role":"assistant","content":[{"type":"tool_use","id":"toolu_017VYqe4x5uUPHoAfkQLyLSv","name":"mcp__compressed-github__github_get_tool_schema","input":{"tool_name":"issue_read"},"caller":{"type":"direct"}}],"stop_reason":null,"stop_sequence":null,"usage":{"input_tokens":1,"cache_creation_input_tokens":754,"cache_read_input_tokens":33524,"cache_creation":{"ephemeral_5m_input_tokens":0,"ephemeral_1h_input_tokens":754},"output_tokens":8,"service_tier":"standard","inference_geo":"not_available"},"context_management":null},"parent_tool_use_id":null,"session_id":"a27a3488-9ead-4f1f-b46e-ff1ef90c9958","uuid":"96fa9ba0-50b9-4028-b361-2a4fcc86ab96"}
{"type":"user","message":{"role":"user","content":[{"tool_use_id":"toolu_017VYqe4x5uUPHoAfkQLyLSv","type":"tool_result","content":"{\"result\":\"<tool>issue_read(issue_number, method, owner, page, perPage, repo): Get information about a specific issue in a GitHub repository.</tool>\\n\\n{\\n  \\\"type\\\": \\\"object\\\",\\n  \\\"properties\\\": {\\n    \\\"issue_number\\\": {\\n      \\\"type\\\": \\\"number\\\",\\n      \\\"description\\\": \\\"The number of the issue\\\"\\n    },\\n    \\\"method\\\": {\\n      \\\"type\\\": \\\"string\\\",\\n      \\\"description\\\": \\\"The read operation to perform on a single issue.\\\\nOptions are:\\\\n1. get - Get details of a specific issue.\\\\n2. get_comments - Get issue comments.\\\\n3. get_sub_issues - Get sub-issues of the issue.\\\\n4. get_labels - Get labels assigned to the issue.\\\\n\\\",\\n      \\\"enum\\\": [\\n        \\\"get\\\",\\n        \\\"get_comments\\\",\\n        \\\"get_sub_issues\\\",\\n        \\\"get_labels\\\"\\n      ]\\n    },\\n    \\\"owner\\\": {\\n      \\\"type\\\": \\\"string\\\",\\n      \\\"description\\\": \\\"The owner of the repository\\\"\\n    },\\n    \\\"page\\\": {\\n      \\\"type\\\": \\\"number\\\",\\n      \\\"description\\\": \\\"Page number for pagination (min 1)\\\",\\n      \\\"minimum\\\": 1\\n    },\\n    \\\"perPage\\\": {\\n      \\\"type\\\": \\\"number\\\",\\n      \\\"description\\\": \\\"Results per page for pagination (min 1, max 100)\\\",\\n      \\\"minimum\\\": 1,\\n      \\\"maximum\\\": 100\\n    },\\n    \\\"repo\\\": {\\n      \\\"type\\\": \\\"string\\\",\\n      \\\"description\\\": \\\"The name of the repository\\\"\\n    }\\n  },\\n  \\\"required\\\": [\\n    \\\"method\\\",\\n    \\\"owner\\\",\\n    \\\"repo\\\",\\n    \\\"issue_number\\\"\\n  ]\\n}\"}"}]},"parent_tool_use_id":null,"session_id":"a27a3488-9ead-4f1f-b46e-ff1ef90c9958","uuid":"61637407-8a4f-4a65-9c36-f3567f0ec594","timestamp":"2026-03-24T07:01:59.175Z","tool_use_result":{"content":"{\"result\":\"<tool>issue_read(issue_number, method, owner, page, perPage, repo): Get information about a specific issue in a GitHub repository.</tool>\\n\\n{\\n  \\\"type\\\": \\\"object\\\",\\n  \\\"properties\\\": {\\n    \\\"issue_number\\\": {\\n      \\\"type\\\": \\\"number\\\",\\n      \\\"description\\\": \\\"The number of the issue\\\"\\n    },\\n    \\\"method\\\": {\\n      \\\"type\\\": \\\"string\\\",\\n      \\\"description\\\": \\\"The read operation to perform on a single issue.\\\\nOptions are:\\\\n1. get - Get details of a specific issue.\\\\n2. get_comments - Get issue comments.\\\\n3. get_sub_issues - Get sub-issues of the issue.\\\\n4. get_labels - Get labels assigned to the issue.\\\\n\\\",\\n      \\\"enum\\\": [\\n        \\\"get\\\",\\n        \\\"get_comments\\\",\\n        \\\"get_sub_issues\\\",\\n        \\\"get_labels\\\"\\n      ]\\n    },\\n    \\\"owner\\\": {\\n      \\\"type\\\": \\\"string\\\",\\n      \\\"description\\\": \\\"The owner of the repository\\\"\\n    },\\n    \\\"page\\\": {\\n      \\\"type\\\": \\\"number\\\",\\n      \\\"description\\\": \\\"Page number for pagination (min 1)\\\",\\n      \\\"minimum\\\": 1\\n    },\\n    \\\"perPage\\\": {\\n      \\\"type\\\": \\\"number\\\",\\n      \\\"description\\\": \\\"Results per page for pagination (min 1, max 100)\\\",\\n      \\\"minimum\\\": 1,\\n      \\\"maximum\\\": 100\\n    },\\n    \\\"repo\\\": {\\n      \\\"type\\\": \\\"string\\\",\\n      \\\"description\\\": \\\"The name of the repository\\\"\\n    }\\n  },\\n  \\\"required\\\": [\\n    \\\"method\\\",\\n    \\\"owner\\\",\\n    \\\"repo\\\",\\n    \\\"issue_number\\\"\\n  ]\\n}\"}","structuredContent":{"result":"<tool>issue_read(issue_number, method, owner, page, perPage, repo): Get information about a specific issue in a GitHub repository.</tool>\n\n{\n  \"type\": \"object\",\n  \"properties\": {\n    \"issue_number\": {\n      \"type\": \"number\",\n      \"description\": \"The number of the issue\"\n    },\n    \"method\": {\n      \"type\": \"string\",\n      \"description\": \"The read operation to perform on a single issue.\\nOptions are:\\n1. get - Get details of a specific issue.\\n2. get_comments - Get issue comments.\\n3. get_sub_issues - Get sub-issues of the issue.\\n4. get_labels - Get labels assigned to the issue.\\n\",\n      \"enum\": [\n        \"get\",\n        \"get_comments\",\n        \"get_sub_issues\",\n        \"get_labels\"\n      ]\n    },\n    \"owner\": {\n      \"type\": \"string\",\n      \"description\": \"The owner of the repository\"\n    },\n    \"page\": {\n      \"type\": \"number\",\n      \"description\": \"Page number for pagination (min 1)\",\n      \"minimum\": 1\n    },\n    \"perPage\": {\n      \"type\": \"number\",\n      \"description\": \"Results per page for pagination (min 1, max 100)\",\n      \"minimum\": 1,\n      \"maximum\": 100\n    },\n    \"repo\": {\n      \"type\": \"string\",\n      \"description\": \"The name of the repository\"\n    }\n  },\n  \"required\": [\n    \"method\",\n    \"owner\",\n    \"repo\",\n    \"issue_number\"\n  ]\n}"}}}
{"type":"assistant","message":{"model":"claude-sonnet-4-6","id":"msg_01Xbqz5mCjUwHg2mJ8Q9Q1hJ","type":"message","role":"assistant","content":[{"type":"tool_use","id":"toolu_011JsNyQiEN8DeisFrdeFCDw","name":"mcp__compressed-github__github_invoke_tool","input":{"tool_name":"issue_read","tool_input":{"owner":"openclaw","repo":"openclaw","issue_number":53485,"method":"get_comments"}},"caller":{"type":"direct"}}],"stop_reason":null,"stop_sequence":null,"usage":{"input_tokens":1,"cache_creation_input_tokens":614,"cache_read_input_tokens":34278,"cache_creation":{"ephemeral_5m_input_tokens":0,"ephemeral_1h_input_tokens":614},"output_tokens":58,"service_tier":"standard","inference_geo":"not_available"},"context_management":null},"parent_tool_use_id":null,"session_id":"a27a3488-9ead-4f1f-b46e-ff1ef90c9958","uuid":"fcd87e25-0d16-426c-bf79-f59afdf41a98"}
{"type":"user","message":{"role":"user","content":[{"tool_use_id":"toolu_011JsNyQiEN8DeisFrdeFCDw","type":"tool_result","content":[{"type":"text","text":"[]"}]}]},"parent_tool_use_id":null,"session_id":"a27a3488-9ead-4f1f-b46e-ff1ef90c9958","uuid":"baf1cd31-3642-46c1-afc7-ccabb42cef8f","timestamp":"2026-03-24T07:02:02.951Z","tool_use_result":[{"type":"text","text":"[]"}]}
{"type":"assistant","message":{"model":"claude-sonnet-4-6","id":"msg_012ftSa3zdJhcdcs5AZQY2fS","type":"message","role":"assistant","content":[{"type":"text","text":"The most recent open issue labeled \"bug\" in `openclaw/openclaw` is:\n\n**Issue #53485** — *[Bug]: the record of web chat lost after updated*\n- Opened by: **xion516** on 2026-03-24\n- Labels: `bug`, `regression`\n- Describes loss of web chat message history after upgrading from version 2026.3.13 to 2026.3.26\n\n**Comments:** This issue has **no comments yet** — no one has commented on it, so there is no last commenter to report."}],"stop_reason":null,"stop_sequence":null,"usage":{"input_tokens":1,"cache_creation_input_tokens":128,"cache_read_input_tokens":34892,"cache_creation":{"ephemeral_5m_input_tokens":0,"ephemeral_1h_input_tokens":128},"output_tokens":1,"service_tier":"standard","inference_geo":"not_available"},"context_management":null},"parent_tool_use_id":null,"session_id":"a27a3488-9ead-4f1f-b46e-ff1ef90c9958","uuid":"8c723253-adf7-4b7f-ad50-3aa82098e62f"}
{"type":"result","subtype":"success","is_error":false,"duration_ms":29883,"duration_api_ms":24047,"num_turns":5,"result":"The most recent open issue labeled \"bug\" in `openclaw/openclaw` is:\n\n**Issue #53485** — *[Bug]: the record of web chat lost after updated*\n- Opened by: **xion516** on 2026-03-24\n- Labels: `bug`, `regression`\n- Describes loss of web chat message history after upgrading from version 2026.3.13 to 2026.3.26\n\n**Comments:** This issue has **no comments yet** — no one has commented on it, so there is no last commenter to report.","stop_reason":"end_turn","session_id":"a27a3488-9ead-4f1f-b46e-ff1ef90c9958","total_cost_usd":0.09168165,"usage":{"input_tokens":7,"cache_creation_input_tokens":9111,"cache_read_input_tokens":161348,"output_tokens":606,"server_tool_use":{"web_search_requests":0,"web_fetch_requests":0},"service_tier":"standard","cache_creation":{"ephemeral_1h_input_tokens":9111,"ephemeral_5m_input_tokens":0},"inference_geo":"","iterations":[],"speed":"standard"},"modelUsage":{"claude-sonnet-4-6":{"inputTokens":7,"outputTokens":606,"cacheReadInputTokens":161348,"cacheCreationInputTokens":9111,"webSearchRequests":0,"costUSD":0.09168165,"contextWindow":200000,"maxOutputTokens":32000}},"permission_denials":[],"fast_mode_state":"off","uuid":"2f85e228-e0e4-4856-a251-2063ead9ae57"}
