{"type":"system","subtype":"init","cwd":"/Users/kunchen/.treehouse/axi-8d75ad/1/axi/bench/results/mcp-compressed-high/find_fix_for_bug/run2/workspace","session_id":"de29ee29-fa95-4b03-b5d4-660fb99d11a1","tools":["Task","TaskOutput","Bash","Glob","Grep","ExitPlanMode","Read","Edit","Write","NotebookEdit","WebFetch","TodoWrite","WebSearch","TaskStop","AskUserQuestion","Skill","EnterPlanMode","EnterWorktree","ExitWorktree","CronCreate","CronDelete","CronList","mcp__chrome-devtools__click","mcp__chrome-devtools__close_page","mcp__chrome-devtools__drag","mcp__chrome-devtools__emulate","mcp__chrome-devtools__evaluate_script","mcp__chrome-devtools__fill","mcp__chrome-devtools__fill_form","mcp__chrome-devtools__get_console_message","mcp__chrome-devtools__get_network_request","mcp__chrome-devtools__handle_dialog","mcp__chrome-devtools__hover","mcp__chrome-devtools__lighthouse_audit","mcp__chrome-devtools__list_console_messages","mcp__chrome-devtools__list_network_requests","mcp__chrome-devtools__list_pages","mcp__chrome-devtools__navigate_page","mcp__chrome-devtools__new_page","mcp__chrome-devtools__performance_analyze_insight","mcp__chrome-devtools__performance_start_trace","mcp__chrome-devtools__performance_stop_trace","mcp__chrome-devtools__press_key","mcp__chrome-devtools__resize_page","mcp__chrome-devtools__select_page","mcp__chrome-devtools__take_memory_snapshot","mcp__chrome-devtools__take_screenshot","mcp__chrome-devtools__take_snapshot","mcp__chrome-devtools__type_text","mcp__chrome-devtools__upload_file","mcp__chrome-devtools__wait_for","mcp__compressed-github__github_get_tool_schema","mcp__compressed-github__github_invoke_tool","ListMcpResourcesTool","ReadMcpResourceTool","LSP"],"mcp_servers":[{"name":"chrome-devtools","status":"connected"},{"name":"compressed-github","status":"connected"},{"name":"claude.ai Google Calendar","status":"needs-auth"},{"name":"claude.ai Gmail","status":"needs-auth"}],"model":"claude-sonnet-4-6","permissionMode":"bypassPermissions","slash_commands":["update-config","debug","simplify","batch","loop","claude-api","test-driven-development","axi","compact","context","cost","heapdump","init","pr-comments","release-notes","review","security-review","extra-usage","insights","mcp__compressed-github__AssignCodingAgent","mcp__compressed-github__issue_to_fix_workflow"],"apiKeySource":"none","claude_code_version":"2.1.77","output_style":"default","agents":["general-purpose","statusline-setup","Explore","Plan","claude-code-guide"],"skills":["update-config","debug","simplify","batch","loop","claude-api","test-driven-development","axi"],"plugins":[{"name":"rust-analyzer-lsp","path":"/Users/kunchen/.claude/plugins/cache/claude-plugins-official/rust-analyzer-lsp/1.0.0"}],"uuid":"cd84528a-9988-467b-b319-fbac26f93209","fast_mode_state":"off"}
{"type":"assistant","message":{"model":"claude-sonnet-4-6","id":"msg_01Jkuf2U3H7qPxxZiRdHGf5p","type":"message","role":"assistant","content":[{"type":"thinking","thinking":"Let me find the most recent open issue labeled 'bug' in openclaw/openclaw, then check for open PRs that reference that issue number.","signature":"Eq0CCkYIDBgCKkAwm9wv9SUzlbN8tMBgrN5zfZ4tZxL4uAjTW/nA7vDy2obe54vIhLrVoPQueAst9WIUobmClD//BO4CWWcwsV+sEgw6++b+RoKlophedRQaDOpGRy+u7mEbb8baxyIwKvkme45w1D2NOLRy7h++vY5u5UJb5MuLZ2XAI0crZ6xBNtS1QTKkkQiW6+0VLZJpKpQBF+XjDDYB2fVBImFr9koiGHMfIHmEFfrjTYzTCVdrAcNN2LzOvScm0ulPpnCy8wdqmqyCvW5GMlbR37DjntPH/mSm1yGCn+hJLIjzNFLcb+VkbIHAwKAm0rPyqH54mwl5JjAu1vfJW9ie0mv/DEM/F73kINiy1oFVSjjAVTKWa1Wc5i9Eui9g5ZjWCH1pvj5dtJG8bRgB"}],"stop_reason":null,"stop_sequence":null,"usage":{"input_tokens":3,"cache_creation_input_tokens":6849,"cache_read_input_tokens":25909,"cache_creation":{"ephemeral_5m_input_tokens":0,"ephemeral_1h_input_tokens":6849},"output_tokens":0,"service_tier":"standard","inference_geo":"not_available"},"context_management":null},"parent_tool_use_id":null,"session_id":"de29ee29-fa95-4b03-b5d4-660fb99d11a1","uuid":"e6e795cb-95fe-4ab0-9302-d57fa8f047a8"}
{"type":"assistant","message":{"model":"claude-sonnet-4-6","id":"msg_01Jkuf2U3H7qPxxZiRdHGf5p","type":"message","role":"assistant","content":[{"type":"tool_use","id":"toolu_018W2CxQApiB9485RhqzGR5y","name":"mcp__compressed-github__github_get_tool_schema","input":{"tool_name":"list_issues"},"caller":{"type":"direct"}}],"stop_reason":null,"stop_sequence":null,"usage":{"input_tokens":3,"cache_creation_input_tokens":6849,"cache_read_input_tokens":25909,"cache_creation":{"ephemeral_5m_input_tokens":0,"ephemeral_1h_input_tokens":6849},"output_tokens":0,"service_tier":"standard","inference_geo":"not_available"},"context_management":null},"parent_tool_use_id":null,"session_id":"de29ee29-fa95-4b03-b5d4-660fb99d11a1","uuid":"587ba9e8-c321-47e1-b749-687e801cd978"}
{"type":"rate_limit_event","rate_limit_info":{"status":"allowed","resetsAt":1774342800,"rateLimitType":"five_hour","overageStatus":"rejected","overageDisabledReason":"org_level_disabled","isUsingOverage":false},"uuid":"b5c64e8c-4c02-40c3-912d-0682d17cc1be","session_id":"de29ee29-fa95-4b03-b5d4-660fb99d11a1"}
{"type":"user","message":{"role":"user","content":[{"tool_use_id":"toolu_018W2CxQApiB9485RhqzGR5y","type":"tool_result","content":"{\"result\":\"<tool>list_issues(after, direction, labels, orderBy, owner, perPage, repo, since, state): List issues in a GitHub repository. For pagination, use the 'endCursor' from the previous response's 'pageInfo' in the 'after' parameter.</tool>\\n\\n{\\n  \\\"type\\\": \\\"object\\\",\\n  \\\"properties\\\": {\\n    \\\"after\\\": {\\n      \\\"type\\\": \\\"string\\\",\\n      \\\"description\\\": \\\"Cursor for pagination. Use the endCursor from the previous page's PageInfo for GraphQL APIs.\\\"\\n    },\\n    \\\"direction\\\": {\\n      \\\"type\\\": \\\"string\\\",\\n      \\\"description\\\": \\\"Order direction. If provided, the 'orderBy' also needs to be provided.\\\",\\n      \\\"enum\\\": [\\n        \\\"ASC\\\",\\n        \\\"DESC\\\"\\n      ]\\n    },\\n    \\\"labels\\\": {\\n      \\\"type\\\": \\\"array\\\",\\n      \\\"items\\\": {\\n        \\\"type\\\": \\\"string\\\"\\n      },\\n      \\\"description\\\": \\\"Filter by labels\\\"\\n    },\\n    \\\"orderBy\\\": {\\n      \\\"type\\\": \\\"string\\\",\\n      \\\"description\\\": \\\"Order issues by field. If provided, the 'direction' also needs to be provided.\\\",\\n      \\\"enum\\\": [\\n        \\\"CREATED_AT\\\",\\n        \\\"UPDATED_AT\\\",\\n        \\\"COMMENTS\\\"\\n      ]\\n    },\\n    \\\"owner\\\": {\\n      \\\"type\\\": \\\"string\\\",\\n      \\\"description\\\": \\\"Repository owner\\\"\\n    },\\n    \\\"perPage\\\": {\\n      \\\"type\\\": \\\"number\\\",\\n      \\\"description\\\": \\\"Results per page for pagination (min 1, max 100)\\\",\\n      \\\"minimum\\\": 1,\\n      \\\"maximum\\\": 100\\n    },\\n    \\\"repo\\\": {\\n      \\\"type\\\": \\\"string\\\",\\n      \\\"description\\\": \\\"Repository name\\\"\\n    },\\n    \\\"since\\\": {\\n      \\\"type\\\": \\\"string\\\",\\n      \\\"description\\\": \\\"Filter by date (ISO 8601 timestamp)\\\"\\n    },\\n    \\\"state\\\": {\\n      \\\"type\\\": \\\"string\\\",\\n      \\\"description\\\": \\\"Filter by state, by default both open and closed issues are returned when not provided\\\",\\n      \\\"enum\\\": [\\n        \\\"OPEN\\\",\\n        \\\"CLOSED\\\"\\n      ]\\n    }\\n  },\\n  \\\"required\\\": [\\n    \\\"owner\\\",\\n    \\\"repo\\\"\\n  ]\\n}\"}"}]},"parent_tool_use_id":null,"session_id":"de29ee29-fa95-4b03-b5d4-660fb99d11a1","uuid":"b576b0d1-015b-47d9-867d-649aacda6ca0","timestamp":"2026-03-24T08:18:01.365Z","tool_use_result":{"content":"{\"result\":\"<tool>list_issues(after, direction, labels, orderBy, owner, perPage, repo, since, state): List issues in a GitHub repository. For pagination, use the 'endCursor' from the previous response's 'pageInfo' in the 'after' parameter.</tool>\\n\\n{\\n  \\\"type\\\": \\\"object\\\",\\n  \\\"properties\\\": {\\n    \\\"after\\\": {\\n      \\\"type\\\": \\\"string\\\",\\n      \\\"description\\\": \\\"Cursor for pagination. Use the endCursor from the previous page's PageInfo for GraphQL APIs.\\\"\\n    },\\n    \\\"direction\\\": {\\n      \\\"type\\\": \\\"string\\\",\\n      \\\"description\\\": \\\"Order direction. If provided, the 'orderBy' also needs to be provided.\\\",\\n      \\\"enum\\\": [\\n        \\\"ASC\\\",\\n        \\\"DESC\\\"\\n      ]\\n    },\\n    \\\"labels\\\": {\\n      \\\"type\\\": \\\"array\\\",\\n      \\\"items\\\": {\\n        \\\"type\\\": \\\"string\\\"\\n      },\\n      \\\"description\\\": \\\"Filter by labels\\\"\\n    },\\n    \\\"orderBy\\\": {\\n      \\\"type\\\": \\\"string\\\",\\n      \\\"description\\\": \\\"Order issues by field. If provided, the 'direction' also needs to be provided.\\\",\\n      \\\"enum\\\": [\\n        \\\"CREATED_AT\\\",\\n        \\\"UPDATED_AT\\\",\\n        \\\"COMMENTS\\\"\\n      ]\\n    },\\n    \\\"owner\\\": {\\n      \\\"type\\\": \\\"string\\\",\\n      \\\"description\\\": \\\"Repository owner\\\"\\n    },\\n    \\\"perPage\\\": {\\n      \\\"type\\\": \\\"number\\\",\\n      \\\"description\\\": \\\"Results per page for pagination (min 1, max 100)\\\",\\n      \\\"minimum\\\": 1,\\n      \\\"maximum\\\": 100\\n    },\\n    \\\"repo\\\": {\\n      \\\"type\\\": \\\"string\\\",\\n      \\\"description\\\": \\\"Repository name\\\"\\n    },\\n    \\\"since\\\": {\\n      \\\"type\\\": \\\"string\\\",\\n      \\\"description\\\": \\\"Filter by date (ISO 8601 timestamp)\\\"\\n    },\\n    \\\"state\\\": {\\n      \\\"type\\\": \\\"string\\\",\\n      \\\"description\\\": \\\"Filter by state, by default both open and closed issues are returned when not provided\\\",\\n      \\\"enum\\\": [\\n        \\\"OPEN\\\",\\n        \\\"CLOSED\\\"\\n      ]\\n    }\\n  },\\n  \\\"required\\\": [\\n    \\\"owner\\\",\\n    \\\"repo\\\"\\n  ]\\n}\"}","structuredContent":{"result":"<tool>list_issues(after, direction, labels, orderBy, owner, perPage, repo, since, state): List issues in a GitHub repository. For pagination, use the 'endCursor' from the previous response's 'pageInfo' in the 'after' parameter.</tool>\n\n{\n  \"type\": \"object\",\n  \"properties\": {\n    \"after\": {\n      \"type\": \"string\",\n      \"description\": \"Cursor for pagination. Use the endCursor from the previous page's PageInfo for GraphQL APIs.\"\n    },\n    \"direction\": {\n      \"type\": \"string\",\n      \"description\": \"Order direction. If provided, the 'orderBy' also needs to be provided.\",\n      \"enum\": [\n        \"ASC\",\n        \"DESC\"\n      ]\n    },\n    \"labels\": {\n      \"type\": \"array\",\n      \"items\": {\n        \"type\": \"string\"\n      },\n      \"description\": \"Filter by labels\"\n    },\n    \"orderBy\": {\n      \"type\": \"string\",\n      \"description\": \"Order issues by field. If provided, the 'direction' also needs to be provided.\",\n      \"enum\": [\n        \"CREATED_AT\",\n        \"UPDATED_AT\",\n        \"COMMENTS\"\n      ]\n    },\n    \"owner\": {\n      \"type\": \"string\",\n      \"description\": \"Repository owner\"\n    },\n    \"perPage\": {\n      \"type\": \"number\",\n      \"description\": \"Results per page for pagination (min 1, max 100)\",\n      \"minimum\": 1,\n      \"maximum\": 100\n    },\n    \"repo\": {\n      \"type\": \"string\",\n      \"description\": \"Repository name\"\n    },\n    \"since\": {\n      \"type\": \"string\",\n      \"description\": \"Filter by date (ISO 8601 timestamp)\"\n    },\n    \"state\": {\n      \"type\": \"string\",\n      \"description\": \"Filter by state, by default both open and closed issues are returned when not provided\",\n      \"enum\": [\n        \"OPEN\",\n        \"CLOSED\"\n      ]\n    }\n  },\n  \"required\": [\n    \"owner\",\n    \"repo\"\n  ]\n}"}}}
{"type":"assistant","message":{"model":"claude-sonnet-4-6","id":"msg_01Hmsth8bVSpxD4bHj3bfKqn","type":"message","role":"assistant","content":[{"type":"tool_use","id":"toolu_01XK8xYFaVDP9UTD5rReqmwP","name":"mcp__compressed-github__github_invoke_tool","input":{"tool_name":"list_issues","tool_input":{"owner":"openclaw","repo":"openclaw","state":"OPEN","labels":["bug"],"orderBy":"CREATED_AT","direction":"DESC","perPage":1}},"caller":{"type":"direct"}}],"stop_reason":null,"stop_sequence":null,"usage":{"input_tokens":1,"cache_creation_input_tokens":780,"cache_read_input_tokens":32758,"cache_creation":{"ephemeral_5m_input_tokens":0,"ephemeral_1h_input_tokens":780},"output_tokens":59,"service_tier":"standard","inference_geo":"not_available"},"context_management":null},"parent_tool_use_id":null,"session_id":"de29ee29-fa95-4b03-b5d4-660fb99d11a1","uuid":"780fee53-72f4-483a-9f09-96a71f127bd4"}
{"type":"user","message":{"role":"user","content":[{"tool_use_id":"toolu_01XK8xYFaVDP9UTD5rReqmwP","type":"tool_result","content":[{"type":"text","text":"{\"issues\":[{\"number\":53537,\"title\":\"[Bug]: Gemini 2.5 Pro thinking content loops infinitely on model switch\",\"body\":\"### Bug type\\n\\nBehavior bug (incorrect output/state without crash)\\n\\n### Summary\\n\\nWhen switching from Gemini 2.5 Pro to another model, the `` content repeats infinitely\\n until OpenClaw aborts the run.\\n\\n### Steps to reproduce\\n\\n1. Set model to `github-copilot/gemini-2.5-pro`\\n   2. Send a message to trigger Gemini\\u0026#39;s reasoning/thinking output\\n   3. Send another message that switches model (e.g., to `moonshot/kimi-k2.5`)\\n   4. Observe the output\\n\\n### Expected behavior\\n\\nModel switch should work normally without repeating content.\\n\\n### Actual behavior\\n\\nThe `` content from Gemini 2.5 Pro repeats approximately 40+ times:\\n\\n### OpenClaw version\\n\\n2026.3.23-2 (7ffe7e4)\\n\\n### Operating system\\n\\nWindows 10.0.26200\\n\\n### Install method\\n\\nnpm global\\n\\n### Model\\n\\ngithub-copilot/gemini-2.5-pro/moonshot/kimi-k2.5\\n\\n### Provider / routing chain\\n\\nopenclaw-\\u0026gt;github-copilot/gemini-2.5-pro-\\u0026gt;moonshot/kimi-k2.5\\n\\n### Additional provider/model setup details\\n\\n_No response_\\n\\n### Logs, screenshots, and evidence\\n\\n```shell\\n\\n```\\n\\n### Impact and severity\\n\\nNOT_ENOUGH_INFO\\n\\n### Additional information\\n\\n_No response_\",\"state\":\"OPEN\",\"user\":{\"login\":\"mattyou\"},\"labels\":[\"bug\",\"bug:behavior\"],\"created_at\":\"2026-03-24T08:04:12Z\",\"updated_at\":\"2026-03-24T08:04:20Z\"}],\"totalCount\":2011,\"pageInfo\":{\"hasNextPage\":true,\"hasPreviousPage\":false,\"startCursor\":\"Y3Vyc29yOnYyOpK5MjAyNi0wMy0yNFQwMTowNDoxMi0wNzowMM717a92\",\"endCursor\":\"Y3Vyc29yOnYyOpK5MjAyNi0wMy0yNFQwMTowNDoxMi0wNzowMM717a92\"}}"}]}]},"parent_tool_use_id":null,"session_id":"de29ee29-fa95-4b03-b5d4-660fb99d11a1","uuid":"f958a374-30bf-4501-9ded-d343723215ad","timestamp":"2026-03-24T08:18:05.450Z","tool_use_result":[{"type":"text","text":"{\"issues\":[{\"number\":53537,\"title\":\"[Bug]: Gemini 2.5 Pro thinking content loops infinitely on model switch\",\"body\":\"### Bug type\\n\\nBehavior bug (incorrect output/state without crash)\\n\\n### Summary\\n\\nWhen switching from Gemini 2.5 Pro to another model, the `` content repeats infinitely\\n until OpenClaw aborts the run.\\n\\n### Steps to reproduce\\n\\n1. Set model to `github-copilot/gemini-2.5-pro`\\n   2. Send a message to trigger Gemini\\u0026#39;s reasoning/thinking output\\n   3. Send another message that switches model (e.g., to `moonshot/kimi-k2.5`)\\n   4. Observe the output\\n\\n### Expected behavior\\n\\nModel switch should work normally without repeating content.\\n\\n### Actual behavior\\n\\nThe `` content from Gemini 2.5 Pro repeats approximately 40+ times:\\n\\n### OpenClaw version\\n\\n2026.3.23-2 (7ffe7e4)\\n\\n### Operating system\\n\\nWindows 10.0.26200\\n\\n### Install method\\n\\nnpm global\\n\\n### Model\\n\\ngithub-copilot/gemini-2.5-pro/moonshot/kimi-k2.5\\n\\n### Provider / routing chain\\n\\nopenclaw-\\u0026gt;github-copilot/gemini-2.5-pro-\\u0026gt;moonshot/kimi-k2.5\\n\\n### Additional provider/model setup details\\n\\n_No response_\\n\\n### Logs, screenshots, and evidence\\n\\n```shell\\n\\n```\\n\\n### Impact and severity\\n\\nNOT_ENOUGH_INFO\\n\\n### Additional information\\n\\n_No response_\",\"state\":\"OPEN\",\"user\":{\"login\":\"mattyou\"},\"labels\":[\"bug\",\"bug:behavior\"],\"created_at\":\"2026-03-24T08:04:12Z\",\"updated_at\":\"2026-03-24T08:04:20Z\"}],\"totalCount\":2011,\"pageInfo\":{\"hasNextPage\":true,\"hasPreviousPage\":false,\"startCursor\":\"Y3Vyc29yOnYyOpK5MjAyNi0wMy0yNFQwMTowNDoxMi0wNzowMM717a92\",\"endCursor\":\"Y3Vyc29yOnYyOpK5MjAyNi0wMy0yNFQwMTowNDoxMi0wNzowMM717a92\"}}"}]}
{"type":"assistant","message":{"model":"claude-sonnet-4-6","id":"msg_01De5UmiLNQdcKVJJyupzpSD","type":"message","role":"assistant","content":[{"type":"thinking","thinking":"The most recent open issue labeled 'bug' is #53537: \"[Bug]: Gemini 2.5 Pro thinking content loops infinitely on model switch\". Now let me check for open PRs that reference this issue number.","signature":"EucCCkYIDBgCKkCeDD5WI1uscFxxx2hSjYJGQrw6/OsqwlHwgePfENYk6AUbRy1iiuDghNaKfivZYSFCb6KAjnzWcLWzWem7neVzEgxb6yAEPkyhexEu60YaDNhBHv5QCC37O7kl6yIwdNGlJ9/leeoD8dYK6Yd9c2NsY9UaeRxrtN6rDVNXmNOkKz+zPUzhX4vBvnyKEBVFKs4BUEGzfIffyP1iQyFTcI8JQYN9A18Epk8DzMRQzMD9t1eDPBOCzkwWq+d0w36H2Xh98fleDo2pZam8abfooEZ/AMwAayYz+Ki4QJouMP7Dqf0YU9+Vj7x+9fi9bdfZjqxwQlxKNmr8LQjXVDluxDwem/gAWBu0J8o/aUM8jCaJwNN2/XOYF298NqSLhEIy/ITpR3VClYRQVQ2HyDprlxDoD3tIMb83vdEiQdJ08dxmvY97P+t5Q+l6nX4SJ/Fu3Ypeugum569vutQoAjFRSm8YAQ=="}],"stop_reason":null,"stop_sequence":null,"usage":{"input_tokens":1,"cache_creation_input_tokens":814,"cache_read_input_tokens":33538,"cache_creation":{"ephemeral_5m_input_tokens":0,"ephemeral_1h_input_tokens":814},"output_tokens":8,"service_tier":"standard","inference_geo":"not_available"},"context_management":null},"parent_tool_use_id":null,"session_id":"de29ee29-fa95-4b03-b5d4-660fb99d11a1","uuid":"36af3a9e-2fd1-4d06-93f1-168a20173f66"}
{"type":"assistant","message":{"model":"claude-sonnet-4-6","id":"msg_01De5UmiLNQdcKVJJyupzpSD","type":"message","role":"assistant","content":[{"type":"tool_use","id":"toolu_01ByxMdmpM49RpWTNvCaULU4","name":"mcp__compressed-github__github_get_tool_schema","input":{"tool_name":"search_pull_requests"},"caller":{"type":"direct"}}],"stop_reason":null,"stop_sequence":null,"usage":{"input_tokens":1,"cache_creation_input_tokens":814,"cache_read_input_tokens":33538,"cache_creation":{"ephemeral_5m_input_tokens":0,"ephemeral_1h_input_tokens":814},"output_tokens":8,"service_tier":"standard","inference_geo":"not_available"},"context_management":null},"parent_tool_use_id":null,"session_id":"de29ee29-fa95-4b03-b5d4-660fb99d11a1","uuid":"478638c5-bbc2-4316-8095-03475a77025c"}
{"type":"user","message":{"role":"user","content":[{"tool_use_id":"toolu_01ByxMdmpM49RpWTNvCaULU4","type":"tool_result","content":"{\"result\":\"<tool>search_pull_requests(order, owner, page, perPage, query, repo, sort): Search for pull requests in GitHub repositories using issues search syntax already scoped to is:pr</tool>\\n\\n{\\n  \\\"type\\\": \\\"object\\\",\\n  \\\"properties\\\": {\\n    \\\"order\\\": {\\n      \\\"type\\\": \\\"string\\\",\\n      \\\"description\\\": \\\"Sort order\\\",\\n      \\\"enum\\\": [\\n        \\\"asc\\\",\\n        \\\"desc\\\"\\n      ]\\n    },\\n    \\\"owner\\\": {\\n      \\\"type\\\": \\\"string\\\",\\n      \\\"description\\\": \\\"Optional repository owner. If provided with repo, only pull requests for this repository are listed.\\\"\\n    },\\n    \\\"page\\\": {\\n      \\\"type\\\": \\\"number\\\",\\n      \\\"description\\\": \\\"Page number for pagination (min 1)\\\",\\n      \\\"minimum\\\": 1\\n    },\\n    \\\"perPage\\\": {\\n      \\\"type\\\": \\\"number\\\",\\n      \\\"description\\\": \\\"Results per page for pagination (min 1, max 100)\\\",\\n      \\\"minimum\\\": 1,\\n      \\\"maximum\\\": 100\\n    },\\n    \\\"query\\\": {\\n      \\\"type\\\": \\\"string\\\",\\n      \\\"description\\\": \\\"Search query using GitHub pull request search syntax\\\"\\n    },\\n    \\\"repo\\\": {\\n      \\\"type\\\": \\\"string\\\",\\n      \\\"description\\\": \\\"Optional repository name. If provided with owner, only pull requests for this repository are listed.\\\"\\n    },\\n    \\\"sort\\\": {\\n      \\\"type\\\": \\\"string\\\",\\n      \\\"description\\\": \\\"Sort field by number of matches of categories, defaults to best match\\\",\\n      \\\"enum\\\": [\\n        \\\"comments\\\",\\n        \\\"reactions\\\",\\n        \\\"reactions-+1\\\",\\n        \\\"reactions--1\\\",\\n        \\\"reactions-smile\\\",\\n        \\\"reactions-thinking_face\\\",\\n        \\\"reactions-heart\\\",\\n        \\\"reactions-tada\\\",\\n        \\\"interactions\\\",\\n        \\\"created\\\",\\n        \\\"updated\\\"\\n      ]\\n    }\\n  },\\n  \\\"required\\\": [\\n    \\\"query\\\"\\n  ]\\n}\"}"}]},"parent_tool_use_id":null,"session_id":"de29ee29-fa95-4b03-b5d4-660fb99d11a1","uuid":"362ec552-8b94-46fd-8e62-af11f9443134","timestamp":"2026-03-24T08:18:10.092Z","tool_use_result":{"content":"{\"result\":\"<tool>search_pull_requests(order, owner, page, perPage, query, repo, sort): Search for pull requests in GitHub repositories using issues search syntax already scoped to is:pr</tool>\\n\\n{\\n  \\\"type\\\": \\\"object\\\",\\n  \\\"properties\\\": {\\n    \\\"order\\\": {\\n      \\\"type\\\": \\\"string\\\",\\n      \\\"description\\\": \\\"Sort order\\\",\\n      \\\"enum\\\": [\\n        \\\"asc\\\",\\n        \\\"desc\\\"\\n      ]\\n    },\\n    \\\"owner\\\": {\\n      \\\"type\\\": \\\"string\\\",\\n      \\\"description\\\": \\\"Optional repository owner. If provided with repo, only pull requests for this repository are listed.\\\"\\n    },\\n    \\\"page\\\": {\\n      \\\"type\\\": \\\"number\\\",\\n      \\\"description\\\": \\\"Page number for pagination (min 1)\\\",\\n      \\\"minimum\\\": 1\\n    },\\n    \\\"perPage\\\": {\\n      \\\"type\\\": \\\"number\\\",\\n      \\\"description\\\": \\\"Results per page for pagination (min 1, max 100)\\\",\\n      \\\"minimum\\\": 1,\\n      \\\"maximum\\\": 100\\n    },\\n    \\\"query\\\": {\\n      \\\"type\\\": \\\"string\\\",\\n      \\\"description\\\": \\\"Search query using GitHub pull request search syntax\\\"\\n    },\\n    \\\"repo\\\": {\\n      \\\"type\\\": \\\"string\\\",\\n      \\\"description\\\": \\\"Optional repository name. If provided with owner, only pull requests for this repository are listed.\\\"\\n    },\\n    \\\"sort\\\": {\\n      \\\"type\\\": \\\"string\\\",\\n      \\\"description\\\": \\\"Sort field by number of matches of categories, defaults to best match\\\",\\n      \\\"enum\\\": [\\n        \\\"comments\\\",\\n        \\\"reactions\\\",\\n        \\\"reactions-+1\\\",\\n        \\\"reactions--1\\\",\\n        \\\"reactions-smile\\\",\\n        \\\"reactions-thinking_face\\\",\\n        \\\"reactions-heart\\\",\\n        \\\"reactions-tada\\\",\\n        \\\"interactions\\\",\\n        \\\"created\\\",\\n        \\\"updated\\\"\\n      ]\\n    }\\n  },\\n  \\\"required\\\": [\\n    \\\"query\\\"\\n  ]\\n}\"}","structuredContent":{"result":"<tool>search_pull_requests(order, owner, page, perPage, query, repo, sort): Search for pull requests in GitHub repositories using issues search syntax already scoped to is:pr</tool>\n\n{\n  \"type\": \"object\",\n  \"properties\": {\n    \"order\": {\n      \"type\": \"string\",\n      \"description\": \"Sort order\",\n      \"enum\": [\n        \"asc\",\n        \"desc\"\n      ]\n    },\n    \"owner\": {\n      \"type\": \"string\",\n      \"description\": \"Optional repository owner. If provided with repo, only pull requests for this repository are listed.\"\n    },\n    \"page\": {\n      \"type\": \"number\",\n      \"description\": \"Page number for pagination (min 1)\",\n      \"minimum\": 1\n    },\n    \"perPage\": {\n      \"type\": \"number\",\n      \"description\": \"Results per page for pagination (min 1, max 100)\",\n      \"minimum\": 1,\n      \"maximum\": 100\n    },\n    \"query\": {\n      \"type\": \"string\",\n      \"description\": \"Search query using GitHub pull request search syntax\"\n    },\n    \"repo\": {\n      \"type\": \"string\",\n      \"description\": \"Optional repository name. If provided with owner, only pull requests for this repository are listed.\"\n    },\n    \"sort\": {\n      \"type\": \"string\",\n      \"description\": \"Sort field by number of matches of categories, defaults to best match\",\n      \"enum\": [\n        \"comments\",\n        \"reactions\",\n        \"reactions-+1\",\n        \"reactions--1\",\n        \"reactions-smile\",\n        \"reactions-thinking_face\",\n        \"reactions-heart\",\n        \"reactions-tada\",\n        \"interactions\",\n        \"created\",\n        \"updated\"\n      ]\n    }\n  },\n  \"required\": [\n    \"query\"\n  ]\n}"}}}
{"type":"assistant","message":{"model":"claude-sonnet-4-6","id":"msg_015Jnec51pTjuLSBbrYPMarJ","type":"message","role":"assistant","content":[{"type":"tool_use","id":"toolu_017jXqzEmAdb5rhHMUyowQVF","name":"mcp__compressed-github__github_invoke_tool","input":{"tool_name":"search_pull_requests","tool_input":{"query":"repo:openclaw/openclaw is:open 53537"}},"caller":{"type":"direct"}}],"stop_reason":null,"stop_sequence":null,"usage":{"input_tokens":1,"cache_creation_input_tokens":706,"cache_read_input_tokens":34352,"cache_creation":{"ephemeral_5m_input_tokens":0,"ephemeral_1h_input_tokens":706},"output_tokens":66,"service_tier":"standard","inference_geo":"not_available"},"context_management":null},"parent_tool_use_id":null,"session_id":"de29ee29-fa95-4b03-b5d4-660fb99d11a1","uuid":"cf514fd9-aaad-4871-8dec-500718e7c978"}
{"type":"user","message":{"role":"user","content":[{"tool_use_id":"toolu_017jXqzEmAdb5rhHMUyowQVF","type":"tool_result","content":[{"type":"text","text":"{\"total_count\":0,\"incomplete_results\":false}"}]}]},"parent_tool_use_id":null,"session_id":"de29ee29-fa95-4b03-b5d4-660fb99d11a1","uuid":"bd16a321-42f4-418e-aedf-5ffc112192e4","timestamp":"2026-03-24T08:18:14.747Z","tool_use_result":[{"type":"text","text":"{\"total_count\":0,\"incomplete_results\":false}"}]}
{"type":"assistant","message":{"model":"claude-sonnet-4-6","id":"msg_01YTS4heQaCQN2u5t5cs5GPV","type":"message","role":"assistant","content":[{"type":"text","text":"---\n\n**Most recent open bug issue:** [#53537 — \"[Bug]: Gemini 2.5 Pro thinking content loops infinitely on model switch\"](https://github.com/openclaw/openclaw/issues/53537)\n\n- **Filed:** 2026-03-24 by `mattyou`\n- **Summary:** When switching from `github-copilot/gemini-2.5-pro` to another model, the `<thinking>` content repeats 40+ times until OpenClaw aborts the run.\n\n**Fix in progress:** No — no open PRs reference issue #53537 in their title or body. No fix appears to be underway yet."}],"stop_reason":null,"stop_sequence":null,"usage":{"input_tokens":1,"cache_creation_input_tokens":128,"cache_read_input_tokens":35058,"cache_creation":{"ephemeral_5m_input_tokens":0,"ephemeral_1h_input_tokens":128},"output_tokens":1,"service_tier":"standard","inference_geo":"not_available"},"context_management":null},"parent_tool_use_id":null,"session_id":"de29ee29-fa95-4b03-b5d4-660fb99d11a1","uuid":"d86e8f95-0307-4418-ac70-4d8b755e4893"}
{"type":"result","subtype":"success","is_error":false,"duration_ms":22944,"duration_api_ms":17752,"num_turns":5,"result":"---\n\n**Most recent open bug issue:** [#53537 — \"[Bug]: Gemini 2.5 Pro thinking content loops infinitely on model switch\"](https://github.com/openclaw/openclaw/issues/53537)\n\n- **Filed:** 2026-03-24 by `mattyou`\n- **Summary:** When switching from `github-copilot/gemini-2.5-pro` to another model, the `<thinking>` content repeats 40+ times until OpenClaw aborts the run.\n\n**Fix in progress:** No — no open PRs reference issue #53537 in their title or body. No fix appears to be underway yet.","stop_reason":"end_turn","session_id":"de29ee29-fa95-4b03-b5d4-660fb99d11a1","total_cost_usd":0.09298424999999999,"usage":{"input_tokens":7,"cache_creation_input_tokens":9277,"cache_read_input_tokens":161615,"output_tokens":646,"server_tool_use":{"web_search_requests":0,"web_fetch_requests":0},"service_tier":"standard","cache_creation":{"ephemeral_1h_input_tokens":9277,"ephemeral_5m_input_tokens":0},"inference_geo":"","iterations":[],"speed":"standard"},"modelUsage":{"claude-sonnet-4-6":{"inputTokens":7,"outputTokens":646,"cacheReadInputTokens":161615,"cacheCreationInputTokens":9277,"webSearchRequests":0,"costUSD":0.09298424999999999,"contextWindow":200000,"maxOutputTokens":32000}},"permission_denials":[],"fast_mode_state":"off","uuid":"f5648071-718f-4325-a6e7-820526f0a73c"}
