{"type":"system","subtype":"init","cwd":"/Users/kunchen/.treehouse/axi-8d75ad/1/axi/bench/results/mcp-compressed-high/find_fix_for_bug/run3/workspace","session_id":"f1ae888b-5b88-4228-b94d-f81577b2dd79","tools":["Task","TaskOutput","Bash","Glob","Grep","ExitPlanMode","Read","Edit","Write","NotebookEdit","WebFetch","TodoWrite","WebSearch","TaskStop","AskUserQuestion","Skill","EnterPlanMode","EnterWorktree","ExitWorktree","CronCreate","CronDelete","CronList","mcp__chrome-devtools__click","mcp__chrome-devtools__close_page","mcp__chrome-devtools__drag","mcp__chrome-devtools__emulate","mcp__chrome-devtools__evaluate_script","mcp__chrome-devtools__fill","mcp__chrome-devtools__fill_form","mcp__chrome-devtools__get_console_message","mcp__chrome-devtools__get_network_request","mcp__chrome-devtools__handle_dialog","mcp__chrome-devtools__hover","mcp__chrome-devtools__lighthouse_audit","mcp__chrome-devtools__list_console_messages","mcp__chrome-devtools__list_network_requests","mcp__chrome-devtools__list_pages","mcp__chrome-devtools__navigate_page","mcp__chrome-devtools__new_page","mcp__chrome-devtools__performance_analyze_insight","mcp__chrome-devtools__performance_start_trace","mcp__chrome-devtools__performance_stop_trace","mcp__chrome-devtools__press_key","mcp__chrome-devtools__resize_page","mcp__chrome-devtools__select_page","mcp__chrome-devtools__take_memory_snapshot","mcp__chrome-devtools__take_screenshot","mcp__chrome-devtools__take_snapshot","mcp__chrome-devtools__type_text","mcp__chrome-devtools__upload_file","mcp__chrome-devtools__wait_for","mcp__compressed-github__github_get_tool_schema","mcp__compressed-github__github_invoke_tool","ListMcpResourcesTool","ReadMcpResourceTool","LSP"],"mcp_servers":[{"name":"chrome-devtools","status":"connected"},{"name":"compressed-github","status":"connected"},{"name":"claude.ai Google Calendar","status":"needs-auth"},{"name":"claude.ai Gmail","status":"needs-auth"}],"model":"claude-sonnet-4-6","permissionMode":"bypassPermissions","slash_commands":["update-config","debug","simplify","batch","loop","claude-api","test-driven-development","axi","compact","context","cost","heapdump","init","pr-comments","release-notes","review","security-review","extra-usage","insights","mcp__compressed-github__AssignCodingAgent","mcp__compressed-github__issue_to_fix_workflow"],"apiKeySource":"none","claude_code_version":"2.1.77","output_style":"default","agents":["general-purpose","statusline-setup","Explore","Plan","claude-code-guide"],"skills":["update-config","debug","simplify","batch","loop","claude-api","test-driven-development","axi"],"plugins":[{"name":"rust-analyzer-lsp","path":"/Users/kunchen/.claude/plugins/cache/claude-plugins-official/rust-analyzer-lsp/1.0.0"}],"uuid":"983a6a91-1650-49d9-96d7-682a5d81d0f8","fast_mode_state":"off"}
{"type":"assistant","message":{"model":"claude-sonnet-4-6","id":"msg_018xcv9XpdybHGHt6m7ZczPa","type":"message","role":"assistant","content":[{"type":"thinking","thinking":"Let me find the most recent open issue labeled 'bug' in openclaw/openclaw, then check for any open PRs referencing that issue number.","signature":"Eq4CCkYIDBgCKkAfCzyeYnct6mmrJehLUKJfMDhsYcxh7X1C3obOAzk5M9ImypyqiFHXE6V1iBZhkJfSsO2bGmoILteotkByVqHjEgyC565gflxPBMvVCO8aDCYD6pCib/YfuuxQtCIwuG76mD8m6ttOCWWlR6TItykgrJuXt+XaIWUNTFiE6AyoLhQk0/IItLs9CjtSBmdjKpUBKCxKwYJKsLih/c50aRIazWBlntt6J1glBWFiuNBfFcW7+LXUWbvnCDLa8cNt9Pp3vqmBuJ2qVJyuFnVkg2gbwnSrClGNTEH2LCEYOWcPKvqMlc4YQa8hFvF4y7n2GKHX/IEOERd/Ijq1iWxN65qRmKV5yqJvrbG93VnYF+V7n9UFN54EPXFRlENKfuGOnJN6kCXZ7qAYAQ=="}],"stop_reason":null,"stop_sequence":null,"usage":{"input_tokens":3,"cache_creation_input_tokens":6849,"cache_read_input_tokens":25909,"cache_creation":{"ephemeral_5m_input_tokens":0,"ephemeral_1h_input_tokens":6849},"output_tokens":0,"service_tier":"standard","inference_geo":"not_available"},"context_management":null},"parent_tool_use_id":null,"session_id":"f1ae888b-5b88-4228-b94d-f81577b2dd79","uuid":"ee199325-bb48-4a0d-ae95-b44f11205ade"}
{"type":"assistant","message":{"model":"claude-sonnet-4-6","id":"msg_018xcv9XpdybHGHt6m7ZczPa","type":"message","role":"assistant","content":[{"type":"tool_use","id":"toolu_01ENkVzqsvoyrKurbXMg3AeE","name":"mcp__compressed-github__github_get_tool_schema","input":{"tool_name":"list_issues"},"caller":{"type":"direct"}}],"stop_reason":null,"stop_sequence":null,"usage":{"input_tokens":3,"cache_creation_input_tokens":6849,"cache_read_input_tokens":25909,"cache_creation":{"ephemeral_5m_input_tokens":0,"ephemeral_1h_input_tokens":6849},"output_tokens":0,"service_tier":"standard","inference_geo":"not_available"},"context_management":null},"parent_tool_use_id":null,"session_id":"f1ae888b-5b88-4228-b94d-f81577b2dd79","uuid":"a5dee679-bccc-4c6a-a0fe-d876c08ca79f"}
{"type":"rate_limit_event","rate_limit_info":{"status":"allowed","resetsAt":1774342800,"rateLimitType":"five_hour","overageStatus":"rejected","overageDisabledReason":"org_level_disabled","isUsingOverage":false},"uuid":"49b15fbc-1b4d-4cc3-b85b-79c5056366f7","session_id":"f1ae888b-5b88-4228-b94d-f81577b2dd79"}
{"type":"user","message":{"role":"user","content":[{"tool_use_id":"toolu_01ENkVzqsvoyrKurbXMg3AeE","type":"tool_result","content":"{\"result\":\"<tool>list_issues(after, direction, labels, orderBy, owner, perPage, repo, since, state): List issues in a GitHub repository. For pagination, use the 'endCursor' from the previous response's 'pageInfo' in the 'after' parameter.</tool>\\n\\n{\\n  \\\"type\\\": \\\"object\\\",\\n  \\\"properties\\\": {\\n    \\\"after\\\": {\\n      \\\"type\\\": \\\"string\\\",\\n      \\\"description\\\": \\\"Cursor for pagination. Use the endCursor from the previous page's PageInfo for GraphQL APIs.\\\"\\n    },\\n    \\\"direction\\\": {\\n      \\\"type\\\": \\\"string\\\",\\n      \\\"description\\\": \\\"Order direction. If provided, the 'orderBy' also needs to be provided.\\\",\\n      \\\"enum\\\": [\\n        \\\"ASC\\\",\\n        \\\"DESC\\\"\\n      ]\\n    },\\n    \\\"labels\\\": {\\n      \\\"type\\\": \\\"array\\\",\\n      \\\"items\\\": {\\n        \\\"type\\\": \\\"string\\\"\\n      },\\n      \\\"description\\\": \\\"Filter by labels\\\"\\n    },\\n    \\\"orderBy\\\": {\\n      \\\"type\\\": \\\"string\\\",\\n      \\\"description\\\": \\\"Order issues by field. If provided, the 'direction' also needs to be provided.\\\",\\n      \\\"enum\\\": [\\n        \\\"CREATED_AT\\\",\\n        \\\"UPDATED_AT\\\",\\n        \\\"COMMENTS\\\"\\n      ]\\n    },\\n    \\\"owner\\\": {\\n      \\\"type\\\": \\\"string\\\",\\n      \\\"description\\\": \\\"Repository owner\\\"\\n    },\\n    \\\"perPage\\\": {\\n      \\\"type\\\": \\\"number\\\",\\n      \\\"description\\\": \\\"Results per page for pagination (min 1, max 100)\\\",\\n      \\\"minimum\\\": 1,\\n      \\\"maximum\\\": 100\\n    },\\n    \\\"repo\\\": {\\n      \\\"type\\\": \\\"string\\\",\\n      \\\"description\\\": \\\"Repository name\\\"\\n    },\\n    \\\"since\\\": {\\n      \\\"type\\\": \\\"string\\\",\\n      \\\"description\\\": \\\"Filter by date (ISO 8601 timestamp)\\\"\\n    },\\n    \\\"state\\\": {\\n      \\\"type\\\": \\\"string\\\",\\n      \\\"description\\\": \\\"Filter by state, by default both open and closed issues are returned when not provided\\\",\\n      \\\"enum\\\": [\\n        \\\"OPEN\\\",\\n        \\\"CLOSED\\\"\\n      ]\\n    }\\n  },\\n  \\\"required\\\": [\\n    \\\"owner\\\",\\n    \\\"repo\\\"\\n  ]\\n}\"}"}]},"parent_tool_use_id":null,"session_id":"f1ae888b-5b88-4228-b94d-f81577b2dd79","uuid":"cec7e8ee-4cd9-4474-a80c-e79a62a3fb2c","timestamp":"2026-03-24T08:18:34.038Z","tool_use_result":{"content":"{\"result\":\"<tool>list_issues(after, direction, labels, orderBy, owner, perPage, repo, since, state): List issues in a GitHub repository. For pagination, use the 'endCursor' from the previous response's 'pageInfo' in the 'after' parameter.</tool>\\n\\n{\\n  \\\"type\\\": \\\"object\\\",\\n  \\\"properties\\\": {\\n    \\\"after\\\": {\\n      \\\"type\\\": \\\"string\\\",\\n      \\\"description\\\": \\\"Cursor for pagination. Use the endCursor from the previous page's PageInfo for GraphQL APIs.\\\"\\n    },\\n    \\\"direction\\\": {\\n      \\\"type\\\": \\\"string\\\",\\n      \\\"description\\\": \\\"Order direction. If provided, the 'orderBy' also needs to be provided.\\\",\\n      \\\"enum\\\": [\\n        \\\"ASC\\\",\\n        \\\"DESC\\\"\\n      ]\\n    },\\n    \\\"labels\\\": {\\n      \\\"type\\\": \\\"array\\\",\\n      \\\"items\\\": {\\n        \\\"type\\\": \\\"string\\\"\\n      },\\n      \\\"description\\\": \\\"Filter by labels\\\"\\n    },\\n    \\\"orderBy\\\": {\\n      \\\"type\\\": \\\"string\\\",\\n      \\\"description\\\": \\\"Order issues by field. If provided, the 'direction' also needs to be provided.\\\",\\n      \\\"enum\\\": [\\n        \\\"CREATED_AT\\\",\\n        \\\"UPDATED_AT\\\",\\n        \\\"COMMENTS\\\"\\n      ]\\n    },\\n    \\\"owner\\\": {\\n      \\\"type\\\": \\\"string\\\",\\n      \\\"description\\\": \\\"Repository owner\\\"\\n    },\\n    \\\"perPage\\\": {\\n      \\\"type\\\": \\\"number\\\",\\n      \\\"description\\\": \\\"Results per page for pagination (min 1, max 100)\\\",\\n      \\\"minimum\\\": 1,\\n      \\\"maximum\\\": 100\\n    },\\n    \\\"repo\\\": {\\n      \\\"type\\\": \\\"string\\\",\\n      \\\"description\\\": \\\"Repository name\\\"\\n    },\\n    \\\"since\\\": {\\n      \\\"type\\\": \\\"string\\\",\\n      \\\"description\\\": \\\"Filter by date (ISO 8601 timestamp)\\\"\\n    },\\n    \\\"state\\\": {\\n      \\\"type\\\": \\\"string\\\",\\n      \\\"description\\\": \\\"Filter by state, by default both open and closed issues are returned when not provided\\\",\\n      \\\"enum\\\": [\\n        \\\"OPEN\\\",\\n        \\\"CLOSED\\\"\\n      ]\\n    }\\n  },\\n  \\\"required\\\": [\\n    \\\"owner\\\",\\n    \\\"repo\\\"\\n  ]\\n}\"}","structuredContent":{"result":"<tool>list_issues(after, direction, labels, orderBy, owner, perPage, repo, since, state): List issues in a GitHub repository. For pagination, use the 'endCursor' from the previous response's 'pageInfo' in the 'after' parameter.</tool>\n\n{\n  \"type\": \"object\",\n  \"properties\": {\n    \"after\": {\n      \"type\": \"string\",\n      \"description\": \"Cursor for pagination. Use the endCursor from the previous page's PageInfo for GraphQL APIs.\"\n    },\n    \"direction\": {\n      \"type\": \"string\",\n      \"description\": \"Order direction. If provided, the 'orderBy' also needs to be provided.\",\n      \"enum\": [\n        \"ASC\",\n        \"DESC\"\n      ]\n    },\n    \"labels\": {\n      \"type\": \"array\",\n      \"items\": {\n        \"type\": \"string\"\n      },\n      \"description\": \"Filter by labels\"\n    },\n    \"orderBy\": {\n      \"type\": \"string\",\n      \"description\": \"Order issues by field. If provided, the 'direction' also needs to be provided.\",\n      \"enum\": [\n        \"CREATED_AT\",\n        \"UPDATED_AT\",\n        \"COMMENTS\"\n      ]\n    },\n    \"owner\": {\n      \"type\": \"string\",\n      \"description\": \"Repository owner\"\n    },\n    \"perPage\": {\n      \"type\": \"number\",\n      \"description\": \"Results per page for pagination (min 1, max 100)\",\n      \"minimum\": 1,\n      \"maximum\": 100\n    },\n    \"repo\": {\n      \"type\": \"string\",\n      \"description\": \"Repository name\"\n    },\n    \"since\": {\n      \"type\": \"string\",\n      \"description\": \"Filter by date (ISO 8601 timestamp)\"\n    },\n    \"state\": {\n      \"type\": \"string\",\n      \"description\": \"Filter by state, by default both open and closed issues are returned when not provided\",\n      \"enum\": [\n        \"OPEN\",\n        \"CLOSED\"\n      ]\n    }\n  },\n  \"required\": [\n    \"owner\",\n    \"repo\"\n  ]\n}"}}}
{"type":"assistant","message":{"model":"claude-sonnet-4-6","id":"msg_01NDFKSYNEBQtJ7rJCJBSCkT","type":"message","role":"assistant","content":[{"type":"tool_use","id":"toolu_01EZhRL57xBqFHpchokWPAgf","name":"mcp__compressed-github__github_invoke_tool","input":{"tool_name":"list_issues","tool_input":{"owner":"openclaw","repo":"openclaw","state":"OPEN","labels":["bug"],"orderBy":"CREATED_AT","direction":"DESC","perPage":1}},"caller":{"type":"direct"}}],"stop_reason":null,"stop_sequence":null,"usage":{"input_tokens":1,"cache_creation_input_tokens":781,"cache_read_input_tokens":32758,"cache_creation":{"ephemeral_5m_input_tokens":0,"ephemeral_1h_input_tokens":781},"output_tokens":67,"service_tier":"standard","inference_geo":"not_available"},"context_management":null},"parent_tool_use_id":null,"session_id":"f1ae888b-5b88-4228-b94d-f81577b2dd79","uuid":"4a717ccf-e3ed-4f6d-9fd1-b9d6816a2636"}
{"type":"user","message":{"role":"user","content":[{"tool_use_id":"toolu_01EZhRL57xBqFHpchokWPAgf","type":"tool_result","content":[{"type":"text","text":"{\"issues\":[{\"number\":53537,\"title\":\"[Bug]: Gemini 2.5 Pro thinking content loops infinitely on model switch\",\"body\":\"### Bug type\\n\\nBehavior bug (incorrect output/state without crash)\\n\\n### Summary\\n\\nWhen switching from Gemini 2.5 Pro to another model, the `` content repeats infinitely\\n until OpenClaw aborts the run.\\n\\n### Steps to reproduce\\n\\n1. Set model to `github-copilot/gemini-2.5-pro`\\n   2. Send a message to trigger Gemini\\u0026#39;s reasoning/thinking output\\n   3. Send another message that switches model (e.g., to `moonshot/kimi-k2.5`)\\n   4. Observe the output\\n\\n### Expected behavior\\n\\nModel switch should work normally without repeating content.\\n\\n### Actual behavior\\n\\nThe `` content from Gemini 2.5 Pro repeats approximately 40+ times:\\n\\n### OpenClaw version\\n\\n2026.3.23-2 (7ffe7e4)\\n\\n### Operating system\\n\\nWindows 10.0.26200\\n\\n### Install method\\n\\nnpm global\\n\\n### Model\\n\\ngithub-copilot/gemini-2.5-pro/moonshot/kimi-k2.5\\n\\n### Provider / routing chain\\n\\nopenclaw-\\u0026gt;github-copilot/gemini-2.5-pro-\\u0026gt;moonshot/kimi-k2.5\\n\\n### Additional provider/model setup details\\n\\n_No response_\\n\\n### Logs, screenshots, and evidence\\n\\n```shell\\n\\n```\\n\\n### Impact and severity\\n\\nNOT_ENOUGH_INFO\\n\\n### Additional information\\n\\n_No response_\",\"state\":\"OPEN\",\"user\":{\"login\":\"mattyou\"},\"labels\":[\"bug\",\"bug:behavior\"],\"created_at\":\"2026-03-24T08:04:12Z\",\"updated_at\":\"2026-03-24T08:04:20Z\"}],\"totalCount\":2011,\"pageInfo\":{\"hasNextPage\":true,\"hasPreviousPage\":false,\"startCursor\":\"Y3Vyc29yOnYyOpK5MjAyNi0wMy0yNFQwMTowNDoxMi0wNzowMM717a92\",\"endCursor\":\"Y3Vyc29yOnYyOpK5MjAyNi0wMy0yNFQwMTowNDoxMi0wNzowMM717a92\"}}"}]}]},"parent_tool_use_id":null,"session_id":"f1ae888b-5b88-4228-b94d-f81577b2dd79","uuid":"8ca07e44-f4c3-4e92-8367-b20dd3b56151","timestamp":"2026-03-24T08:18:39.457Z","tool_use_result":[{"type":"text","text":"{\"issues\":[{\"number\":53537,\"title\":\"[Bug]: Gemini 2.5 Pro thinking content loops infinitely on model switch\",\"body\":\"### Bug type\\n\\nBehavior bug (incorrect output/state without crash)\\n\\n### Summary\\n\\nWhen switching from Gemini 2.5 Pro to another model, the `` content repeats infinitely\\n until OpenClaw aborts the run.\\n\\n### Steps to reproduce\\n\\n1. Set model to `github-copilot/gemini-2.5-pro`\\n   2. Send a message to trigger Gemini\\u0026#39;s reasoning/thinking output\\n   3. Send another message that switches model (e.g., to `moonshot/kimi-k2.5`)\\n   4. Observe the output\\n\\n### Expected behavior\\n\\nModel switch should work normally without repeating content.\\n\\n### Actual behavior\\n\\nThe `` content from Gemini 2.5 Pro repeats approximately 40+ times:\\n\\n### OpenClaw version\\n\\n2026.3.23-2 (7ffe7e4)\\n\\n### Operating system\\n\\nWindows 10.0.26200\\n\\n### Install method\\n\\nnpm global\\n\\n### Model\\n\\ngithub-copilot/gemini-2.5-pro/moonshot/kimi-k2.5\\n\\n### Provider / routing chain\\n\\nopenclaw-\\u0026gt;github-copilot/gemini-2.5-pro-\\u0026gt;moonshot/kimi-k2.5\\n\\n### Additional provider/model setup details\\n\\n_No response_\\n\\n### Logs, screenshots, and evidence\\n\\n```shell\\n\\n```\\n\\n### Impact and severity\\n\\nNOT_ENOUGH_INFO\\n\\n### Additional information\\n\\n_No response_\",\"state\":\"OPEN\",\"user\":{\"login\":\"mattyou\"},\"labels\":[\"bug\",\"bug:behavior\"],\"created_at\":\"2026-03-24T08:04:12Z\",\"updated_at\":\"2026-03-24T08:04:20Z\"}],\"totalCount\":2011,\"pageInfo\":{\"hasNextPage\":true,\"hasPreviousPage\":false,\"startCursor\":\"Y3Vyc29yOnYyOpK5MjAyNi0wMy0yNFQwMTowNDoxMi0wNzowMM717a92\",\"endCursor\":\"Y3Vyc29yOnYyOpK5MjAyNi0wMy0yNFQwMTowNDoxMi0wNzowMM717a92\"}}"}]}
{"type":"assistant","message":{"model":"claude-sonnet-4-6","id":"msg_01TJCTy35Bb9KLEQgLfCoDdm","type":"message","role":"assistant","content":[{"type":"thinking","thinking":"The most recent open bug issue is #53537: \"[Bug]: Gemini 2.5 Pro thinking content loops infinitely on model switch\". Now I need to check if any open PRs reference this issue number (53537) in their title or body.","signature":"Ev0CCkYIDBgCKkC/fgZFCESV6byhKGNJIYJY1BArOoOf9enTbo0JwMIFvjoQ8QyUbpYBjslrXvIKKLQBk8Rsk1DM3F4PiWoPqmi7EgwJidCb0DaqI9p/RYUaDEBRkxyXfRrvfG+9+iIw21L+Je1weEiIn4bhDwMeTBp37jJ5QOyWVlxg5VdHRoPVB3F1mdsg3tqGfmtLkcB/KuQBY4DCL1QlVeLvnrdEkcSQOYS/6fGWo1oV6CrB28XvZ7qjcR94NMmYqKBxBXABVmumaGSrrZ5Y9qpE1w1s/03AA09PaLCI/K0TuZ91xB86SurChaRfUfYI7gr/rZ3bTh8FiB5DhyucyOYpDGHc4Ij/E61UHD+rwgGpUp1GcCMn0RoFOEwzIJsdQuWS6Cj67AWSAjlX2oH4e/xrEprYrzw4oHl62FMqnoAjS+w5twgYCOHAl0udbOMP1hwCp5K33S6IY5f9zO3E3dGGo6//1vPXBsEmH3u+Trgnz14FjvJQKPgZa/XzGAE="}],"stop_reason":null,"stop_sequence":null,"usage":{"input_tokens":1,"cache_creation_input_tokens":814,"cache_read_input_tokens":33539,"cache_creation":{"ephemeral_5m_input_tokens":0,"ephemeral_1h_input_tokens":814},"output_tokens":8,"service_tier":"standard","inference_geo":"not_available"},"context_management":null},"parent_tool_use_id":null,"session_id":"f1ae888b-5b88-4228-b94d-f81577b2dd79","uuid":"c8fe21a6-af7b-45f9-9cb5-cc3b887312a8"}
{"type":"assistant","message":{"model":"claude-sonnet-4-6","id":"msg_01TJCTy35Bb9KLEQgLfCoDdm","type":"message","role":"assistant","content":[{"type":"tool_use","id":"toolu_01D7UmBeJncZPk9LYmCR1odN","name":"mcp__compressed-github__github_get_tool_schema","input":{"tool_name":"search_pull_requests"},"caller":{"type":"direct"}}],"stop_reason":null,"stop_sequence":null,"usage":{"input_tokens":1,"cache_creation_input_tokens":814,"cache_read_input_tokens":33539,"cache_creation":{"ephemeral_5m_input_tokens":0,"ephemeral_1h_input_tokens":814},"output_tokens":8,"service_tier":"standard","inference_geo":"not_available"},"context_management":null},"parent_tool_use_id":null,"session_id":"f1ae888b-5b88-4228-b94d-f81577b2dd79","uuid":"62f74fff-17e9-47ad-80c0-bea5d53b82b3"}
{"type":"user","message":{"role":"user","content":[{"tool_use_id":"toolu_01D7UmBeJncZPk9LYmCR1odN","type":"tool_result","content":"{\"result\":\"<tool>search_pull_requests(order, owner, page, perPage, query, repo, sort): Search for pull requests in GitHub repositories using issues search syntax already scoped to is:pr</tool>\\n\\n{\\n  \\\"type\\\": \\\"object\\\",\\n  \\\"properties\\\": {\\n    \\\"order\\\": {\\n      \\\"type\\\": \\\"string\\\",\\n      \\\"description\\\": \\\"Sort order\\\",\\n      \\\"enum\\\": [\\n        \\\"asc\\\",\\n        \\\"desc\\\"\\n      ]\\n    },\\n    \\\"owner\\\": {\\n      \\\"type\\\": \\\"string\\\",\\n      \\\"description\\\": \\\"Optional repository owner. If provided with repo, only pull requests for this repository are listed.\\\"\\n    },\\n    \\\"page\\\": {\\n      \\\"type\\\": \\\"number\\\",\\n      \\\"description\\\": \\\"Page number for pagination (min 1)\\\",\\n      \\\"minimum\\\": 1\\n    },\\n    \\\"perPage\\\": {\\n      \\\"type\\\": \\\"number\\\",\\n      \\\"description\\\": \\\"Results per page for pagination (min 1, max 100)\\\",\\n      \\\"minimum\\\": 1,\\n      \\\"maximum\\\": 100\\n    },\\n    \\\"query\\\": {\\n      \\\"type\\\": \\\"string\\\",\\n      \\\"description\\\": \\\"Search query using GitHub pull request search syntax\\\"\\n    },\\n    \\\"repo\\\": {\\n      \\\"type\\\": \\\"string\\\",\\n      \\\"description\\\": \\\"Optional repository name. If provided with owner, only pull requests for this repository are listed.\\\"\\n    },\\n    \\\"sort\\\": {\\n      \\\"type\\\": \\\"string\\\",\\n      \\\"description\\\": \\\"Sort field by number of matches of categories, defaults to best match\\\",\\n      \\\"enum\\\": [\\n        \\\"comments\\\",\\n        \\\"reactions\\\",\\n        \\\"reactions-+1\\\",\\n        \\\"reactions--1\\\",\\n        \\\"reactions-smile\\\",\\n        \\\"reactions-thinking_face\\\",\\n        \\\"reactions-heart\\\",\\n        \\\"reactions-tada\\\",\\n        \\\"interactions\\\",\\n        \\\"created\\\",\\n        \\\"updated\\\"\\n      ]\\n    }\\n  },\\n  \\\"required\\\": [\\n    \\\"query\\\"\\n  ]\\n}\"}"}]},"parent_tool_use_id":null,"session_id":"f1ae888b-5b88-4228-b94d-f81577b2dd79","uuid":"0b732c65-6cea-420f-bc18-0094139ae488","timestamp":"2026-03-24T08:18:44.195Z","tool_use_result":{"content":"{\"result\":\"<tool>search_pull_requests(order, owner, page, perPage, query, repo, sort): Search for pull requests in GitHub repositories using issues search syntax already scoped to is:pr</tool>\\n\\n{\\n  \\\"type\\\": \\\"object\\\",\\n  \\\"properties\\\": {\\n    \\\"order\\\": {\\n      \\\"type\\\": \\\"string\\\",\\n      \\\"description\\\": \\\"Sort order\\\",\\n      \\\"enum\\\": [\\n        \\\"asc\\\",\\n        \\\"desc\\\"\\n      ]\\n    },\\n    \\\"owner\\\": {\\n      \\\"type\\\": \\\"string\\\",\\n      \\\"description\\\": \\\"Optional repository owner. If provided with repo, only pull requests for this repository are listed.\\\"\\n    },\\n    \\\"page\\\": {\\n      \\\"type\\\": \\\"number\\\",\\n      \\\"description\\\": \\\"Page number for pagination (min 1)\\\",\\n      \\\"minimum\\\": 1\\n    },\\n    \\\"perPage\\\": {\\n      \\\"type\\\": \\\"number\\\",\\n      \\\"description\\\": \\\"Results per page for pagination (min 1, max 100)\\\",\\n      \\\"minimum\\\": 1,\\n      \\\"maximum\\\": 100\\n    },\\n    \\\"query\\\": {\\n      \\\"type\\\": \\\"string\\\",\\n      \\\"description\\\": \\\"Search query using GitHub pull request search syntax\\\"\\n    },\\n    \\\"repo\\\": {\\n      \\\"type\\\": \\\"string\\\",\\n      \\\"description\\\": \\\"Optional repository name. If provided with owner, only pull requests for this repository are listed.\\\"\\n    },\\n    \\\"sort\\\": {\\n      \\\"type\\\": \\\"string\\\",\\n      \\\"description\\\": \\\"Sort field by number of matches of categories, defaults to best match\\\",\\n      \\\"enum\\\": [\\n        \\\"comments\\\",\\n        \\\"reactions\\\",\\n        \\\"reactions-+1\\\",\\n        \\\"reactions--1\\\",\\n        \\\"reactions-smile\\\",\\n        \\\"reactions-thinking_face\\\",\\n        \\\"reactions-heart\\\",\\n        \\\"reactions-tada\\\",\\n        \\\"interactions\\\",\\n        \\\"created\\\",\\n        \\\"updated\\\"\\n      ]\\n    }\\n  },\\n  \\\"required\\\": [\\n    \\\"query\\\"\\n  ]\\n}\"}","structuredContent":{"result":"<tool>search_pull_requests(order, owner, page, perPage, query, repo, sort): Search for pull requests in GitHub repositories using issues search syntax already scoped to is:pr</tool>\n\n{\n  \"type\": \"object\",\n  \"properties\": {\n    \"order\": {\n      \"type\": \"string\",\n      \"description\": \"Sort order\",\n      \"enum\": [\n        \"asc\",\n        \"desc\"\n      ]\n    },\n    \"owner\": {\n      \"type\": \"string\",\n      \"description\": \"Optional repository owner. If provided with repo, only pull requests for this repository are listed.\"\n    },\n    \"page\": {\n      \"type\": \"number\",\n      \"description\": \"Page number for pagination (min 1)\",\n      \"minimum\": 1\n    },\n    \"perPage\": {\n      \"type\": \"number\",\n      \"description\": \"Results per page for pagination (min 1, max 100)\",\n      \"minimum\": 1,\n      \"maximum\": 100\n    },\n    \"query\": {\n      \"type\": \"string\",\n      \"description\": \"Search query using GitHub pull request search syntax\"\n    },\n    \"repo\": {\n      \"type\": \"string\",\n      \"description\": \"Optional repository name. If provided with owner, only pull requests for this repository are listed.\"\n    },\n    \"sort\": {\n      \"type\": \"string\",\n      \"description\": \"Sort field by number of matches of categories, defaults to best match\",\n      \"enum\": [\n        \"comments\",\n        \"reactions\",\n        \"reactions-+1\",\n        \"reactions--1\",\n        \"reactions-smile\",\n        \"reactions-thinking_face\",\n        \"reactions-heart\",\n        \"reactions-tada\",\n        \"interactions\",\n        \"created\",\n        \"updated\"\n      ]\n    }\n  },\n  \"required\": [\n    \"query\"\n  ]\n}"}}}
{"type":"assistant","message":{"model":"claude-sonnet-4-6","id":"msg_014BtenYR1haw3mSgb6mARua","type":"message","role":"assistant","content":[{"type":"tool_use","id":"toolu_015GPTQVhhiQ4hXG3BCgeoEi","name":"mcp__compressed-github__github_invoke_tool","input":{"tool_name":"search_pull_requests","tool_input":{"query":"repo:openclaw/openclaw is:open is:pr 53537"}},"caller":{"type":"direct"}}],"stop_reason":null,"stop_sequence":null,"usage":{"input_tokens":1,"cache_creation_input_tokens":712,"cache_read_input_tokens":34353,"cache_creation":{"ephemeral_5m_input_tokens":0,"ephemeral_1h_input_tokens":712},"output_tokens":68,"service_tier":"standard","inference_geo":"not_available"},"context_management":null},"parent_tool_use_id":null,"session_id":"f1ae888b-5b88-4228-b94d-f81577b2dd79","uuid":"d220387e-99a8-4e2b-bbc1-a9ce374af290"}
{"type":"user","message":{"role":"user","content":[{"tool_use_id":"toolu_015GPTQVhhiQ4hXG3BCgeoEi","type":"tool_result","content":[{"type":"text","text":"{\"total_count\":0,\"incomplete_results\":false}"}]}]},"parent_tool_use_id":null,"session_id":"f1ae888b-5b88-4228-b94d-f81577b2dd79","uuid":"1f3c3db4-36f3-4445-aecd-d83e7d6b4ca4","timestamp":"2026-03-24T08:18:47.683Z","tool_use_result":[{"type":"text","text":"{\"total_count\":0,\"incomplete_results\":false}"}]}
{"type":"assistant","message":{"model":"claude-sonnet-4-6","id":"msg_01Rn8e3CFVWvQnEU6joyCihE","type":"message","role":"assistant","content":[{"type":"text","text":"**Most recent open bug issue:** [#53537 — \"[Bug]: Gemini 2.5 Pro thinking content loops infinitely on model switch\"](https://github.com/openclaw/openclaw/issues/53537)\n\n- **Filed:** 2026-03-24 by `mattyou`\n- **Description:** When switching from `github-copilot/gemini-2.5-pro` to another model, the thinking/reasoning content repeats 40+ times until OpenClaw aborts the run.\n\n**Fix in progress:** No — a search for open PRs referencing issue #53537 returned no results. No fix appears to be in progress yet."}],"stop_reason":null,"stop_sequence":null,"usage":{"input_tokens":1,"cache_creation_input_tokens":131,"cache_read_input_tokens":35065,"cache_creation":{"ephemeral_5m_input_tokens":0,"ephemeral_1h_input_tokens":131},"output_tokens":1,"service_tier":"standard","inference_geo":"not_available"},"context_management":null},"parent_tool_use_id":null,"session_id":"f1ae888b-5b88-4228-b94d-f81577b2dd79","uuid":"d452d00a-76f0-429c-be96-3ba117582f61"}
{"type":"result","subtype":"success","is_error":false,"duration_ms":22432,"duration_api_ms":17362,"num_turns":5,"result":"**Most recent open bug issue:** [#53537 — \"[Bug]: Gemini 2.5 Pro thinking content loops infinitely on model switch\"](https://github.com/openclaw/openclaw/issues/53537)\n\n- **Filed:** 2026-03-24 by `mattyou`\n- **Description:** When switching from `github-copilot/gemini-2.5-pro` to another model, the thinking/reasoning content repeats 40+ times until OpenClaw aborts the run.\n\n**Fix in progress:** No — a search for open PRs referencing issue #53537 returned no results. No fix appears to be in progress yet.","stop_reason":"end_turn","session_id":"f1ae888b-5b88-4228-b94d-f81577b2dd79","total_cost_usd":0.09312944999999999,"usage":{"input_tokens":7,"cache_creation_input_tokens":9287,"cache_read_input_tokens":161624,"output_tokens":653,"server_tool_use":{"web_search_requests":0,"web_fetch_requests":0},"service_tier":"standard","cache_creation":{"ephemeral_1h_input_tokens":9287,"ephemeral_5m_input_tokens":0},"inference_geo":"","iterations":[],"speed":"standard"},"modelUsage":{"claude-sonnet-4-6":{"inputTokens":7,"outputTokens":653,"cacheReadInputTokens":161624,"cacheCreationInputTokens":9287,"webSearchRequests":0,"costUSD":0.09312944999999999,"contextWindow":200000,"maxOutputTokens":32000}},"permission_denials":[],"fast_mode_state":"off","uuid":"51e24631-92d7-4e54-ad11-d123e12489ba"}
