{"type":"system","subtype":"init","cwd":"./bench/results/mcp-no-toolsearch/issue_then_comments/run3/workspace","session_id":"f4d46466-1d2e-4efe-90c1-b4b4ec40d36b","tools":["Task","TaskOutput","Bash","Glob","Grep","ExitPlanMode","Read","Edit","Write","NotebookEdit","WebFetch","TodoWrite","WebSearch","TaskStop","AskUserQuestion","Skill","EnterPlanMode","EnterWorktree","ExitWorktree","CronCreate","CronDelete","CronList","mcp__chrome-devtools__click","mcp__chrome-devtools__close_page","mcp__chrome-devtools__drag","mcp__chrome-devtools__emulate","mcp__chrome-devtools__evaluate_script","mcp__chrome-devtools__fill","mcp__chrome-devtools__fill_form","mcp__chrome-devtools__get_console_message","mcp__chrome-devtools__get_network_request","mcp__chrome-devtools__handle_dialog","mcp__chrome-devtools__hover","mcp__chrome-devtools__lighthouse_audit","mcp__chrome-devtools__list_console_messages","mcp__chrome-devtools__list_network_requests","mcp__chrome-devtools__list_pages","mcp__chrome-devtools__navigate_page","mcp__chrome-devtools__new_page","mcp__chrome-devtools__performance_analyze_insight","mcp__chrome-devtools__performance_start_trace","mcp__chrome-devtools__performance_stop_trace","mcp__chrome-devtools__press_key","mcp__chrome-devtools__resize_page","mcp__chrome-devtools__select_page","mcp__chrome-devtools__take_memory_snapshot","mcp__chrome-devtools__take_screenshot","mcp__chrome-devtools__take_snapshot","mcp__chrome-devtools__type_text","mcp__chrome-devtools__upload_file","mcp__chrome-devtools__wait_for","mcp__github__add_comment_to_pending_review","mcp__github__add_issue_comment","mcp__github__add_reply_to_pull_request_comment","mcp__github__assign_copilot_to_issue","mcp__github__create_branch","mcp__github__create_or_update_file","mcp__github__create_pull_request","mcp__github__create_pull_request_with_copilot","mcp__github__create_repository","mcp__github__delete_file","mcp__github__fork_repository","mcp__github__get_commit","mcp__github__get_copilot_job_status","mcp__github__get_file_contents","mcp__github__get_label","mcp__github__get_latest_release","mcp__github__get_me","mcp__github__get_release_by_tag","mcp__github__get_tag","mcp__github__get_team_members","mcp__github__get_teams","mcp__github__issue_read","mcp__github__issue_write","mcp__github__list_branches","mcp__github__list_commits","mcp__github__list_issue_types","mcp__github__list_issues","mcp__github__list_pull_requests","mcp__github__list_releases","mcp__github__list_tags","mcp__github__merge_pull_request","mcp__github__pull_request_read","mcp__github__pull_request_review_write","mcp__github__push_files","mcp__github__request_copilot_review","mcp__github__run_secret_scanning","mcp__github__search_code","mcp__github__search_issues","mcp__github__search_pull_requests","mcp__github__search_repositories","mcp__github__search_users","mcp__github__sub_issue_write","mcp__github__update_pull_request","mcp__github__update_pull_request_branch","ListMcpResourcesTool","ReadMcpResourceTool","LSP"],"mcp_servers":[{"name":"chrome-devtools","status":"connected"},{"name":"github","status":"connected"},{"name":"claude.ai Google Calendar","status":"needs-auth"},{"name":"claude.ai Gmail","status":"needs-auth"}],"model":"claude-sonnet-4-6","permissionMode":"bypassPermissions","slash_commands":["update-config","debug","simplify","batch","loop","claude-api","test-driven-development","app-installer","release-notify-issues","cli-demo-recorder","readme-generator","compact","context","cost","heapdump","init","pr-comments","release-notes","review","security-review","extra-usage","insights","mcp__github__AssignCodingAgent","mcp__github__issue_to_fix_workflow"],"apiKeySource":"none","claude_code_version":"2.1.77","output_style":"default","agents":["general-purpose","statusline-setup","Explore","Plan","claude-code-guide"],"skills":["update-config","debug","simplify","batch","loop","claude-api","test-driven-development","app-installer","release-notify-issues","cli-demo-recorder","readme-generator"],"plugins":[{"name":"rust-analyzer-lsp","path":"~/.claude/plugins/rust-analyzer-lsp/1.0.0"}],"uuid":"6de5fea8-992e-4ae4-868d-2cc0754bb81b","fast_mode_state":"off"}
{"type":"assistant","message":{"model":"claude-sonnet-4-6","id":"msg_01JSYz2g9ypLkieYRCfXgmk6","type":"message","role":"assistant","content":[{"type":"thinking","thinking":"Let me find the most recent open issue with the \"bug\" label in openclaw/openclaw, then view its comments.","signature":"EpECCkYICxgCKkCSnsFXrwch15W2pxbWNlpLoT3r+a4KMUOL+u1u+QVpjqcku1ePvy/NeANIBpf/lB6L0g9/YoFyX3klwIfUTboEEgxgcm8cA/1TXaVRcxsaDBpzik600bNHXjgOayIwIJmhdGonf0Sf0vWIBRiU27b0B36ylA14F9zdZ4VPXSF/MXwGd7B4GRwk5EBEdwskKnkM/JxExOkFdMgV13xGvnTui2deYhaROTM2jVXuP/gQMM7GbOqPwXMxFB2LLLSFKXqLVwu6BEMKa3AeSU/wkp3NzZD6R8aVO18pSPGD+Sewf28kOXyRlF/GNaykR0nn7v4Za1Jqr146EZTqdg4Q0cm+ezQk6IBfPISoGAE="}],"stop_reason":null,"stop_sequence":null,"usage":{"input_tokens":3,"cache_creation_input_tokens":0,"cache_read_input_tokens":41537,"cache_creation":{"ephemeral_5m_input_tokens":0,"ephemeral_1h_input_tokens":0},"output_tokens":1,"service_tier":"standard","inference_geo":"not_available"},"context_management":null},"parent_tool_use_id":null,"session_id":"f4d46466-1d2e-4efe-90c1-b4b4ec40d36b","uuid":"a8b09e7b-fd3c-443b-b02f-e6a505b31004"}
{"type":"assistant","message":{"model":"claude-sonnet-4-6","id":"msg_01JSYz2g9ypLkieYRCfXgmk6","type":"message","role":"assistant","content":[{"type":"tool_use","id":"toolu_01EhX5FXYkkqH8oaMm7FBYTC","name":"mcp__github__list_issues","input":{"owner":"openclaw","repo":"openclaw","state":"OPEN","labels":["bug"],"orderBy":"CREATED_AT","direction":"DESC","perPage":1},"caller":{"type":"direct"}}],"stop_reason":null,"stop_sequence":null,"usage":{"input_tokens":3,"cache_creation_input_tokens":0,"cache_read_input_tokens":41537,"cache_creation":{"ephemeral_5m_input_tokens":0,"ephemeral_1h_input_tokens":0},"output_tokens":1,"service_tier":"standard","inference_geo":"not_available"},"context_management":null},"parent_tool_use_id":null,"session_id":"f4d46466-1d2e-4efe-90c1-b4b4ec40d36b","uuid":"5d37e137-baf4-43e7-802d-368324b85ba2"}
{"type":"rate_limit_event","rate_limit_info":{"status":"allowed","resetsAt":1774126800,"rateLimitType":"five_hour","overageStatus":"rejected","overageDisabledReason":"org_level_disabled","isUsingOverage":false},"uuid":"0f4669b5-5c40-450e-85c5-15d96ef82661","session_id":"f4d46466-1d2e-4efe-90c1-b4b4ec40d36b"}
{"type":"user","message":{"role":"user","content":[{"tool_use_id":"toolu_01EhX5FXYkkqH8oaMm7FBYTC","type":"tool_result","content":[{"type":"text","text":"{\"issues\":[{\"number\":51810,\"title\":\"[Bug]: Doctor/update fails when Telegram bot token uses file-based SecretRef (2026.3 regression)\",\"body\":\"### Bug type\\n\\nRegression (worked before, now fails)\\n\\n### Summary\\n\\n\\n### Summary\\nOn macOS, after updating to OpenClaw 2026.3.13, `openclaw update` and `openclaw doctor` now fail whenever `channels.telegram.botToken` is stored via a file-based SecretRef (`file:filemain:/channels/telegram/botToken`). The gateway itself works, but the stricter post-update doctor can’t resolve the SecretRef outside the live gateway runtime, so Control UI + CLI runs all error out.\\n\\n### Environment\\n- macOS (local install)\\n- OpenClaw 2026.3.13 (61d171a)\\n- Telegram bot token stored in `~/.openclaw/secrets.json` via:\\n```json\\n\\u0026#34;channels\\u0026#34;: {\\n\\u0026#34;telegram\\u0026#34;: {\\n\\u0026#34;botToken\\u0026#34;: {\\n\\u0026#34;source\\u0026#34;: \\u0026#34;file\\u0026#34;,\\n\\u0026#34;provider\\u0026#34;: \\u0026#34;filemain\\u0026#34;,\\n\\u0026#34;id\\u0026#34;: \\u0026#34;/channels/telegram/botToken\\u0026#34;\\n}\\n}\\n}\\n\\nActual Behavior\\n\\nDoctor/update abort with the unresolved SecretRef error. Control UI “Update” button also fails at the doctor stage and reports the same error.\\n\\nWorkaround\\n\\nWrap maintenance commands in a helper script that temporarily inlines the Telegram token, runs the command, then restores the SecretRef:\\n~/.openclaw/scripts/openclaw_safe.sh update\\n~/.openclaw/scripts/openclaw_safe.sh doctor\\nInside the script we read the token from ~/.openclaw/secrets.json, set it inline in openclaw.json, run openclaw …, then write the SecretRef back. It works but defeats the purpose of keeping secrets file-only.\\n\\nRequest\\n\\nPlease add support for file-based SecretRefs in the doctor/update flows (or skip that check) so installations that keep their Telegram token in secrets.json can run maintenance without exposing the token.\\n\\n### Steps to reproduce\\n\\nSteps to Reproduce\\n\\n1. Configure Telegram bot token as a file-based SecretRef (provider filemain, path ~/.openclaw/secrets.json).\\n2. Run openclaw update (or openclaw doctor) from CLI or Control UI.\\n3. Post-update doctor step fails with:\\nchannels.telegram.botToken: unresolved SecretRef \\u0026#34;file:filemain:/channels/telegram/botToken\\u0026#34;.\\nResolve this command against an active gateway runtime snapshot before reading it.\\n\\n\\n### Expected behavior\\n\\nExpected Behavior\\n\\nDoctor/update should succeed (resolving file-based secrets the same way the gateway does), so we don’t have to inline the Telegram token.\\n\\n\\n### Actual behavior\\n\\nActual Behavior\\n\\nDoctor/update abort with the unresolved SecretRef error. Control UI “Update” button also fails at the doctor stage and reports the same error.\\n\\n### OpenClaw version\\n\\n2026.3.13\\n\\n### Operating system\\n\\nmacOS 26.3 (build 25D125)\\n\\n### Install method\\n\\n_No response_\\n\\n### Model\\n\\nModel stack is the default OpenClaw agent setup: primary openai-codex/gpt-5.2 with fallbacks openai/gpt-5.1-codex and anthropic/claude-sonnet-4-6\\n\\n### Provider / routing chain\\n\\npenclaw update/doctor runs via the OpenClaw CLI → local gateway service on this Mac (127.0.0.1:18789). No external proxy/model router is involved for this step—the failure happens before any provider call (it’s the post-update doctor reading config/secrets)\\n\\n### Additional provider/model setup details\\n\\n• Telegram bot token is stored via secrets.providers.filemain pointing at ~/.openclaw/secrets.json with mode: json. channels.telegram.botToken references it via { \\u0026#34;source\\u0026#34;: \\u0026#34;file\\u0026#34;, \\u0026#34;provider\\u0026#34;: \\u0026#34;filemain\\u0026#34;, \\u0026#34;id\\u0026#34;: \\u0026#34;/channels/telegram/botToken\\u0026#34; }.\\n• Secrets defaults still prefer the file provider; we intentionally do not inline the token or place it in ~/.openclaw/.env for security.\\n• Gateway runs locally as a LaunchAgent (~/Library/LaunchAgents/ai.openclaw.gateway.plist, port 18789).\\n• The issue reproduces whether commands are launched from Control UI or directly via openclaw update/openclaw doctor in Terminal.\\n• Workaround script temporarily writes the token inline before invoking the command, then restores the SecretRef afterward. Without that inline swap, the doctor refuses to run.\\n\\nNo additional providers or per-agent overrides are involved.\\n\\n### Logs, screenshots, and evidence\\n\\n```\\n\\n```\\n\\n### Impact and severity\\n\\n_No response_\\n\\n### Additional information\\n\\n_No response_\",\"state\":\"OPEN\",\"user\":{\"login\":\"Manet147-cl\"},\"labels\":[\"bug\",\"regression\"],\"comments\":1,\"created_at\":\"2026-03-21T18:32:21Z\",\"updated_at\":\"2026-03-21T18:37:35Z\"}],\"totalCount\":1956,\"pageInfo\":{\"hasNextPage\":true,\"hasPreviousPage\":false,\"startCursor\":\"Y3Vyc29yOnYyOpK5MjAyNi0wMy0yMVQxMTozMjoyMS0wNzowMM71LBpY\",\"endCursor\":\"Y3Vyc29yOnYyOpK5MjAyNi0wMy0yMVQxMTozMjoyMS0wNzowMM71LBpY\"}}"}]}]},"parent_tool_use_id":null,"session_id":"f4d46466-1d2e-4efe-90c1-b4b4ec40d36b","uuid":"60c208e9-ecf2-4242-bf74-9ec384f87890","timestamp":"2026-03-21T18:39:24.689Z","tool_use_result":[{"type":"text","text":"{\"issues\":[{\"number\":51810,\"title\":\"[Bug]: Doctor/update fails when Telegram bot token uses file-based SecretRef (2026.3 regression)\",\"body\":\"### Bug type\\n\\nRegression (worked before, now fails)\\n\\n### Summary\\n\\n\\n### Summary\\nOn macOS, after updating to OpenClaw 2026.3.13, `openclaw update` and `openclaw doctor` now fail whenever `channels.telegram.botToken` is stored via a file-based SecretRef (`file:filemain:/channels/telegram/botToken`). The gateway itself works, but the stricter post-update doctor can’t resolve the SecretRef outside the live gateway runtime, so Control UI + CLI runs all error out.\\n\\n### Environment\\n- macOS (local install)\\n- OpenClaw 2026.3.13 (61d171a)\\n- Telegram bot token stored in `~/.openclaw/secrets.json` via:\\n```json\\n\\u0026#34;channels\\u0026#34;: {\\n\\u0026#34;telegram\\u0026#34;: {\\n\\u0026#34;botToken\\u0026#34;: {\\n\\u0026#34;source\\u0026#34;: \\u0026#34;file\\u0026#34;,\\n\\u0026#34;provider\\u0026#34;: \\u0026#34;filemain\\u0026#34;,\\n\\u0026#34;id\\u0026#34;: \\u0026#34;/channels/telegram/botToken\\u0026#34;\\n}\\n}\\n}\\n\\nActual Behavior\\n\\nDoctor/update abort with the unresolved SecretRef error. Control UI “Update” button also fails at the doctor stage and reports the same error.\\n\\nWorkaround\\n\\nWrap maintenance commands in a helper script that temporarily inlines the Telegram token, runs the command, then restores the SecretRef:\\n~/.openclaw/scripts/openclaw_safe.sh update\\n~/.openclaw/scripts/openclaw_safe.sh doctor\\nInside the script we read the token from ~/.openclaw/secrets.json, set it inline in openclaw.json, run openclaw …, then write the SecretRef back. It works but defeats the purpose of keeping secrets file-only.\\n\\nRequest\\n\\nPlease add support for file-based SecretRefs in the doctor/update flows (or skip that check) so installations that keep their Telegram token in secrets.json can run maintenance without exposing the token.\\n\\n### Steps to reproduce\\n\\nSteps to Reproduce\\n\\n1. Configure Telegram bot token as a file-based SecretRef (provider filemain, path ~/.openclaw/secrets.json).\\n2. Run openclaw update (or openclaw doctor) from CLI or Control UI.\\n3. Post-update doctor step fails with:\\nchannels.telegram.botToken: unresolved SecretRef \\u0026#34;file:filemain:/channels/telegram/botToken\\u0026#34;.\\nResolve this command against an active gateway runtime snapshot before reading it.\\n\\n\\n### Expected behavior\\n\\nExpected Behavior\\n\\nDoctor/update should succeed (resolving file-based secrets the same way the gateway does), so we don’t have to inline the Telegram token.\\n\\n\\n### Actual behavior\\n\\nActual Behavior\\n\\nDoctor/update abort with the unresolved SecretRef error. Control UI “Update” button also fails at the doctor stage and reports the same error.\\n\\n### OpenClaw version\\n\\n2026.3.13\\n\\n### Operating system\\n\\nmacOS 26.3 (build 25D125)\\n\\n### Install method\\n\\n_No response_\\n\\n### Model\\n\\nModel stack is the default OpenClaw agent setup: primary openai-codex/gpt-5.2 with fallbacks openai/gpt-5.1-codex and anthropic/claude-sonnet-4-6\\n\\n### Provider / routing chain\\n\\npenclaw update/doctor runs via the OpenClaw CLI → local gateway service on this Mac (127.0.0.1:18789). No external proxy/model router is involved for this step—the failure happens before any provider call (it’s the post-update doctor reading config/secrets)\\n\\n### Additional provider/model setup details\\n\\n• Telegram bot token is stored via secrets.providers.filemain pointing at ~/.openclaw/secrets.json with mode: json. channels.telegram.botToken references it via { \\u0026#34;source\\u0026#34;: \\u0026#34;file\\u0026#34;, \\u0026#34;provider\\u0026#34;: \\u0026#34;filemain\\u0026#34;, \\u0026#34;id\\u0026#34;: \\u0026#34;/channels/telegram/botToken\\u0026#34; }.\\n• Secrets defaults still prefer the file provider; we intentionally do not inline the token or place it in ~/.openclaw/.env for security.\\n• Gateway runs locally as a LaunchAgent (~/Library/LaunchAgents/ai.openclaw.gateway.plist, port 18789).\\n• The issue reproduces whether commands are launched from Control UI or directly via openclaw update/openclaw doctor in Terminal.\\n• Workaround script temporarily writes the token inline before invoking the command, then restores the SecretRef afterward. Without that inline swap, the doctor refuses to run.\\n\\nNo additional providers or per-agent overrides are involved.\\n\\n### Logs, screenshots, and evidence\\n\\n```\\n\\n```\\n\\n### Impact and severity\\n\\n_No response_\\n\\n### Additional information\\n\\n_No response_\",\"state\":\"OPEN\",\"user\":{\"login\":\"Manet147-cl\"},\"labels\":[\"bug\",\"regression\"],\"comments\":1,\"created_at\":\"2026-03-21T18:32:21Z\",\"updated_at\":\"2026-03-21T18:37:35Z\"}],\"totalCount\":1956,\"pageInfo\":{\"hasNextPage\":true,\"hasPreviousPage\":false,\"startCursor\":\"Y3Vyc29yOnYyOpK5MjAyNi0wMy0yMVQxMTozMjoyMS0wNzowMM71LBpY\",\"endCursor\":\"Y3Vyc29yOnYyOpK5MjAyNi0wMy0yMVQxMTozMjoyMS0wNzowMM71LBpY\"}}"}]}
{"type":"assistant","message":{"model":"claude-sonnet-4-6","id":"msg_01MWvpEowoSnNHgd8MvKgLHr","type":"message","role":"assistant","content":[{"type":"tool_use","id":"toolu_01PkYWwRFiXdze7k9nZoJZ8h","name":"mcp__github__issue_read","input":{"method":"get_comments","owner":"openclaw","repo":"openclaw","issue_number":51810},"caller":{"type":"direct"}}],"stop_reason":null,"stop_sequence":null,"usage":{"input_tokens":1,"cache_creation_input_tokens":1844,"cache_read_input_tokens":41537,"cache_creation":{"ephemeral_5m_input_tokens":0,"ephemeral_1h_input_tokens":1844},"output_tokens":32,"service_tier":"standard","inference_geo":"not_available"},"context_management":null},"parent_tool_use_id":null,"session_id":"f4d46466-1d2e-4efe-90c1-b4b4ec40d36b","uuid":"e5ea47c4-bc13-4e25-9f78-86ae13eeb1c9"}
{"type":"user","message":{"role":"user","content":[{"tool_use_id":"toolu_01PkYWwRFiXdze7k9nZoJZ8h","type":"tool_result","content":[{"type":"text","text":"[{\"id\":4103932536,\"body\":\"## KeepMyClaw angle\\n\\nFile-based SecretRef works at the Gateway level but fails during Doctor/update validation — two subsystems disagree on whether the token is accessible. This is a classic boundary-encoding state-divergence: the token loads at runtime but fails the static validation path.\\n\\n**For managed hosting users:** if a SecretRef is configured correctly at the Gateway but fails health checks, the system may report healthy while the actual token resolution silently fails in specific code paths.\\n\\n**KeepMyClaw snapshot** captures the full runtime context including resolved SecretRef values at the point of execution. When Doctor reports one state and the Gateway operates in another, the snapshot provides the authoritative record of what the Gateway actually saw — independent of either subsystem's self-reported status.\\n\\nThis class of bug (file-based secret resolves at runtime but fails static checks) is exactly where cross-subsystem state disagreement becomes invisible until it causes a production failure.\\n\\n---\\n*Comment from KeepMyClaw operator — encrypted backup for OpenClaw agents. see keepmyclaw.com if you need durable context verification.*\",\"html_url\":\"https://github.com/openclaw/openclaw/issues/51810#issuecomment-4103932536\",\"user\":{\"login\":\"Ryce\",\"id\":7098796,\"profile_url\":\"https://github.com/Ryce\",\"avatar_url\":\"https://avatars.githubusercontent.com/u/7098796?v=4\"},\"author_association\":\"NONE\",\"reactions\":{\"total_count\":0,\"+1\":0,\"-1\":0,\"laugh\":0,\"confused\":0,\"heart\":0,\"hooray\":0,\"rocket\":0,\"eyes\":0},\"created_at\":\"2026-03-21T18:37:35Z\",\"updated_at\":\"2026-03-21T18:37:35Z\"}]"}]}]},"parent_tool_use_id":null,"session_id":"f4d46466-1d2e-4efe-90c1-b4b4ec40d36b","uuid":"eb3ce568-34b1-4992-a85d-3051d9e36768","timestamp":"2026-03-21T18:39:27.782Z","tool_use_result":[{"type":"text","text":"[{\"id\":4103932536,\"body\":\"## KeepMyClaw angle\\n\\nFile-based SecretRef works at the Gateway level but fails during Doctor/update validation — two subsystems disagree on whether the token is accessible. This is a classic boundary-encoding state-divergence: the token loads at runtime but fails the static validation path.\\n\\n**For managed hosting users:** if a SecretRef is configured correctly at the Gateway but fails health checks, the system may report healthy while the actual token resolution silently fails in specific code paths.\\n\\n**KeepMyClaw snapshot** captures the full runtime context including resolved SecretRef values at the point of execution. When Doctor reports one state and the Gateway operates in another, the snapshot provides the authoritative record of what the Gateway actually saw — independent of either subsystem's self-reported status.\\n\\nThis class of bug (file-based secret resolves at runtime but fails static checks) is exactly where cross-subsystem state disagreement becomes invisible until it causes a production failure.\\n\\n---\\n*Comment from KeepMyClaw operator — encrypted backup for OpenClaw agents. see keepmyclaw.com if you need durable context verification.*\",\"html_url\":\"https://github.com/openclaw/openclaw/issues/51810#issuecomment-4103932536\",\"user\":{\"login\":\"Ryce\",\"id\":7098796,\"profile_url\":\"https://github.com/Ryce\",\"avatar_url\":\"https://avatars.githubusercontent.com/u/7098796?v=4\"},\"author_association\":\"NONE\",\"reactions\":{\"total_count\":0,\"+1\":0,\"-1\":0,\"laugh\":0,\"confused\":0,\"heart\":0,\"hooray\":0,\"rocket\":0,\"eyes\":0},\"created_at\":\"2026-03-21T18:37:35Z\",\"updated_at\":\"2026-03-21T18:37:35Z\"}]"}]}
{"type":"assistant","message":{"model":"claude-sonnet-4-6","id":"msg_014N7c2tMx5yYurizJTP2fBr","type":"message","role":"assistant","content":[{"type":"text","text":"The most recent open bug issue is **#51810** — *\"[Bug]: Doctor/update fails when Telegram bot token uses file-based SecretRef (2026.3 regression)\"*, opened by **Manet147-cl** on 2026-03-21.\n\nThe issue has 1 comment, and the last (and only) commenter is **Ryce**, who posted at 2026-03-21T18:37:35Z. Their comment discusses the issue from a \"KeepMyClaw\" operator perspective, noting it as a cross-subsystem state divergence where the file-based SecretRef resolves at runtime but fails static validation."}],"stop_reason":null,"stop_sequence":null,"usage":{"input_tokens":1,"cache_creation_input_tokens":568,"cache_read_input_tokens":43381,"cache_creation":{"ephemeral_5m_input_tokens":0,"ephemeral_1h_input_tokens":568},"output_tokens":1,"service_tier":"standard","inference_geo":"not_available"},"context_management":null},"parent_tool_use_id":null,"session_id":"f4d46466-1d2e-4efe-90c1-b4b4ec40d36b","uuid":"8c411b23-2f4e-49e6-be8d-617711cd65bd"}
{"type":"result","subtype":"success","is_error":false,"duration_ms":11121,"duration_api_ms":10255,"num_turns":3,"result":"The most recent open bug issue is **#51810** — *\"[Bug]: Doctor/update fails when Telegram bot token uses file-based SecretRef (2026.3 regression)\"*, opened by **Manet147-cl** on 2026-03-21.\n\nThe issue has 1 comment, and the last (and only) commenter is **Ryce**, who posted at 2026-03-21T18:37:35Z. Their comment discusses the issue from a \"KeepMyClaw\" operator perspective, noting it as a cross-subsystem state divergence where the file-based SecretRef resolves at runtime but fails static validation.","stop_reason":"end_turn","session_id":"f4d46466-1d2e-4efe-90c1-b4b4ec40d36b","total_cost_usd":0.0541965,"usage":{"input_tokens":5,"cache_creation_input_tokens":2412,"cache_read_input_tokens":126455,"output_tokens":480,"server_tool_use":{"web_search_requests":0,"web_fetch_requests":0},"service_tier":"standard","cache_creation":{"ephemeral_1h_input_tokens":2412,"ephemeral_5m_input_tokens":0},"inference_geo":"","iterations":[],"speed":"standard"},"modelUsage":{"claude-sonnet-4-6":{"inputTokens":5,"outputTokens":480,"cacheReadInputTokens":126455,"cacheCreationInputTokens":2412,"webSearchRequests":0,"costUSD":0.0541965,"contextWindow":200000,"maxOutputTokens":32000}},"permission_denials":[],"fast_mode_state":"off","uuid":"c3b4885c-1138-4436-a324-9b66b8c95cba"}
