{"type":"system","subtype":"init","cwd":"/Users/kunchen/.treehouse/axi-8d75ad/1/axi/bench/results/mcp-compressed-high/find_fix_for_bug/run1/workspace","session_id":"620b862c-7a13-4e93-9393-29ed00e2daad","tools":["Task","TaskOutput","Bash","Glob","Grep","ExitPlanMode","Read","Edit","Write","NotebookEdit","WebFetch","TodoWrite","WebSearch","TaskStop","AskUserQuestion","Skill","EnterPlanMode","EnterWorktree","ExitWorktree","CronCreate","CronDelete","CronList","mcp__chrome-devtools__click","mcp__chrome-devtools__close_page","mcp__chrome-devtools__drag","mcp__chrome-devtools__emulate","mcp__chrome-devtools__evaluate_script","mcp__chrome-devtools__fill","mcp__chrome-devtools__fill_form","mcp__chrome-devtools__get_console_message","mcp__chrome-devtools__get_network_request","mcp__chrome-devtools__handle_dialog","mcp__chrome-devtools__hover","mcp__chrome-devtools__lighthouse_audit","mcp__chrome-devtools__list_console_messages","mcp__chrome-devtools__list_network_requests","mcp__chrome-devtools__list_pages","mcp__chrome-devtools__navigate_page","mcp__chrome-devtools__new_page","mcp__chrome-devtools__performance_analyze_insight","mcp__chrome-devtools__performance_start_trace","mcp__chrome-devtools__performance_stop_trace","mcp__chrome-devtools__press_key","mcp__chrome-devtools__resize_page","mcp__chrome-devtools__select_page","mcp__chrome-devtools__take_memory_snapshot","mcp__chrome-devtools__take_screenshot","mcp__chrome-devtools__take_snapshot","mcp__chrome-devtools__type_text","mcp__chrome-devtools__upload_file","mcp__chrome-devtools__wait_for","mcp__compressed-github__github_get_tool_schema","mcp__compressed-github__github_invoke_tool","ListMcpResourcesTool","ReadMcpResourceTool","LSP"],"mcp_servers":[{"name":"chrome-devtools","status":"connected"},{"name":"compressed-github","status":"connected"},{"name":"claude.ai Google Calendar","status":"needs-auth"},{"name":"claude.ai Gmail","status":"needs-auth"}],"model":"claude-sonnet-4-6","permissionMode":"bypassPermissions","slash_commands":["update-config","debug","simplify","batch","loop","claude-api","test-driven-development","axi","compact","context","cost","heapdump","init","pr-comments","release-notes","review","security-review","extra-usage","insights","mcp__compressed-github__AssignCodingAgent","mcp__compressed-github__issue_to_fix_workflow"],"apiKeySource":"none","claude_code_version":"2.1.77","output_style":"default","agents":["general-purpose","statusline-setup","Explore","Plan","claude-code-guide"],"skills":["update-config","debug","simplify","batch","loop","claude-api","test-driven-development","axi"],"plugins":[{"name":"rust-analyzer-lsp","path":"/Users/kunchen/.claude/plugins/cache/claude-plugins-official/rust-analyzer-lsp/1.0.0"}],"uuid":"69bdc03a-3086-4a88-96d4-d0ba95b28ca2","fast_mode_state":"off"}
{"type":"assistant","message":{"model":"claude-sonnet-4-6","id":"msg_01SDM3UEwGQGLU9k6vHEc1VP","type":"message","role":"assistant","content":[{"type":"thinking","thinking":"Let me find the most recent open issue labeled 'bug' in openclaw/openclaw, then check for open PRs that reference that issue number.","signature":"Eq0CCkYIDBgCKkAwm9wv9SUzlbN8tMBgrN5zfZ4tZxL4uAjTW/nA7vDy2obe54vIhLrVoPQueAst9WIUobmClD//BO4CWWcwsV+sEgx3Z5th42N480zDKzoaDCysSeH9rbPSgUfdQyIwN3UT5SM+M9ciPYVuVeIqxUo+zNbTVsMxx8vT3OFJoW2qlHx1MupSaFLZZaTZShlmKpQBiuMqNZOhb4edJRkC0cHlp1FxphDduuIV6ZupRE808v799XeFBvvwZHl+NdvwwuiKJA9ZwOnwgj9Foeyla5Mg2Y2RkM1jBVQ5/ADrL4geOv7IS8oQ0vn3DG/9b4uFDGyofVp0y1jPYX0lPHqpB6Q7NVjm/78Ess5SErYXJRYBZkmW2Koibf2lnp1tAHxxjBOxLoroRhgB"}],"stop_reason":null,"stop_sequence":null,"usage":{"input_tokens":3,"cache_creation_input_tokens":6849,"cache_read_input_tokens":25909,"cache_creation":{"ephemeral_5m_input_tokens":0,"ephemeral_1h_input_tokens":6849},"output_tokens":1,"service_tier":"standard","inference_geo":"not_available"},"context_management":null},"parent_tool_use_id":null,"session_id":"620b862c-7a13-4e93-9393-29ed00e2daad","uuid":"9924ccf0-45c8-44f9-b484-c2aa2bedc8e6"}
{"type":"assistant","message":{"model":"claude-sonnet-4-6","id":"msg_01SDM3UEwGQGLU9k6vHEc1VP","type":"message","role":"assistant","content":[{"type":"tool_use","id":"toolu_01TuiHtkgA4XwjDjpMHuHpci","name":"mcp__compressed-github__github_get_tool_schema","input":{"tool_name":"list_issues"},"caller":{"type":"direct"}}],"stop_reason":null,"stop_sequence":null,"usage":{"input_tokens":3,"cache_creation_input_tokens":6849,"cache_read_input_tokens":25909,"cache_creation":{"ephemeral_5m_input_tokens":0,"ephemeral_1h_input_tokens":6849},"output_tokens":1,"service_tier":"standard","inference_geo":"not_available"},"context_management":null},"parent_tool_use_id":null,"session_id":"620b862c-7a13-4e93-9393-29ed00e2daad","uuid":"23ed47ca-bed3-4b32-83d0-74565690b3fc"}
{"type":"rate_limit_event","rate_limit_info":{"status":"allowed","resetsAt":1774342800,"rateLimitType":"five_hour","overageStatus":"rejected","overageDisabledReason":"org_level_disabled","isUsingOverage":false},"uuid":"a12dd8e8-0f58-4ef7-8134-28182f4eb06e","session_id":"620b862c-7a13-4e93-9393-29ed00e2daad"}
{"type":"user","message":{"role":"user","content":[{"tool_use_id":"toolu_01TuiHtkgA4XwjDjpMHuHpci","type":"tool_result","content":"{\"result\":\"<tool>list_issues(after, direction, labels, orderBy, owner, perPage, repo, since, state): List issues in a GitHub repository. For pagination, use the 'endCursor' from the previous response's 'pageInfo' in the 'after' parameter.</tool>\\n\\n{\\n  \\\"type\\\": \\\"object\\\",\\n  \\\"properties\\\": {\\n    \\\"after\\\": {\\n      \\\"type\\\": \\\"string\\\",\\n      \\\"description\\\": \\\"Cursor for pagination. Use the endCursor from the previous page's PageInfo for GraphQL APIs.\\\"\\n    },\\n    \\\"direction\\\": {\\n      \\\"type\\\": \\\"string\\\",\\n      \\\"description\\\": \\\"Order direction. If provided, the 'orderBy' also needs to be provided.\\\",\\n      \\\"enum\\\": [\\n        \\\"ASC\\\",\\n        \\\"DESC\\\"\\n      ]\\n    },\\n    \\\"labels\\\": {\\n      \\\"type\\\": \\\"array\\\",\\n      \\\"items\\\": {\\n        \\\"type\\\": \\\"string\\\"\\n      },\\n      \\\"description\\\": \\\"Filter by labels\\\"\\n    },\\n    \\\"orderBy\\\": {\\n      \\\"type\\\": \\\"string\\\",\\n      \\\"description\\\": \\\"Order issues by field. If provided, the 'direction' also needs to be provided.\\\",\\n      \\\"enum\\\": [\\n        \\\"CREATED_AT\\\",\\n        \\\"UPDATED_AT\\\",\\n        \\\"COMMENTS\\\"\\n      ]\\n    },\\n    \\\"owner\\\": {\\n      \\\"type\\\": \\\"string\\\",\\n      \\\"description\\\": \\\"Repository owner\\\"\\n    },\\n    \\\"perPage\\\": {\\n      \\\"type\\\": \\\"number\\\",\\n      \\\"description\\\": \\\"Results per page for pagination (min 1, max 100)\\\",\\n      \\\"minimum\\\": 1,\\n      \\\"maximum\\\": 100\\n    },\\n    \\\"repo\\\": {\\n      \\\"type\\\": \\\"string\\\",\\n      \\\"description\\\": \\\"Repository name\\\"\\n    },\\n    \\\"since\\\": {\\n      \\\"type\\\": \\\"string\\\",\\n      \\\"description\\\": \\\"Filter by date (ISO 8601 timestamp)\\\"\\n    },\\n    \\\"state\\\": {\\n      \\\"type\\\": \\\"string\\\",\\n      \\\"description\\\": \\\"Filter by state, by default both open and closed issues are returned when not provided\\\",\\n      \\\"enum\\\": [\\n        \\\"OPEN\\\",\\n        \\\"CLOSED\\\"\\n      ]\\n    }\\n  },\\n  \\\"required\\\": [\\n    \\\"owner\\\",\\n    \\\"repo\\\"\\n  ]\\n}\"}"}]},"parent_tool_use_id":null,"session_id":"620b862c-7a13-4e93-9393-29ed00e2daad","uuid":"37ff05fa-38fe-446f-95c7-6e9b63f4dbfa","timestamp":"2026-03-24T08:17:22.434Z","tool_use_result":{"content":"{\"result\":\"<tool>list_issues(after, direction, labels, orderBy, owner, perPage, repo, since, state): List issues in a GitHub repository. For pagination, use the 'endCursor' from the previous response's 'pageInfo' in the 'after' parameter.</tool>\\n\\n{\\n  \\\"type\\\": \\\"object\\\",\\n  \\\"properties\\\": {\\n    \\\"after\\\": {\\n      \\\"type\\\": \\\"string\\\",\\n      \\\"description\\\": \\\"Cursor for pagination. Use the endCursor from the previous page's PageInfo for GraphQL APIs.\\\"\\n    },\\n    \\\"direction\\\": {\\n      \\\"type\\\": \\\"string\\\",\\n      \\\"description\\\": \\\"Order direction. If provided, the 'orderBy' also needs to be provided.\\\",\\n      \\\"enum\\\": [\\n        \\\"ASC\\\",\\n        \\\"DESC\\\"\\n      ]\\n    },\\n    \\\"labels\\\": {\\n      \\\"type\\\": \\\"array\\\",\\n      \\\"items\\\": {\\n        \\\"type\\\": \\\"string\\\"\\n      },\\n      \\\"description\\\": \\\"Filter by labels\\\"\\n    },\\n    \\\"orderBy\\\": {\\n      \\\"type\\\": \\\"string\\\",\\n      \\\"description\\\": \\\"Order issues by field. If provided, the 'direction' also needs to be provided.\\\",\\n      \\\"enum\\\": [\\n        \\\"CREATED_AT\\\",\\n        \\\"UPDATED_AT\\\",\\n        \\\"COMMENTS\\\"\\n      ]\\n    },\\n    \\\"owner\\\": {\\n      \\\"type\\\": \\\"string\\\",\\n      \\\"description\\\": \\\"Repository owner\\\"\\n    },\\n    \\\"perPage\\\": {\\n      \\\"type\\\": \\\"number\\\",\\n      \\\"description\\\": \\\"Results per page for pagination (min 1, max 100)\\\",\\n      \\\"minimum\\\": 1,\\n      \\\"maximum\\\": 100\\n    },\\n    \\\"repo\\\": {\\n      \\\"type\\\": \\\"string\\\",\\n      \\\"description\\\": \\\"Repository name\\\"\\n    },\\n    \\\"since\\\": {\\n      \\\"type\\\": \\\"string\\\",\\n      \\\"description\\\": \\\"Filter by date (ISO 8601 timestamp)\\\"\\n    },\\n    \\\"state\\\": {\\n      \\\"type\\\": \\\"string\\\",\\n      \\\"description\\\": \\\"Filter by state, by default both open and closed issues are returned when not provided\\\",\\n      \\\"enum\\\": [\\n        \\\"OPEN\\\",\\n        \\\"CLOSED\\\"\\n      ]\\n    }\\n  },\\n  \\\"required\\\": [\\n    \\\"owner\\\",\\n    \\\"repo\\\"\\n  ]\\n}\"}","structuredContent":{"result":"<tool>list_issues(after, direction, labels, orderBy, owner, perPage, repo, since, state): List issues in a GitHub repository. For pagination, use the 'endCursor' from the previous response's 'pageInfo' in the 'after' parameter.</tool>\n\n{\n  \"type\": \"object\",\n  \"properties\": {\n    \"after\": {\n      \"type\": \"string\",\n      \"description\": \"Cursor for pagination. Use the endCursor from the previous page's PageInfo for GraphQL APIs.\"\n    },\n    \"direction\": {\n      \"type\": \"string\",\n      \"description\": \"Order direction. If provided, the 'orderBy' also needs to be provided.\",\n      \"enum\": [\n        \"ASC\",\n        \"DESC\"\n      ]\n    },\n    \"labels\": {\n      \"type\": \"array\",\n      \"items\": {\n        \"type\": \"string\"\n      },\n      \"description\": \"Filter by labels\"\n    },\n    \"orderBy\": {\n      \"type\": \"string\",\n      \"description\": \"Order issues by field. If provided, the 'direction' also needs to be provided.\",\n      \"enum\": [\n        \"CREATED_AT\",\n        \"UPDATED_AT\",\n        \"COMMENTS\"\n      ]\n    },\n    \"owner\": {\n      \"type\": \"string\",\n      \"description\": \"Repository owner\"\n    },\n    \"perPage\": {\n      \"type\": \"number\",\n      \"description\": \"Results per page for pagination (min 1, max 100)\",\n      \"minimum\": 1,\n      \"maximum\": 100\n    },\n    \"repo\": {\n      \"type\": \"string\",\n      \"description\": \"Repository name\"\n    },\n    \"since\": {\n      \"type\": \"string\",\n      \"description\": \"Filter by date (ISO 8601 timestamp)\"\n    },\n    \"state\": {\n      \"type\": \"string\",\n      \"description\": \"Filter by state, by default both open and closed issues are returned when not provided\",\n      \"enum\": [\n        \"OPEN\",\n        \"CLOSED\"\n      ]\n    }\n  },\n  \"required\": [\n    \"owner\",\n    \"repo\"\n  ]\n}"}}}
{"type":"assistant","message":{"model":"claude-sonnet-4-6","id":"msg_019X8WrBNLppUc4dv1SgBN56","type":"message","role":"assistant","content":[{"type":"tool_use","id":"toolu_018csMcuNcQZ61bTgAsGfAM8","name":"mcp__compressed-github__github_invoke_tool","input":{"tool_name":"list_issues","tool_input":{"owner":"openclaw","repo":"openclaw","state":"OPEN","labels":["bug"],"orderBy":"CREATED_AT","direction":"DESC","perPage":1}},"caller":{"type":"direct"}}],"stop_reason":null,"stop_sequence":null,"usage":{"input_tokens":1,"cache_creation_input_tokens":780,"cache_read_input_tokens":32758,"cache_creation":{"ephemeral_5m_input_tokens":0,"ephemeral_1h_input_tokens":780},"output_tokens":59,"service_tier":"standard","inference_geo":"not_available"},"context_management":null},"parent_tool_use_id":null,"session_id":"620b862c-7a13-4e93-9393-29ed00e2daad","uuid":"3824098a-90d8-4ed9-94a6-fdc4196879b8"}
{"type":"user","message":{"role":"user","content":[{"tool_use_id":"toolu_018csMcuNcQZ61bTgAsGfAM8","type":"tool_result","content":[{"type":"text","text":"{\"issues\":[{\"number\":53537,\"title\":\"[Bug]: Gemini 2.5 Pro thinking content loops infinitely on model switch\",\"body\":\"### Bug type\\n\\nBehavior bug (incorrect output/state without crash)\\n\\n### Summary\\n\\nWhen switching from Gemini 2.5 Pro to another model, the `` content repeats infinitely\\n until OpenClaw aborts the run.\\n\\n### Steps to reproduce\\n\\n1. Set model to `github-copilot/gemini-2.5-pro`\\n   2. Send a message to trigger Gemini\\u0026#39;s reasoning/thinking output\\n   3. Send another message that switches model (e.g., to `moonshot/kimi-k2.5`)\\n   4. Observe the output\\n\\n### Expected behavior\\n\\nModel switch should work normally without repeating content.\\n\\n### Actual behavior\\n\\nThe `` content from Gemini 2.5 Pro repeats approximately 40+ times:\\n\\n### OpenClaw version\\n\\n2026.3.23-2 (7ffe7e4)\\n\\n### Operating system\\n\\nWindows 10.0.26200\\n\\n### Install method\\n\\nnpm global\\n\\n### Model\\n\\ngithub-copilot/gemini-2.5-pro/moonshot/kimi-k2.5\\n\\n### Provider / routing chain\\n\\nopenclaw-\\u0026gt;github-copilot/gemini-2.5-pro-\\u0026gt;moonshot/kimi-k2.5\\n\\n### Additional provider/model setup details\\n\\n_No response_\\n\\n### Logs, screenshots, and evidence\\n\\n```shell\\n\\n```\\n\\n### Impact and severity\\n\\nNOT_ENOUGH_INFO\\n\\n### Additional information\\n\\n_No response_\",\"state\":\"OPEN\",\"user\":{\"login\":\"mattyou\"},\"labels\":[\"bug\",\"bug:behavior\"],\"created_at\":\"2026-03-24T08:04:12Z\",\"updated_at\":\"2026-03-24T08:04:20Z\"}],\"totalCount\":2011,\"pageInfo\":{\"hasNextPage\":true,\"hasPreviousPage\":false,\"startCursor\":\"Y3Vyc29yOnYyOpK5MjAyNi0wMy0yNFQwMTowNDoxMi0wNzowMM717a92\",\"endCursor\":\"Y3Vyc29yOnYyOpK5MjAyNi0wMy0yNFQwMTowNDoxMi0wNzowMM717a92\"}}"}]}]},"parent_tool_use_id":null,"session_id":"620b862c-7a13-4e93-9393-29ed00e2daad","uuid":"1fa8833b-0e95-467e-a0dc-a077683500be","timestamp":"2026-03-24T08:17:29.464Z","tool_use_result":[{"type":"text","text":"{\"issues\":[{\"number\":53537,\"title\":\"[Bug]: Gemini 2.5 Pro thinking content loops infinitely on model switch\",\"body\":\"### Bug type\\n\\nBehavior bug (incorrect output/state without crash)\\n\\n### Summary\\n\\nWhen switching from Gemini 2.5 Pro to another model, the `` content repeats infinitely\\n until OpenClaw aborts the run.\\n\\n### Steps to reproduce\\n\\n1. Set model to `github-copilot/gemini-2.5-pro`\\n   2. Send a message to trigger Gemini\\u0026#39;s reasoning/thinking output\\n   3. Send another message that switches model (e.g., to `moonshot/kimi-k2.5`)\\n   4. Observe the output\\n\\n### Expected behavior\\n\\nModel switch should work normally without repeating content.\\n\\n### Actual behavior\\n\\nThe `` content from Gemini 2.5 Pro repeats approximately 40+ times:\\n\\n### OpenClaw version\\n\\n2026.3.23-2 (7ffe7e4)\\n\\n### Operating system\\n\\nWindows 10.0.26200\\n\\n### Install method\\n\\nnpm global\\n\\n### Model\\n\\ngithub-copilot/gemini-2.5-pro/moonshot/kimi-k2.5\\n\\n### Provider / routing chain\\n\\nopenclaw-\\u0026gt;github-copilot/gemini-2.5-pro-\\u0026gt;moonshot/kimi-k2.5\\n\\n### Additional provider/model setup details\\n\\n_No response_\\n\\n### Logs, screenshots, and evidence\\n\\n```shell\\n\\n```\\n\\n### Impact and severity\\n\\nNOT_ENOUGH_INFO\\n\\n### Additional information\\n\\n_No response_\",\"state\":\"OPEN\",\"user\":{\"login\":\"mattyou\"},\"labels\":[\"bug\",\"bug:behavior\"],\"created_at\":\"2026-03-24T08:04:12Z\",\"updated_at\":\"2026-03-24T08:04:20Z\"}],\"totalCount\":2011,\"pageInfo\":{\"hasNextPage\":true,\"hasPreviousPage\":false,\"startCursor\":\"Y3Vyc29yOnYyOpK5MjAyNi0wMy0yNFQwMTowNDoxMi0wNzowMM717a92\",\"endCursor\":\"Y3Vyc29yOnYyOpK5MjAyNi0wMy0yNFQwMTowNDoxMi0wNzowMM717a92\"}}"}]}
{"type":"assistant","message":{"model":"claude-sonnet-4-6","id":"msg_01CzTbe9rjz53kiZahw1Kyg9","type":"message","role":"assistant","content":[{"type":"thinking","thinking":"The most recent open bug issue is #53537. Now let me search for open PRs that reference this issue number.","signature":"EpICCkYIDBgCKkABW5O5MD5U/hGrE4B6+ObkoSsosd80uMkv6GRcemXDiB6nGLzhddz7cWHlqJ65eUMuNc1UbcZxZcjmnQUU/qVeEgwI8t8E9RFjQqqTGSYaDKbnN1kZW6C9FhwJYiIwsLPL7jwuQ5quAepNIWx4OJnVoTX20rIzxLk13YtwE7F3onSXJK28D0SfPJx0HK37Knpe7lNbmVOi6C1Ebp7ird9ORubog1PtfvteRgdH0ywWaq2yn36PHduU54R9eyjHDlyPFURlfAn7JOICdkU0N26m2DlbpSvTbwm8FRxTzJN6A8W7Gnj3ySY3clAvtTsW6cTbUZlC/jjN1r07F3ZS/nLJo6aI2pnxRr/W4xgB"}],"stop_reason":null,"stop_sequence":null,"usage":{"input_tokens":1,"cache_creation_input_tokens":814,"cache_read_input_tokens":33538,"cache_creation":{"ephemeral_5m_input_tokens":0,"ephemeral_1h_input_tokens":814},"output_tokens":8,"service_tier":"standard","inference_geo":"not_available"},"context_management":null},"parent_tool_use_id":null,"session_id":"620b862c-7a13-4e93-9393-29ed00e2daad","uuid":"9889356d-bdde-440b-82ee-7851244e15a2"}
{"type":"assistant","message":{"model":"claude-sonnet-4-6","id":"msg_01CzTbe9rjz53kiZahw1Kyg9","type":"message","role":"assistant","content":[{"type":"tool_use","id":"toolu_01FqB2V19HfR2nByUfW3a2As","name":"mcp__compressed-github__github_get_tool_schema","input":{"tool_name":"search_pull_requests"},"caller":{"type":"direct"}}],"stop_reason":null,"stop_sequence":null,"usage":{"input_tokens":1,"cache_creation_input_tokens":814,"cache_read_input_tokens":33538,"cache_creation":{"ephemeral_5m_input_tokens":0,"ephemeral_1h_input_tokens":814},"output_tokens":8,"service_tier":"standard","inference_geo":"not_available"},"context_management":null},"parent_tool_use_id":null,"session_id":"620b862c-7a13-4e93-9393-29ed00e2daad","uuid":"91719524-d00e-43d1-a2c4-43c6c4406940"}
{"type":"user","message":{"role":"user","content":[{"tool_use_id":"toolu_01FqB2V19HfR2nByUfW3a2As","type":"tool_result","content":"{\"result\":\"<tool>search_pull_requests(order, owner, page, perPage, query, repo, sort): Search for pull requests in GitHub repositories using issues search syntax already scoped to is:pr</tool>\\n\\n{\\n  \\\"type\\\": \\\"object\\\",\\n  \\\"properties\\\": {\\n    \\\"order\\\": {\\n      \\\"type\\\": \\\"string\\\",\\n      \\\"description\\\": \\\"Sort order\\\",\\n      \\\"enum\\\": [\\n        \\\"asc\\\",\\n        \\\"desc\\\"\\n      ]\\n    },\\n    \\\"owner\\\": {\\n      \\\"type\\\": \\\"string\\\",\\n      \\\"description\\\": \\\"Optional repository owner. If provided with repo, only pull requests for this repository are listed.\\\"\\n    },\\n    \\\"page\\\": {\\n      \\\"type\\\": \\\"number\\\",\\n      \\\"description\\\": \\\"Page number for pagination (min 1)\\\",\\n      \\\"minimum\\\": 1\\n    },\\n    \\\"perPage\\\": {\\n      \\\"type\\\": \\\"number\\\",\\n      \\\"description\\\": \\\"Results per page for pagination (min 1, max 100)\\\",\\n      \\\"minimum\\\": 1,\\n      \\\"maximum\\\": 100\\n    },\\n    \\\"query\\\": {\\n      \\\"type\\\": \\\"string\\\",\\n      \\\"description\\\": \\\"Search query using GitHub pull request search syntax\\\"\\n    },\\n    \\\"repo\\\": {\\n      \\\"type\\\": \\\"string\\\",\\n      \\\"description\\\": \\\"Optional repository name. If provided with owner, only pull requests for this repository are listed.\\\"\\n    },\\n    \\\"sort\\\": {\\n      \\\"type\\\": \\\"string\\\",\\n      \\\"description\\\": \\\"Sort field by number of matches of categories, defaults to best match\\\",\\n      \\\"enum\\\": [\\n        \\\"comments\\\",\\n        \\\"reactions\\\",\\n        \\\"reactions-+1\\\",\\n        \\\"reactions--1\\\",\\n        \\\"reactions-smile\\\",\\n        \\\"reactions-thinking_face\\\",\\n        \\\"reactions-heart\\\",\\n        \\\"reactions-tada\\\",\\n        \\\"interactions\\\",\\n        \\\"created\\\",\\n        \\\"updated\\\"\\n      ]\\n    }\\n  },\\n  \\\"required\\\": [\\n    \\\"query\\\"\\n  ]\\n}\"}"}]},"parent_tool_use_id":null,"session_id":"620b862c-7a13-4e93-9393-29ed00e2daad","uuid":"8cd163d7-7c76-4864-bca9-d8d5a4c67680","timestamp":"2026-03-24T08:17:34.994Z","tool_use_result":{"content":"{\"result\":\"<tool>search_pull_requests(order, owner, page, perPage, query, repo, sort): Search for pull requests in GitHub repositories using issues search syntax already scoped to is:pr</tool>\\n\\n{\\n  \\\"type\\\": \\\"object\\\",\\n  \\\"properties\\\": {\\n    \\\"order\\\": {\\n      \\\"type\\\": \\\"string\\\",\\n      \\\"description\\\": \\\"Sort order\\\",\\n      \\\"enum\\\": [\\n        \\\"asc\\\",\\n        \\\"desc\\\"\\n      ]\\n    },\\n    \\\"owner\\\": {\\n      \\\"type\\\": \\\"string\\\",\\n      \\\"description\\\": \\\"Optional repository owner. If provided with repo, only pull requests for this repository are listed.\\\"\\n    },\\n    \\\"page\\\": {\\n      \\\"type\\\": \\\"number\\\",\\n      \\\"description\\\": \\\"Page number for pagination (min 1)\\\",\\n      \\\"minimum\\\": 1\\n    },\\n    \\\"perPage\\\": {\\n      \\\"type\\\": \\\"number\\\",\\n      \\\"description\\\": \\\"Results per page for pagination (min 1, max 100)\\\",\\n      \\\"minimum\\\": 1,\\n      \\\"maximum\\\": 100\\n    },\\n    \\\"query\\\": {\\n      \\\"type\\\": \\\"string\\\",\\n      \\\"description\\\": \\\"Search query using GitHub pull request search syntax\\\"\\n    },\\n    \\\"repo\\\": {\\n      \\\"type\\\": \\\"string\\\",\\n      \\\"description\\\": \\\"Optional repository name. If provided with owner, only pull requests for this repository are listed.\\\"\\n    },\\n    \\\"sort\\\": {\\n      \\\"type\\\": \\\"string\\\",\\n      \\\"description\\\": \\\"Sort field by number of matches of categories, defaults to best match\\\",\\n      \\\"enum\\\": [\\n        \\\"comments\\\",\\n        \\\"reactions\\\",\\n        \\\"reactions-+1\\\",\\n        \\\"reactions--1\\\",\\n        \\\"reactions-smile\\\",\\n        \\\"reactions-thinking_face\\\",\\n        \\\"reactions-heart\\\",\\n        \\\"reactions-tada\\\",\\n        \\\"interactions\\\",\\n        \\\"created\\\",\\n        \\\"updated\\\"\\n      ]\\n    }\\n  },\\n  \\\"required\\\": [\\n    \\\"query\\\"\\n  ]\\n}\"}","structuredContent":{"result":"<tool>search_pull_requests(order, owner, page, perPage, query, repo, sort): Search for pull requests in GitHub repositories using issues search syntax already scoped to is:pr</tool>\n\n{\n  \"type\": \"object\",\n  \"properties\": {\n    \"order\": {\n      \"type\": \"string\",\n      \"description\": \"Sort order\",\n      \"enum\": [\n        \"asc\",\n        \"desc\"\n      ]\n    },\n    \"owner\": {\n      \"type\": \"string\",\n      \"description\": \"Optional repository owner. If provided with repo, only pull requests for this repository are listed.\"\n    },\n    \"page\": {\n      \"type\": \"number\",\n      \"description\": \"Page number for pagination (min 1)\",\n      \"minimum\": 1\n    },\n    \"perPage\": {\n      \"type\": \"number\",\n      \"description\": \"Results per page for pagination (min 1, max 100)\",\n      \"minimum\": 1,\n      \"maximum\": 100\n    },\n    \"query\": {\n      \"type\": \"string\",\n      \"description\": \"Search query using GitHub pull request search syntax\"\n    },\n    \"repo\": {\n      \"type\": \"string\",\n      \"description\": \"Optional repository name. If provided with owner, only pull requests for this repository are listed.\"\n    },\n    \"sort\": {\n      \"type\": \"string\",\n      \"description\": \"Sort field by number of matches of categories, defaults to best match\",\n      \"enum\": [\n        \"comments\",\n        \"reactions\",\n        \"reactions-+1\",\n        \"reactions--1\",\n        \"reactions-smile\",\n        \"reactions-thinking_face\",\n        \"reactions-heart\",\n        \"reactions-tada\",\n        \"interactions\",\n        \"created\",\n        \"updated\"\n      ]\n    }\n  },\n  \"required\": [\n    \"query\"\n  ]\n}"}}}
{"type":"assistant","message":{"model":"claude-sonnet-4-6","id":"msg_012Gxa8yZfLjbdWzjHWCULfy","type":"message","role":"assistant","content":[{"type":"tool_use","id":"toolu_01NVEfgso9YUDGkDb3W9vCmX","name":"mcp__compressed-github__github_invoke_tool","input":{"tool_name":"search_pull_requests","tool_input":{"query":"repo:openclaw/openclaw is:open is:pr 53537"}},"caller":{"type":"direct"}}],"stop_reason":null,"stop_sequence":null,"usage":{"input_tokens":1,"cache_creation_input_tokens":681,"cache_read_input_tokens":34352,"cache_creation":{"ephemeral_5m_input_tokens":0,"ephemeral_1h_input_tokens":681},"output_tokens":69,"service_tier":"standard","inference_geo":"not_available"},"context_management":null},"parent_tool_use_id":null,"session_id":"620b862c-7a13-4e93-9393-29ed00e2daad","uuid":"e3d51090-0bfe-4d46-8a7c-5070f4b9b44a"}
{"type":"user","message":{"role":"user","content":[{"tool_use_id":"toolu_01NVEfgso9YUDGkDb3W9vCmX","type":"tool_result","content":[{"type":"text","text":"{\"total_count\":0,\"incomplete_results\":false}"}]}]},"parent_tool_use_id":null,"session_id":"620b862c-7a13-4e93-9393-29ed00e2daad","uuid":"a08f89ad-0350-4591-bb93-de1d0ec46d29","timestamp":"2026-03-24T08:17:39.616Z","tool_use_result":[{"type":"text","text":"{\"total_count\":0,\"incomplete_results\":false}"}]}
{"type":"assistant","message":{"model":"claude-sonnet-4-6","id":"msg_01RYvjKa3FbmsvJzB9kydhr2","type":"message","role":"assistant","content":[{"type":"text","text":"No open PRs reference issue #53537.\n\n---\n\n**Most recent open bug issue:** [#53537] **\"[Bug]: Gemini 2.5 Pro thinking content loops infinitely on model switch\"**\n\n- **Filed:** 2026-03-24 by `mattyou`\n- **Summary:** When switching from `github-copilot/gemini-2.5-pro` to another model (e.g. `moonshot/kimi-k2.5`), the `<thinking>` content from Gemini repeats 40+ times until OpenClaw aborts the run.\n- **Fix in progress:** No — no open PRs reference issue #53537 in their title or body."}],"stop_reason":null,"stop_sequence":null,"usage":{"input_tokens":1,"cache_creation_input_tokens":131,"cache_read_input_tokens":35033,"cache_creation":{"ephemeral_5m_input_tokens":0,"ephemeral_1h_input_tokens":131},"output_tokens":1,"service_tier":"standard","inference_geo":"not_available"},"context_management":null},"parent_tool_use_id":null,"session_id":"620b862c-7a13-4e93-9393-29ed00e2daad","uuid":"57865f89-c981-4a57-b43f-8bb778879126"}
{"type":"result","subtype":"success","is_error":false,"duration_ms":29842,"duration_api_ms":23125,"num_turns":5,"result":"No open PRs reference issue #53537.\n\n---\n\n**Most recent open bug issue:** [#53537] **\"[Bug]: Gemini 2.5 Pro thinking content loops infinitely on model switch\"**\n\n- **Filed:** 2026-03-24 by `mattyou`\n- **Summary:** When switching from `github-copilot/gemini-2.5-pro` to another model (e.g. `moonshot/kimi-k2.5`), the `<thinking>` content from Gemini repeats 40+ times until OpenClaw aborts the run.\n- **Fix in progress:** No — no open PRs reference issue #53537 in their title or body.","stop_reason":"end_turn","session_id":"620b862c-7a13-4e93-9393-29ed00e2daad","total_cost_usd":0.09268425,"usage":{"input_tokens":7,"cache_creation_input_tokens":9255,"cache_read_input_tokens":161590,"output_tokens":632,"server_tool_use":{"web_search_requests":0,"web_fetch_requests":0},"service_tier":"standard","cache_creation":{"ephemeral_1h_input_tokens":9255,"ephemeral_5m_input_tokens":0},"inference_geo":"","iterations":[],"speed":"standard"},"modelUsage":{"claude-sonnet-4-6":{"inputTokens":7,"outputTokens":632,"cacheReadInputTokens":161590,"cacheCreationInputTokens":9255,"webSearchRequests":0,"costUSD":0.09268425,"contextWindow":200000,"maxOutputTokens":32000}},"permission_denials":[],"fast_mode_state":"off","uuid":"52a410b0-dad9-4e32-acb7-d513770edf86"}
