{"type":"system","subtype":"init","cwd":"/Users/kunchen/.treehouse/axi-8d75ad/1/axi/bench/results/mcp-compressed-medium/find_fix_for_bug/run5/workspace","session_id":"e51fe831-e19a-4b36-b38d-81a6173fc294","tools":["Task","TaskOutput","Bash","Glob","Grep","ExitPlanMode","Read","Edit","Write","NotebookEdit","WebFetch","TodoWrite","WebSearch","TaskStop","AskUserQuestion","Skill","EnterPlanMode","EnterWorktree","ExitWorktree","CronCreate","CronDelete","CronList","mcp__chrome-devtools__click","mcp__chrome-devtools__close_page","mcp__chrome-devtools__drag","mcp__chrome-devtools__emulate","mcp__chrome-devtools__evaluate_script","mcp__chrome-devtools__fill","mcp__chrome-devtools__fill_form","mcp__chrome-devtools__get_console_message","mcp__chrome-devtools__get_network_request","mcp__chrome-devtools__handle_dialog","mcp__chrome-devtools__hover","mcp__chrome-devtools__lighthouse_audit","mcp__chrome-devtools__list_console_messages","mcp__chrome-devtools__list_network_requests","mcp__chrome-devtools__list_pages","mcp__chrome-devtools__navigate_page","mcp__chrome-devtools__new_page","mcp__chrome-devtools__performance_analyze_insight","mcp__chrome-devtools__performance_start_trace","mcp__chrome-devtools__performance_stop_trace","mcp__chrome-devtools__press_key","mcp__chrome-devtools__resize_page","mcp__chrome-devtools__select_page","mcp__chrome-devtools__take_memory_snapshot","mcp__chrome-devtools__take_screenshot","mcp__chrome-devtools__take_snapshot","mcp__chrome-devtools__type_text","mcp__chrome-devtools__upload_file","mcp__chrome-devtools__wait_for","mcp__compressed-github__github_get_tool_schema","mcp__compressed-github__github_invoke_tool","ListMcpResourcesTool","ReadMcpResourceTool","LSP"],"mcp_servers":[{"name":"chrome-devtools","status":"connected"},{"name":"compressed-github","status":"connected"},{"name":"claude.ai Google Calendar","status":"needs-auth"},{"name":"claude.ai Gmail","status":"needs-auth"}],"model":"claude-sonnet-4-6","permissionMode":"bypassPermissions","slash_commands":["update-config","debug","simplify","batch","loop","claude-api","test-driven-development","axi","compact","context","cost","heapdump","init","pr-comments","release-notes","review","security-review","extra-usage","insights","mcp__compressed-github__AssignCodingAgent","mcp__compressed-github__issue_to_fix_workflow"],"apiKeySource":"none","claude_code_version":"2.1.77","output_style":"default","agents":["general-purpose","statusline-setup","Explore","Plan","claude-code-guide"],"skills":["update-config","debug","simplify","batch","loop","claude-api","test-driven-development","axi"],"plugins":[{"name":"rust-analyzer-lsp","path":"/Users/kunchen/.claude/plugins/cache/claude-plugins-official/rust-analyzer-lsp/1.0.0"}],"uuid":"c8bb92cb-3455-4981-b852-d31f217d3489","fast_mode_state":"off"}
{"type":"assistant","message":{"model":"claude-sonnet-4-6","id":"msg_016S77RWAUb7xFE3GYazcfmv","type":"message","role":"assistant","content":[{"type":"thinking","thinking":"Let me find the most recent open issue labeled 'bug' in openclaw/openclaw, then check for any open PRs that reference that issue number.","signature":"ErECCkYIDBgCKkBTJDhI6FMfXqsK/QRsXaFin4+APEY9GOF6+0UUfxGHIrzeL0Q2Pmx5Zp841dOTEgivR8ReUZ4KEjCppbaBc0rsEgzZ88051GaqPjZlZMcaDJWR8fDeHkh9FTr6ySIwEQkQooWW1ZJXaj/2ahnwG7gsKOzPIvYZlucfYIUMJyBip1rvvjAYmcI3CzYMXfoGKpgBijtjxzuZaIQCZef4XkBctE5smc/tRrn7L15DlMDced1n54f9gUHm4EADUaxsbdy/BbZVyo3T8yTy4oQUk/AfY+A/ZIP0MPV/bSg7O+XiU61QZIOVMHKDJ5pPhpzvxPltDvIEvsY8Opu+8GeJE1TZaC5GWv+8COAZrVNlAewsy5qo/es+tdGdN8SAUegndoa1qqBpho/ffbEYAQ=="}],"stop_reason":null,"stop_sequence":null,"usage":{"input_tokens":3,"cache_creation_input_tokens":6854,"cache_read_input_tokens":26438,"cache_creation":{"ephemeral_5m_input_tokens":0,"ephemeral_1h_input_tokens":6854},"output_tokens":0,"service_tier":"standard","inference_geo":"not_available"},"context_management":null},"parent_tool_use_id":null,"session_id":"e51fe831-e19a-4b36-b38d-81a6173fc294","uuid":"76320d8d-13ba-450a-9c3a-86a023ca16d9"}
{"type":"assistant","message":{"model":"claude-sonnet-4-6","id":"msg_016S77RWAUb7xFE3GYazcfmv","type":"message","role":"assistant","content":[{"type":"tool_use","id":"toolu_01J5hAEV6fvKJnvdrehfdvy5","name":"mcp__compressed-github__github_invoke_tool","input":{"tool_name":"list_issues","tool_input":{"owner":"openclaw","repo":"openclaw","state":"open","labels":["bug"],"perPage":1}},"caller":{"type":"direct"}}],"stop_reason":null,"stop_sequence":null,"usage":{"input_tokens":3,"cache_creation_input_tokens":6854,"cache_read_input_tokens":26438,"cache_creation":{"ephemeral_5m_input_tokens":0,"ephemeral_1h_input_tokens":6854},"output_tokens":0,"service_tier":"standard","inference_geo":"not_available"},"context_management":null},"parent_tool_use_id":null,"session_id":"e51fe831-e19a-4b36-b38d-81a6173fc294","uuid":"e4141549-04de-4ea6-ac3d-bd4aaff254d8"}
{"type":"rate_limit_event","rate_limit_info":{"status":"allowed","resetsAt":1774342800,"rateLimitType":"five_hour","overageStatus":"rejected","overageDisabledReason":"org_level_disabled","isUsingOverage":false},"uuid":"0d0f6dbd-f792-4820-ade7-c773a7113738","session_id":"e51fe831-e19a-4b36-b38d-81a6173fc294"}
{"type":"user","message":{"role":"user","content":[{"tool_use_id":"toolu_01J5hAEV6fvKJnvdrehfdvy5","type":"tool_result","content":[{"type":"text","text":"{\"issues\":[{\"number\":53537,\"title\":\"[Bug]: Gemini 2.5 Pro thinking content loops infinitely on model switch\",\"body\":\"### Bug type\\n\\nBehavior bug (incorrect output/state without crash)\\n\\n### Summary\\n\\nWhen switching from Gemini 2.5 Pro to another model, the `` content repeats infinitely\\n until OpenClaw aborts the run.\\n\\n### Steps to reproduce\\n\\n1. Set model to `github-copilot/gemini-2.5-pro`\\n   2. Send a message to trigger Gemini\\u0026#39;s reasoning/thinking output\\n   3. Send another message that switches model (e.g., to `moonshot/kimi-k2.5`)\\n   4. Observe the output\\n\\n### Expected behavior\\n\\nModel switch should work normally without repeating content.\\n\\n### Actual behavior\\n\\nThe `` content from Gemini 2.5 Pro repeats approximately 40+ times:\\n\\n### OpenClaw version\\n\\n2026.3.23-2 (7ffe7e4)\\n\\n### Operating system\\n\\nWindows 10.0.26200\\n\\n### Install method\\n\\nnpm global\\n\\n### Model\\n\\ngithub-copilot/gemini-2.5-pro/moonshot/kimi-k2.5\\n\\n### Provider / routing chain\\n\\nopenclaw-\\u0026gt;github-copilot/gemini-2.5-pro-\\u0026gt;moonshot/kimi-k2.5\\n\\n### Additional provider/model setup details\\n\\n_No response_\\n\\n### Logs, screenshots, and evidence\\n\\n```shell\\n\\n```\\n\\n### Impact and severity\\n\\nNOT_ENOUGH_INFO\\n\\n### Additional information\\n\\n_No response_\",\"state\":\"OPEN\",\"user\":{\"login\":\"mattyou\"},\"labels\":[\"bug\",\"bug:behavior\"],\"created_at\":\"2026-03-24T08:04:12Z\",\"updated_at\":\"2026-03-24T08:04:20Z\"}],\"totalCount\":2011,\"pageInfo\":{\"hasNextPage\":true,\"hasPreviousPage\":false,\"startCursor\":\"Y3Vyc29yOnYyOpK5MjAyNi0wMy0yNFQwMTowNDoxMi0wNzowMM717a92\",\"endCursor\":\"Y3Vyc29yOnYyOpK5MjAyNi0wMy0yNFQwMTowNDoxMi0wNzowMM717a92\"}}"}]}]},"parent_tool_use_id":null,"session_id":"e51fe831-e19a-4b36-b38d-81a6173fc294","uuid":"e44f84eb-61b0-447b-a77d-76d0c0acabc3","timestamp":"2026-03-24T08:16:48.022Z","tool_use_result":[{"type":"text","text":"{\"issues\":[{\"number\":53537,\"title\":\"[Bug]: Gemini 2.5 Pro thinking content loops infinitely on model switch\",\"body\":\"### Bug type\\n\\nBehavior bug (incorrect output/state without crash)\\n\\n### Summary\\n\\nWhen switching from Gemini 2.5 Pro to another model, the `` content repeats infinitely\\n until OpenClaw aborts the run.\\n\\n### Steps to reproduce\\n\\n1. Set model to `github-copilot/gemini-2.5-pro`\\n   2. Send a message to trigger Gemini\\u0026#39;s reasoning/thinking output\\n   3. Send another message that switches model (e.g., to `moonshot/kimi-k2.5`)\\n   4. Observe the output\\n\\n### Expected behavior\\n\\nModel switch should work normally without repeating content.\\n\\n### Actual behavior\\n\\nThe `` content from Gemini 2.5 Pro repeats approximately 40+ times:\\n\\n### OpenClaw version\\n\\n2026.3.23-2 (7ffe7e4)\\n\\n### Operating system\\n\\nWindows 10.0.26200\\n\\n### Install method\\n\\nnpm global\\n\\n### Model\\n\\ngithub-copilot/gemini-2.5-pro/moonshot/kimi-k2.5\\n\\n### Provider / routing chain\\n\\nopenclaw-\\u0026gt;github-copilot/gemini-2.5-pro-\\u0026gt;moonshot/kimi-k2.5\\n\\n### Additional provider/model setup details\\n\\n_No response_\\n\\n### Logs, screenshots, and evidence\\n\\n```shell\\n\\n```\\n\\n### Impact and severity\\n\\nNOT_ENOUGH_INFO\\n\\n### Additional information\\n\\n_No response_\",\"state\":\"OPEN\",\"user\":{\"login\":\"mattyou\"},\"labels\":[\"bug\",\"bug:behavior\"],\"created_at\":\"2026-03-24T08:04:12Z\",\"updated_at\":\"2026-03-24T08:04:20Z\"}],\"totalCount\":2011,\"pageInfo\":{\"hasNextPage\":true,\"hasPreviousPage\":false,\"startCursor\":\"Y3Vyc29yOnYyOpK5MjAyNi0wMy0yNFQwMTowNDoxMi0wNzowMM717a92\",\"endCursor\":\"Y3Vyc29yOnYyOpK5MjAyNi0wMy0yNFQwMTowNDoxMi0wNzowMM717a92\"}}"}]}
{"type":"assistant","message":{"model":"claude-sonnet-4-6","id":"msg_01Y8QkaQvMEStVxJfL6cDJb8","type":"message","role":"assistant","content":[{"type":"tool_use","id":"toolu_01Tn7KXmXHif5hL4N6R7hGym","name":"mcp__compressed-github__github_invoke_tool","input":{"tool_name":"search_pull_requests","tool_input":{"owner":"openclaw","repo":"openclaw","query":"53537 is:open","perPage":5}},"caller":{"type":"direct"}}],"stop_reason":null,"stop_sequence":null,"usage":{"input_tokens":1,"cache_creation_input_tokens":847,"cache_read_input_tokens":33292,"cache_creation":{"ephemeral_5m_input_tokens":0,"ephemeral_1h_input_tokens":847},"output_tokens":58,"service_tier":"standard","inference_geo":"not_available"},"context_management":null},"parent_tool_use_id":null,"session_id":"e51fe831-e19a-4b36-b38d-81a6173fc294","uuid":"ed38e5f7-33a3-411e-b4b9-64354ffda369"}
{"type":"user","message":{"role":"user","content":[{"tool_use_id":"toolu_01Tn7KXmXHif5hL4N6R7hGym","type":"tool_result","content":[{"type":"text","text":"{\"total_count\":0,\"incomplete_results\":false}"}]}]},"parent_tool_use_id":null,"session_id":"e51fe831-e19a-4b36-b38d-81a6173fc294","uuid":"10bcd9ab-417f-482c-9371-e90ee6b53571","timestamp":"2026-03-24T08:16:51.072Z","tool_use_result":[{"type":"text","text":"{\"total_count\":0,\"incomplete_results\":false}"}]}
{"type":"assistant","message":{"model":"claude-sonnet-4-6","id":"msg_01LoFJSHpsjwr9LHoJEwTpLC","type":"message","role":"assistant","content":[{"type":"text","text":"**Most recent open bug issue:** [#53537](https://github.com/openclaw/openclaw/issues/53537) — *\"[Bug]: Gemini 2.5 Pro thinking content loops infinitely on model switch\"*\n\n- **Description:** When switching from `github-copilot/gemini-2.5-pro` to another model, the `<parameter name=\"thinking\">` content repeats 40+ times until OpenClaw aborts the run.\n- **Reported:** 2026-03-24 (today)\n\n**Fix in progress:** No — no open PRs reference issue #53537 in their title or body. This bug appears to have been just filed and has no active fix underway."}],"stop_reason":null,"stop_sequence":null,"usage":{"input_tokens":1,"cache_creation_input_tokens":141,"cache_read_input_tokens":34139,"cache_creation":{"ephemeral_5m_input_tokens":0,"ephemeral_1h_input_tokens":141},"output_tokens":1,"service_tier":"standard","inference_geo":"not_available"},"context_management":null},"parent_tool_use_id":null,"session_id":"e51fe831-e19a-4b36-b38d-81a6173fc294","uuid":"0c22d1a5-9817-4375-8f86-ee7a3f9a31a1"}
{"type":"result","subtype":"success","is_error":false,"duration_ms":11488,"duration_api_ms":8993,"num_turns":3,"result":"**Most recent open bug issue:** [#53537](https://github.com/openclaw/openclaw/issues/53537) — *\"[Bug]: Gemini 2.5 Pro thinking content loops infinitely on model switch\"*\n\n- **Description:** When switching from `github-copilot/gemini-2.5-pro` to another model, the `<parameter name=\"thinking\">` content repeats 40+ times until OpenClaw aborts the run.\n- **Reported:** 2026-03-24 (today)\n\n**Fix in progress:** No — no open PRs reference issue #53537 in their title or body. This bug appears to have been just filed and has no active fix underway.","stop_reason":"end_turn","session_id":"e51fe831-e19a-4b36-b38d-81a6173fc294","total_cost_usd":0.0643482,"usage":{"input_tokens":5,"cache_creation_input_tokens":7842,"cache_read_input_tokens":93869,"output_tokens":451,"server_tool_use":{"web_search_requests":0,"web_fetch_requests":0},"service_tier":"standard","cache_creation":{"ephemeral_1h_input_tokens":7842,"ephemeral_5m_input_tokens":0},"inference_geo":"","iterations":[],"speed":"standard"},"modelUsage":{"claude-sonnet-4-6":{"inputTokens":5,"outputTokens":451,"cacheReadInputTokens":93869,"cacheCreationInputTokens":7842,"webSearchRequests":0,"costUSD":0.0643482,"contextWindow":200000,"maxOutputTokens":32000}},"permission_denials":[],"fast_mode_state":"off","uuid":"830ae567-a7bf-4582-ab71-85d32d69cc60"}
