{"type":"system","subtype":"init","cwd":"/Users/kunchen/.treehouse/axi-8d75ad/1/axi/bench/results/mcp-compressed-low/issue_then_comments/run1/workspace","session_id":"06f83054-a247-4654-91a6-72960d27f195","tools":["Task","TaskOutput","Bash","Glob","Grep","ExitPlanMode","Read","Edit","Write","NotebookEdit","WebFetch","TodoWrite","WebSearch","TaskStop","AskUserQuestion","Skill","EnterPlanMode","EnterWorktree","ExitWorktree","CronCreate","CronDelete","CronList","mcp__chrome-devtools__click","mcp__chrome-devtools__close_page","mcp__chrome-devtools__drag","mcp__chrome-devtools__emulate","mcp__chrome-devtools__evaluate_script","mcp__chrome-devtools__fill","mcp__chrome-devtools__fill_form","mcp__chrome-devtools__get_console_message","mcp__chrome-devtools__get_network_request","mcp__chrome-devtools__handle_dialog","mcp__chrome-devtools__hover","mcp__chrome-devtools__lighthouse_audit","mcp__chrome-devtools__list_console_messages","mcp__chrome-devtools__list_network_requests","mcp__chrome-devtools__list_pages","mcp__chrome-devtools__navigate_page","mcp__chrome-devtools__new_page","mcp__chrome-devtools__performance_analyze_insight","mcp__chrome-devtools__performance_start_trace","mcp__chrome-devtools__performance_stop_trace","mcp__chrome-devtools__press_key","mcp__chrome-devtools__resize_page","mcp__chrome-devtools__select_page","mcp__chrome-devtools__take_memory_snapshot","mcp__chrome-devtools__take_screenshot","mcp__chrome-devtools__take_snapshot","mcp__chrome-devtools__type_text","mcp__chrome-devtools__upload_file","mcp__chrome-devtools__wait_for","mcp__compressed-github__github_get_tool_schema","mcp__compressed-github__github_invoke_tool","ListMcpResourcesTool","ReadMcpResourceTool","LSP"],"mcp_servers":[{"name":"chrome-devtools","status":"connected"},{"name":"compressed-github","status":"connected"},{"name":"claude.ai Google Calendar","status":"needs-auth"},{"name":"claude.ai Gmail","status":"needs-auth"}],"model":"claude-sonnet-4-6","permissionMode":"bypassPermissions","slash_commands":["update-config","debug","simplify","batch","loop","claude-api","test-driven-development","axi","compact","context","cost","heapdump","init","pr-comments","release-notes","review","security-review","extra-usage","insights","mcp__compressed-github__AssignCodingAgent","mcp__compressed-github__issue_to_fix_workflow"],"apiKeySource":"none","claude_code_version":"2.1.77","output_style":"default","agents":["general-purpose","statusline-setup","Explore","Plan","claude-code-guide"],"skills":["update-config","debug","simplify","batch","loop","claude-api","test-driven-development","axi"],"plugins":[{"name":"rust-analyzer-lsp","path":"/Users/kunchen/.claude/plugins/cache/claude-plugins-official/rust-analyzer-lsp/1.0.0"}],"uuid":"5293f234-255b-43c5-aa3c-376bb215578c","fast_mode_state":"off"}
{"type":"assistant","message":{"model":"claude-sonnet-4-6","id":"msg_01YRZxAbgn2yLuFUjzPCsj5y","type":"message","role":"assistant","content":[{"type":"thinking","thinking":"Let me find the most recent open issue in openclaw/openclaw with the label \"bug\", then view its comments.","signature":"EpECCkYIDBgCKkDuHovisBpZRW59DonyEcAfujuUfek823ebqlWZLFRIF3fDlrRaqWiBf9OnqUKoCp/xWDzfUKs2BFIXy0IkdqZ3EgyPbejLpGiMUR3cyGAaDANHrpLk8j13E9W5oyIwUFrdeJQg0JkGOekwjNWjESuP8LvmzsMu7FrOY51Gc8vAq3s99IUrmjzmLSUVnGZDKnltMbxLzJe7+8su5H+mPFFDZ5nvEfC/CFf7EwxL/pXhKOUY/zIBifDTGp9Jfj1qFjreqY385UUPfpauGfRiaItNz5U/UhgySASJwqsdL+S7XRVkhDXTctTv8oqSeBrZwIaphKyQYXPwfDvYtHUvCN8/nyjB8NE1slyuGAE="}],"stop_reason":null,"stop_sequence":null,"usage":{"input_tokens":3,"cache_creation_input_tokens":6834,"cache_read_input_tokens":27238,"cache_creation":{"ephemeral_5m_input_tokens":0,"ephemeral_1h_input_tokens":6834},"output_tokens":0,"service_tier":"standard","inference_geo":"not_available"},"context_management":null},"parent_tool_use_id":null,"session_id":"06f83054-a247-4654-91a6-72960d27f195","uuid":"218e63f9-0dde-40f1-bbc3-f21796dcc2ec"}
{"type":"assistant","message":{"model":"claude-sonnet-4-6","id":"msg_01YRZxAbgn2yLuFUjzPCsj5y","type":"message","role":"assistant","content":[{"type":"tool_use","id":"toolu_01RziLTJigm4Ft2DUFdgy3jG","name":"mcp__compressed-github__github_invoke_tool","input":{"tool_name":"list_issues","tool_input":{"owner":"openclaw","repo":"openclaw","state":"open","labels":"bug","perPage":1,"orderBy":"CREATED_AT","direction":"DESC"}},"caller":{"type":"direct"}}],"stop_reason":null,"stop_sequence":null,"usage":{"input_tokens":3,"cache_creation_input_tokens":6834,"cache_read_input_tokens":27238,"cache_creation":{"ephemeral_5m_input_tokens":0,"ephemeral_1h_input_tokens":6834},"output_tokens":0,"service_tier":"standard","inference_geo":"not_available"},"context_management":null},"parent_tool_use_id":null,"session_id":"06f83054-a247-4654-91a6-72960d27f195","uuid":"d9228abf-5020-485d-ab7f-57fa36bb1419"}
{"type":"rate_limit_event","rate_limit_info":{"status":"allowed","resetsAt":1774342800,"rateLimitType":"five_hour","overageStatus":"rejected","overageDisabledReason":"org_level_disabled","isUsingOverage":false},"uuid":"b42df00d-7f1c-4bc7-bdb3-f2df6e7f0d04","session_id":"06f83054-a247-4654-91a6-72960d27f195"}
{"type":"user","message":{"role":"user","content":[{"type":"tool_result","content":"parameter labels could not be coerced to []string, is string","is_error":true,"tool_use_id":"toolu_01RziLTJigm4Ft2DUFdgy3jG"}]},"parent_tool_use_id":null,"session_id":"06f83054-a247-4654-91a6-72960d27f195","uuid":"f438f400-9f8c-4a2d-8376-99ed038f461b","timestamp":"2026-03-24T06:52:19.157Z","tool_use_result":"Error: parameter labels could not be coerced to []string, is string"}
{"type":"assistant","message":{"model":"claude-sonnet-4-6","id":"msg_01QwNHev3txtxkdZ3FynNnZc","type":"message","role":"assistant","content":[{"type":"tool_use","id":"toolu_01QArwH6RFV67wFW2imqUssW","name":"mcp__compressed-github__github_invoke_tool","input":{"tool_name":"list_issues","tool_input":{"owner":"openclaw","repo":"openclaw","state":"open","labels":["bug"],"perPage":1,"orderBy":"CREATED_AT","direction":"DESC"}},"caller":{"type":"direct"}}],"stop_reason":null,"stop_sequence":null,"usage":{"input_tokens":1,"cache_creation_input_tokens":209,"cache_read_input_tokens":34072,"cache_creation":{"ephemeral_5m_input_tokens":0,"ephemeral_1h_input_tokens":209},"output_tokens":64,"service_tier":"standard","inference_geo":"not_available"},"context_management":null},"parent_tool_use_id":null,"session_id":"06f83054-a247-4654-91a6-72960d27f195","uuid":"11f08874-9330-46fd-b857-d0bbafd4f100"}
{"type":"user","message":{"role":"user","content":[{"tool_use_id":"toolu_01QArwH6RFV67wFW2imqUssW","type":"tool_result","content":[{"type":"text","text":"{\"issues\":[{\"number\":53466,\"title\":\"[Bug]: Expired external Codex credentials overwrite fresh re-auth and cause repeated OAuth failures\",\"body\":\"### Bug type\\n\\nBehavior bug (incorrect output/state without crash)\\n\\n### Summary\\n\\nI hit a failure mode where expired external Codex credentials appear to overwrite newly completed OpenClaw auth flows.\\n\\nIn my case, this was not limited to onboarding/configure. Even after running:\\n\\n`openclaw models auth login`\\n\\nThe old credential would come back again, and later runtime usage failed with:\\n\\n`OAuth token refresh failed for openai-codex: Failed to refresh OAuth token for openai-codex. Please try again or re-authenticate.`\\n\\nSo the issue is not just that stale external credentials can be imported once — it is that they seem able to replace fresh re-auth state afterward, making Codex auth effectively impossible to recover from on the user side.\\n\\n### Steps to reproduce\\n\\n1. Ensure an expired Codex external credential file exists at ~/.codex/auth.json.\\n2. Start OpenClaw 2026.3.23-2 with Codex configured as the primary model.\\n3. Run either onboarding/configure or openclaw models auth login.\\n4. Observe the log line when onboarding(won\\u0026#39;t be shown when auth login):\\n` [agents/auth-profiles] synced openai-codex credentials from external cli`\\n5. Trigger actual Codex model usage.\\n6. Observe the runtime failure:OAuth token refresh failed for openai-codex: \\n`Failed to refresh OAuth token for openai-codex. Please try again or re-authenticate.`\\n7. Remove ~/.codex/, retry the same flow, and observe that the failure no longer occurs.\\n\\n### Expected behavior\\n\\nExpected result: after completing a fresh OpenClaw Codex auth flow, OpenClaw should keep the newly issued credential and Codex should remain usable at runtime. In this same environment, that was the observed behavior after removing `~/.codex/`: `openai-codex:default` showed `ok expires in 10d`, the primary model was restored to `openai-codex/gpt-5.4`, and the repeated OAuth refresh failure stopped.\\n\\n### Actual behavior\\n\\nObserved result: after re-running onboarding/configure or `openclaw models auth login`, Codex later failed at runtime with the user-visible error:\\n\\n```text\\n⚠️ Agent failed before reply: OAuth token refresh failed for openai-codex: Failed to refresh OAuth token for openai-codex. Please try again or re-authenticate.\\nLogs: openclaw logs --follow\\n```\\n\\nSupporting evidence observed in logs/status:\\n\\n- Gateway logs showed:\\n  ```text\\n  [agents/auth-profiles] synced openai-codex credentials from external cli\\n  ```\\n- `openclaw models status` previously showed repeated refresh failures such as:\\n  ```text\\n  [openai-codex] Token refresh failed: 401\\n  \\u0026#34;code\\u0026#34;: \\u0026#34;refresh_token_reused\\u0026#34;\\n  ```\\n- The stale external credential source was found at:\\n  ```text\\n  ~/.codex/auth.json\\n  ```\\n\\n### OpenClaw version\\n\\n2026.3.23-2\\n\\n### Operating system\\n\\nmacOS 26.3.1 (a)\\n\\n### Install method\\n\\npnpm\\n\\n### Model\\n\\ngpt-5.4\\n\\n### Provider / routing chain\\n\\nopenclaw -\\u0026gt; openai-codex\\n\\n### Additional provider/model setup details\\n\\n_No response_\\n\\n### Logs, screenshots, and evidence\\n\\n```shell\\n\\n```\\n\\n### Impact and severity\\n\\n_No response_\\n\\n### Additional information\\n\\n_No response_\",\"state\":\"OPEN\",\"user\":{\"login\":\"Hantaison\"},\"labels\":[\"bug\",\"bug:behavior\"],\"created_at\":\"2026-03-24T06:31:42Z\",\"updated_at\":\"2026-03-24T06:31:51Z\"}],\"totalCount\":2004,\"pageInfo\":{\"hasNextPage\":true,\"hasPreviousPage\":false,\"startCursor\":\"Y3Vyc29yOnYyOpK5MjAyNi0wMy0yM1QyMzozMTo0Mi0wNzowMM7155pS\",\"endCursor\":\"Y3Vyc29yOnYyOpK5MjAyNi0wMy0yM1QyMzozMTo0Mi0wNzowMM7155pS\"}}"}]}]},"parent_tool_use_id":null,"session_id":"06f83054-a247-4654-91a6-72960d27f195","uuid":"fb08a933-87b8-47a3-b57c-986a3c292106","timestamp":"2026-03-24T06:52:24.290Z","tool_use_result":[{"type":"text","text":"{\"issues\":[{\"number\":53466,\"title\":\"[Bug]: Expired external Codex credentials overwrite fresh re-auth and cause repeated OAuth failures\",\"body\":\"### Bug type\\n\\nBehavior bug (incorrect output/state without crash)\\n\\n### Summary\\n\\nI hit a failure mode where expired external Codex credentials appear to overwrite newly completed OpenClaw auth flows.\\n\\nIn my case, this was not limited to onboarding/configure. Even after running:\\n\\n`openclaw models auth login`\\n\\nThe old credential would come back again, and later runtime usage failed with:\\n\\n`OAuth token refresh failed for openai-codex: Failed to refresh OAuth token for openai-codex. Please try again or re-authenticate.`\\n\\nSo the issue is not just that stale external credentials can be imported once — it is that they seem able to replace fresh re-auth state afterward, making Codex auth effectively impossible to recover from on the user side.\\n\\n### Steps to reproduce\\n\\n1. Ensure an expired Codex external credential file exists at ~/.codex/auth.json.\\n2. Start OpenClaw 2026.3.23-2 with Codex configured as the primary model.\\n3. Run either onboarding/configure or openclaw models auth login.\\n4. Observe the log line when onboarding(won\\u0026#39;t be shown when auth login):\\n` [agents/auth-profiles] synced openai-codex credentials from external cli`\\n5. Trigger actual Codex model usage.\\n6. Observe the runtime failure:OAuth token refresh failed for openai-codex: \\n`Failed to refresh OAuth token for openai-codex. Please try again or re-authenticate.`\\n7. Remove ~/.codex/, retry the same flow, and observe that the failure no longer occurs.\\n\\n### Expected behavior\\n\\nExpected result: after completing a fresh OpenClaw Codex auth flow, OpenClaw should keep the newly issued credential and Codex should remain usable at runtime. In this same environment, that was the observed behavior after removing `~/.codex/`: `openai-codex:default` showed `ok expires in 10d`, the primary model was restored to `openai-codex/gpt-5.4`, and the repeated OAuth refresh failure stopped.\\n\\n### Actual behavior\\n\\nObserved result: after re-running onboarding/configure or `openclaw models auth login`, Codex later failed at runtime with the user-visible error:\\n\\n```text\\n⚠️ Agent failed before reply: OAuth token refresh failed for openai-codex: Failed to refresh OAuth token for openai-codex. Please try again or re-authenticate.\\nLogs: openclaw logs --follow\\n```\\n\\nSupporting evidence observed in logs/status:\\n\\n- Gateway logs showed:\\n  ```text\\n  [agents/auth-profiles] synced openai-codex credentials from external cli\\n  ```\\n- `openclaw models status` previously showed repeated refresh failures such as:\\n  ```text\\n  [openai-codex] Token refresh failed: 401\\n  \\u0026#34;code\\u0026#34;: \\u0026#34;refresh_token_reused\\u0026#34;\\n  ```\\n- The stale external credential source was found at:\\n  ```text\\n  ~/.codex/auth.json\\n  ```\\n\\n### OpenClaw version\\n\\n2026.3.23-2\\n\\n### Operating system\\n\\nmacOS 26.3.1 (a)\\n\\n### Install method\\n\\npnpm\\n\\n### Model\\n\\ngpt-5.4\\n\\n### Provider / routing chain\\n\\nopenclaw -\\u0026gt; openai-codex\\n\\n### Additional provider/model setup details\\n\\n_No response_\\n\\n### Logs, screenshots, and evidence\\n\\n```shell\\n\\n```\\n\\n### Impact and severity\\n\\n_No response_\\n\\n### Additional information\\n\\n_No response_\",\"state\":\"OPEN\",\"user\":{\"login\":\"Hantaison\"},\"labels\":[\"bug\",\"bug:behavior\"],\"created_at\":\"2026-03-24T06:31:42Z\",\"updated_at\":\"2026-03-24T06:31:51Z\"}],\"totalCount\":2004,\"pageInfo\":{\"hasNextPage\":true,\"hasPreviousPage\":false,\"startCursor\":\"Y3Vyc29yOnYyOpK5MjAyNi0wMy0yM1QyMzozMTo0Mi0wNzowMM7155pS\",\"endCursor\":\"Y3Vyc29yOnYyOpK5MjAyNi0wMy0yM1QyMzozMTo0Mi0wNzowMM7155pS\"}}"}]}
{"type":"assistant","message":{"model":"claude-sonnet-4-6","id":"msg_01FZS81UQjNDSyX8q4czZWxS","type":"message","role":"assistant","content":[{"type":"thinking","thinking":"The most recent open issue with the \"bug\" label is issue #53466. Now let me get the comments for this issue.","signature":"EpQCCkYIDBgCKkDram0eDeyCXt2+elVstsbbPgmoou0z1/7b+tl0/rWi5wFRTH+iszY0EYm9FI46lTP/osAlhkt5WJtFVjNHQF4wEgzqcTT/2PUnEF0mE18aDBFyYEZecG6Jf186iiIw4ev+066gbo5QtRUMMqY1+7kEcb3eBRVy+/5nOM0aQi8z9yk68e82z9ubIc3r+SHfKnyapnSdgs6rELn1FF3oSyI1faRcaKwgzi+usJrEdAbNLJM+qyJig0+zDk9MBRbt7X7JSi1O/Pgt6MwLR4/wJKGELulCNm0uh8aEZ/yTow2s984jtm/mEjvigdJu4T2Ri5VXRQxeNYzxi4PhD9LNkjb91VcMhxV+U1JSh1YzGAE="}],"stop_reason":null,"stop_sequence":null,"usage":{"input_tokens":1,"cache_creation_input_tokens":1323,"cache_read_input_tokens":34281,"cache_creation":{"ephemeral_5m_input_tokens":0,"ephemeral_1h_input_tokens":1323},"output_tokens":8,"service_tier":"standard","inference_geo":"not_available"},"context_management":null},"parent_tool_use_id":null,"session_id":"06f83054-a247-4654-91a6-72960d27f195","uuid":"944df931-16a0-4dcb-8780-b2584e54247f"}
{"type":"assistant","message":{"model":"claude-sonnet-4-6","id":"msg_01FZS81UQjNDSyX8q4czZWxS","type":"message","role":"assistant","content":[{"type":"tool_use","id":"toolu_01E284PZPezkbunW9umGPjnw","name":"mcp__compressed-github__github_invoke_tool","input":{"tool_name":"issue_read","tool_input":{"owner":"openclaw","repo":"openclaw","issue_number":53466,"method":"get_comments"}},"caller":{"type":"direct"}}],"stop_reason":null,"stop_sequence":null,"usage":{"input_tokens":1,"cache_creation_input_tokens":1323,"cache_read_input_tokens":34281,"cache_creation":{"ephemeral_5m_input_tokens":0,"ephemeral_1h_input_tokens":1323},"output_tokens":8,"service_tier":"standard","inference_geo":"not_available"},"context_management":null},"parent_tool_use_id":null,"session_id":"06f83054-a247-4654-91a6-72960d27f195","uuid":"0edf8dc1-e232-479a-853a-48d35813e96b"}
{"type":"user","message":{"role":"user","content":[{"tool_use_id":"toolu_01E284PZPezkbunW9umGPjnw","type":"tool_result","content":[{"type":"text","text":"[]"}]}]},"parent_tool_use_id":null,"session_id":"06f83054-a247-4654-91a6-72960d27f195","uuid":"b7b8ddee-0553-4e53-aece-2c8f5e1f75bb","timestamp":"2026-03-24T06:52:29.235Z","tool_use_result":[{"type":"text","text":"[]"}]}
{"type":"assistant","message":{"model":"claude-sonnet-4-6","id":"msg_01H9M8CukMbdAVKxB911EhY9","type":"message","role":"assistant","content":[{"type":"text","text":"The most recent open bug issue is **#53466** — *\"[Bug]: Expired external Codex credentials overwrite fresh re-auth and cause repeated OAuth failures\"* — opened by **Hantaison** on 2026-03-24.\n\nIt has **no comments** yet. The last (and only) person to interact with it is the issue author, **Hantaison**."}],"stop_reason":null,"stop_sequence":null,"usage":{"input_tokens":1,"cache_creation_input_tokens":170,"cache_read_input_tokens":35604,"cache_creation":{"ephemeral_5m_input_tokens":0,"ephemeral_1h_input_tokens":170},"output_tokens":1,"service_tier":"standard","inference_geo":"not_available"},"context_management":null},"parent_tool_use_id":null,"session_id":"06f83054-a247-4654-91a6-72960d27f195","uuid":"9ed1e785-7d4d-465b-89c6-a034f483fc80"}
{"type":"result","subtype":"success","is_error":false,"duration_ms":19789,"duration_api_ms":15627,"num_turns":4,"result":"The most recent open bug issue is **#53466** — *\"[Bug]: Expired external Codex credentials overwrite fresh re-auth and cause repeated OAuth failures\"* — opened by **Hantaison** on 2026-03-24.\n\nIt has **no comments** yet. The last (and only) person to interact with it is the issue author, **Hantaison**.","stop_reason":"end_turn","session_id":"06f83054-a247-4654-91a6-72960d27f195","total_cost_usd":0.07971149999999999,"usage":{"input_tokens":6,"cache_creation_input_tokens":8536,"cache_read_input_tokens":131195,"output_tokens":555,"server_tool_use":{"web_search_requests":0,"web_fetch_requests":0},"service_tier":"standard","cache_creation":{"ephemeral_1h_input_tokens":8536,"ephemeral_5m_input_tokens":0},"inference_geo":"","iterations":[],"speed":"standard"},"modelUsage":{"claude-sonnet-4-6":{"inputTokens":6,"outputTokens":555,"cacheReadInputTokens":131195,"cacheCreationInputTokens":8536,"webSearchRequests":0,"costUSD":0.07971149999999999,"contextWindow":200000,"maxOutputTokens":32000}},"permission_denials":[],"fast_mode_state":"off","uuid":"6dae6505-bfdc-4126-b877-6c8bfb40c238"}
