{"type":"system","subtype":"init","cwd":"/Users/kunchen/.treehouse/axi-8d75ad/1/axi/bench/results/mcp-compressed-low/issue_then_comments/run3/workspace","session_id":"1adece44-0144-4379-9e40-27dbc0b63a56","tools":["Task","TaskOutput","Bash","Glob","Grep","ExitPlanMode","Read","Edit","Write","NotebookEdit","WebFetch","TodoWrite","WebSearch","TaskStop","AskUserQuestion","Skill","EnterPlanMode","EnterWorktree","ExitWorktree","CronCreate","CronDelete","CronList","mcp__chrome-devtools__click","mcp__chrome-devtools__close_page","mcp__chrome-devtools__drag","mcp__chrome-devtools__emulate","mcp__chrome-devtools__evaluate_script","mcp__chrome-devtools__fill","mcp__chrome-devtools__fill_form","mcp__chrome-devtools__get_console_message","mcp__chrome-devtools__get_network_request","mcp__chrome-devtools__handle_dialog","mcp__chrome-devtools__hover","mcp__chrome-devtools__lighthouse_audit","mcp__chrome-devtools__list_console_messages","mcp__chrome-devtools__list_network_requests","mcp__chrome-devtools__list_pages","mcp__chrome-devtools__navigate_page","mcp__chrome-devtools__new_page","mcp__chrome-devtools__performance_analyze_insight","mcp__chrome-devtools__performance_start_trace","mcp__chrome-devtools__performance_stop_trace","mcp__chrome-devtools__press_key","mcp__chrome-devtools__resize_page","mcp__chrome-devtools__select_page","mcp__chrome-devtools__take_memory_snapshot","mcp__chrome-devtools__take_screenshot","mcp__chrome-devtools__take_snapshot","mcp__chrome-devtools__type_text","mcp__chrome-devtools__upload_file","mcp__chrome-devtools__wait_for","mcp__compressed-github__github_get_tool_schema","mcp__compressed-github__github_invoke_tool","ListMcpResourcesTool","ReadMcpResourceTool","LSP"],"mcp_servers":[{"name":"chrome-devtools","status":"connected"},{"name":"compressed-github","status":"connected"},{"name":"claude.ai Google Calendar","status":"needs-auth"},{"name":"claude.ai Gmail","status":"needs-auth"}],"model":"claude-sonnet-4-6","permissionMode":"bypassPermissions","slash_commands":["update-config","debug","simplify","batch","loop","claude-api","test-driven-development","axi","compact","context","cost","heapdump","init","pr-comments","release-notes","review","security-review","extra-usage","insights","mcp__compressed-github__AssignCodingAgent","mcp__compressed-github__issue_to_fix_workflow"],"apiKeySource":"none","claude_code_version":"2.1.77","output_style":"default","agents":["general-purpose","statusline-setup","Explore","Plan","claude-code-guide"],"skills":["update-config","debug","simplify","batch","loop","claude-api","test-driven-development","axi"],"plugins":[{"name":"rust-analyzer-lsp","path":"/Users/kunchen/.claude/plugins/cache/claude-plugins-official/rust-analyzer-lsp/1.0.0"}],"uuid":"ce0b9e15-3467-4acc-b7e4-fab397bdda59","fast_mode_state":"off"}
{"type":"assistant","message":{"model":"claude-sonnet-4-6","id":"msg_01FKS4VroBBiLVk6H1jW5ckZ","type":"message","role":"assistant","content":[{"type":"thinking","thinking":"Let me find the most recent open issue with the \"bug\" label in openclaw/openclaw, then view its comments to find who commented last.","signature":"Eq0CCkYIDBgCKkB12MD5FyogSpWR5gZiZmAVCQzzQ1D1Dw+J1DXZQCSAc87mDyr1V8D43WyVSXPDkdQPTLAwyAJ8EZacDh3rpZIXEgzVS2UX9jjePTIqdVkaDOeEnbngiDdPFb0LUCIwPwvoq5o9L0kBt1Aikbshd5La8jJtopqVuAYy1Zcz53xv8ApaZVIHoDz2N6zTQW0lKpQB75Oz3JRffyePvobv3doWWkVD2JBWcOzK1U60xQfyXH1Kwm6IKLFNYaWg8M1rernUiEpl6JJDvADwv5ZxiU9DbISNU60FLigSlhPfNuNrizc2oG4dwdld6/Pa1iCb3Tq1ULNU+I1uO8B48+S9KLCGGYm8KYeqEX7XOcJzNfELiN66AL1+0U7CwlwQ6BUqWk+TdIWiaxgB"}],"stop_reason":null,"stop_sequence":null,"usage":{"input_tokens":3,"cache_creation_input_tokens":6834,"cache_read_input_tokens":27238,"cache_creation":{"ephemeral_5m_input_tokens":0,"ephemeral_1h_input_tokens":6834},"output_tokens":0,"service_tier":"standard","inference_geo":"not_available"},"context_management":null},"parent_tool_use_id":null,"session_id":"1adece44-0144-4379-9e40-27dbc0b63a56","uuid":"2deee1e3-9720-4698-89dc-72ea68d2033a"}
{"type":"assistant","message":{"model":"claude-sonnet-4-6","id":"msg_01FKS4VroBBiLVk6H1jW5ckZ","type":"message","role":"assistant","content":[{"type":"tool_use","id":"toolu_018GqAqLDCt1wKEkNUuvVEDa","name":"mcp__compressed-github__github_invoke_tool","input":{"tool_name":"list_issues","tool_input":{"owner":"openclaw","repo":"openclaw","state":"open","labels":"bug","perPage":1,"orderBy":"CREATED_AT","direction":"DESC"}},"caller":{"type":"direct"}}],"stop_reason":null,"stop_sequence":null,"usage":{"input_tokens":3,"cache_creation_input_tokens":6834,"cache_read_input_tokens":27238,"cache_creation":{"ephemeral_5m_input_tokens":0,"ephemeral_1h_input_tokens":6834},"output_tokens":0,"service_tier":"standard","inference_geo":"not_available"},"context_management":null},"parent_tool_use_id":null,"session_id":"1adece44-0144-4379-9e40-27dbc0b63a56","uuid":"b54e1758-3cc8-4a23-9a14-0bb6ac9e6faa"}
{"type":"rate_limit_event","rate_limit_info":{"status":"allowed","resetsAt":1774342800,"rateLimitType":"five_hour","overageStatus":"rejected","overageDisabledReason":"org_level_disabled","isUsingOverage":false},"uuid":"20efded9-e4fa-436e-bfd7-b8c150e9e36c","session_id":"1adece44-0144-4379-9e40-27dbc0b63a56"}
{"type":"user","message":{"role":"user","content":[{"type":"tool_result","content":"parameter labels could not be coerced to []string, is string","is_error":true,"tool_use_id":"toolu_018GqAqLDCt1wKEkNUuvVEDa"}]},"parent_tool_use_id":null,"session_id":"1adece44-0144-4379-9e40-27dbc0b63a56","uuid":"ea19e2ff-6ddc-4581-ab59-6744b9c02e98","timestamp":"2026-03-24T06:53:28.108Z","tool_use_result":"Error: parameter labels could not be coerced to []string, is string"}
{"type":"assistant","message":{"model":"claude-sonnet-4-6","id":"msg_01RprJ4B2QqBxVQrrmyhPFWs","type":"message","role":"assistant","content":[{"type":"tool_use","id":"toolu_01DRZHCYUKgeg8TzZ5Vs7SVe","name":"mcp__compressed-github__github_invoke_tool","input":{"tool_name":"list_issues","tool_input":{"owner":"openclaw","repo":"openclaw","state":"open","labels":["bug"],"perPage":1,"orderBy":"CREATED_AT","direction":"DESC"}},"caller":{"type":"direct"}}],"stop_reason":null,"stop_sequence":null,"usage":{"input_tokens":1,"cache_creation_input_tokens":215,"cache_read_input_tokens":34072,"cache_creation":{"ephemeral_5m_input_tokens":0,"ephemeral_1h_input_tokens":215},"output_tokens":63,"service_tier":"standard","inference_geo":"not_available"},"context_management":null},"parent_tool_use_id":null,"session_id":"1adece44-0144-4379-9e40-27dbc0b63a56","uuid":"12224c3f-63c0-4808-91cf-db0a033ed70e"}
{"type":"user","message":{"role":"user","content":[{"tool_use_id":"toolu_01DRZHCYUKgeg8TzZ5Vs7SVe","type":"tool_result","content":[{"type":"text","text":"{\"issues\":[{\"number\":53466,\"title\":\"[Bug]: Expired external Codex credentials overwrite fresh re-auth and cause repeated OAuth failures\",\"body\":\"### Bug type\\n\\nBehavior bug (incorrect output/state without crash)\\n\\n### Summary\\n\\nI hit a failure mode where expired external Codex credentials appear to overwrite newly completed OpenClaw auth flows.\\n\\nIn my case, this was not limited to onboarding/configure. Even after running:\\n\\n`openclaw models auth login`\\n\\nThe old credential would come back again, and later runtime usage failed with:\\n\\n`OAuth token refresh failed for openai-codex: Failed to refresh OAuth token for openai-codex. Please try again or re-authenticate.`\\n\\nSo the issue is not just that stale external credentials can be imported once — it is that they seem able to replace fresh re-auth state afterward, making Codex auth effectively impossible to recover from on the user side.\\n\\n### Steps to reproduce\\n\\n1. Ensure an expired Codex external credential file exists at ~/.codex/auth.json.\\n2. Start OpenClaw 2026.3.23-2 with Codex configured as the primary model.\\n3. Run either onboarding/configure or openclaw models auth login.\\n4. Observe the log line when onboarding(won\\u0026#39;t be shown when auth login):\\n` [agents/auth-profiles] synced openai-codex credentials from external cli`\\n5. Trigger actual Codex model usage.\\n6. Observe the runtime failure:OAuth token refresh failed for openai-codex: \\n`Failed to refresh OAuth token for openai-codex. Please try again or re-authenticate.`\\n7. Remove ~/.codex/, retry the same flow, and observe that the failure no longer occurs.\\n\\n### Expected behavior\\n\\nExpected result: after completing a fresh OpenClaw Codex auth flow, OpenClaw should keep the newly issued credential and Codex should remain usable at runtime. In this same environment, that was the observed behavior after removing `~/.codex/`: `openai-codex:default` showed `ok expires in 10d`, the primary model was restored to `openai-codex/gpt-5.4`, and the repeated OAuth refresh failure stopped.\\n\\n### Actual behavior\\n\\nObserved result: after re-running onboarding/configure or `openclaw models auth login`, Codex later failed at runtime with the user-visible error:\\n\\n```text\\n⚠️ Agent failed before reply: OAuth token refresh failed for openai-codex: Failed to refresh OAuth token for openai-codex. Please try again or re-authenticate.\\nLogs: openclaw logs --follow\\n```\\n\\nSupporting evidence observed in logs/status:\\n\\n- Gateway logs showed:\\n  ```text\\n  [agents/auth-profiles] synced openai-codex credentials from external cli\\n  ```\\n- `openclaw models status` previously showed repeated refresh failures such as:\\n  ```text\\n  [openai-codex] Token refresh failed: 401\\n  \\u0026#34;code\\u0026#34;: \\u0026#34;refresh_token_reused\\u0026#34;\\n  ```\\n- The stale external credential source was found at:\\n  ```text\\n  ~/.codex/auth.json\\n  ```\\n\\n### OpenClaw version\\n\\n2026.3.23-2\\n\\n### Operating system\\n\\nmacOS 26.3.1 (a)\\n\\n### Install method\\n\\npnpm\\n\\n### Model\\n\\ngpt-5.4\\n\\n### Provider / routing chain\\n\\nopenclaw -\\u0026gt; openai-codex\\n\\n### Additional provider/model setup details\\n\\n_No response_\\n\\n### Logs, screenshots, and evidence\\n\\n```shell\\n\\n```\\n\\n### Impact and severity\\n\\n_No response_\\n\\n### Additional information\\n\\n_No response_\",\"state\":\"OPEN\",\"user\":{\"login\":\"Hantaison\"},\"labels\":[\"bug\",\"bug:behavior\"],\"created_at\":\"2026-03-24T06:31:42Z\",\"updated_at\":\"2026-03-24T06:31:51Z\"}],\"totalCount\":2004,\"pageInfo\":{\"hasNextPage\":true,\"hasPreviousPage\":false,\"startCursor\":\"Y3Vyc29yOnYyOpK5MjAyNi0wMy0yM1QyMzozMTo0Mi0wNzowMM7155pS\",\"endCursor\":\"Y3Vyc29yOnYyOpK5MjAyNi0wMy0yM1QyMzozMTo0Mi0wNzowMM7155pS\"}}"}]}]},"parent_tool_use_id":null,"session_id":"1adece44-0144-4379-9e40-27dbc0b63a56","uuid":"76a7ec4b-eda5-4cc5-8e57-169ddcffd75a","timestamp":"2026-03-24T06:53:31.153Z","tool_use_result":[{"type":"text","text":"{\"issues\":[{\"number\":53466,\"title\":\"[Bug]: Expired external Codex credentials overwrite fresh re-auth and cause repeated OAuth failures\",\"body\":\"### Bug type\\n\\nBehavior bug (incorrect output/state without crash)\\n\\n### Summary\\n\\nI hit a failure mode where expired external Codex credentials appear to overwrite newly completed OpenClaw auth flows.\\n\\nIn my case, this was not limited to onboarding/configure. Even after running:\\n\\n`openclaw models auth login`\\n\\nThe old credential would come back again, and later runtime usage failed with:\\n\\n`OAuth token refresh failed for openai-codex: Failed to refresh OAuth token for openai-codex. Please try again or re-authenticate.`\\n\\nSo the issue is not just that stale external credentials can be imported once — it is that they seem able to replace fresh re-auth state afterward, making Codex auth effectively impossible to recover from on the user side.\\n\\n### Steps to reproduce\\n\\n1. Ensure an expired Codex external credential file exists at ~/.codex/auth.json.\\n2. Start OpenClaw 2026.3.23-2 with Codex configured as the primary model.\\n3. Run either onboarding/configure or openclaw models auth login.\\n4. Observe the log line when onboarding(won\\u0026#39;t be shown when auth login):\\n` [agents/auth-profiles] synced openai-codex credentials from external cli`\\n5. Trigger actual Codex model usage.\\n6. Observe the runtime failure:OAuth token refresh failed for openai-codex: \\n`Failed to refresh OAuth token for openai-codex. Please try again or re-authenticate.`\\n7. Remove ~/.codex/, retry the same flow, and observe that the failure no longer occurs.\\n\\n### Expected behavior\\n\\nExpected result: after completing a fresh OpenClaw Codex auth flow, OpenClaw should keep the newly issued credential and Codex should remain usable at runtime. In this same environment, that was the observed behavior after removing `~/.codex/`: `openai-codex:default` showed `ok expires in 10d`, the primary model was restored to `openai-codex/gpt-5.4`, and the repeated OAuth refresh failure stopped.\\n\\n### Actual behavior\\n\\nObserved result: after re-running onboarding/configure or `openclaw models auth login`, Codex later failed at runtime with the user-visible error:\\n\\n```text\\n⚠️ Agent failed before reply: OAuth token refresh failed for openai-codex: Failed to refresh OAuth token for openai-codex. Please try again or re-authenticate.\\nLogs: openclaw logs --follow\\n```\\n\\nSupporting evidence observed in logs/status:\\n\\n- Gateway logs showed:\\n  ```text\\n  [agents/auth-profiles] synced openai-codex credentials from external cli\\n  ```\\n- `openclaw models status` previously showed repeated refresh failures such as:\\n  ```text\\n  [openai-codex] Token refresh failed: 401\\n  \\u0026#34;code\\u0026#34;: \\u0026#34;refresh_token_reused\\u0026#34;\\n  ```\\n- The stale external credential source was found at:\\n  ```text\\n  ~/.codex/auth.json\\n  ```\\n\\n### OpenClaw version\\n\\n2026.3.23-2\\n\\n### Operating system\\n\\nmacOS 26.3.1 (a)\\n\\n### Install method\\n\\npnpm\\n\\n### Model\\n\\ngpt-5.4\\n\\n### Provider / routing chain\\n\\nopenclaw -\\u0026gt; openai-codex\\n\\n### Additional provider/model setup details\\n\\n_No response_\\n\\n### Logs, screenshots, and evidence\\n\\n```shell\\n\\n```\\n\\n### Impact and severity\\n\\n_No response_\\n\\n### Additional information\\n\\n_No response_\",\"state\":\"OPEN\",\"user\":{\"login\":\"Hantaison\"},\"labels\":[\"bug\",\"bug:behavior\"],\"created_at\":\"2026-03-24T06:31:42Z\",\"updated_at\":\"2026-03-24T06:31:51Z\"}],\"totalCount\":2004,\"pageInfo\":{\"hasNextPage\":true,\"hasPreviousPage\":false,\"startCursor\":\"Y3Vyc29yOnYyOpK5MjAyNi0wMy0yM1QyMzozMTo0Mi0wNzowMM7155pS\",\"endCursor\":\"Y3Vyc29yOnYyOpK5MjAyNi0wMy0yM1QyMzozMTo0Mi0wNzowMM7155pS\"}}"}]}
{"type":"assistant","message":{"model":"claude-sonnet-4-6","id":"msg_0181Ryuoim82NN2Y2tLbZoNy","type":"message","role":"assistant","content":[{"type":"thinking","thinking":"The most recent open issue with the \"bug\" label is #53466. Now let me get its comments to find who commented last.","signature":"EpsCCkYIDBgCKkDV43dxt53IfCrC0j56E9dBy1S+sK1X6U0lsydohIKpKMwfdVqyxg/G3At9m5oKjr9ZKLsy/Qc83DyuPFdZf2c4EgzlyUorJf5Po0VQHmYaDOvwHu4lUmdaIb9pMCIwB1RNXiOlHiTeiXL5OxcND+tJKABV86an+IGkgZx+7A5Z4yV8m9LWdgoC89FogpwsKoIBvf1ioHA5OnqD+ptsZPPrDal/j3fSmwaJ7Inn7vRCZQ6PiE7b/WHIRynzEo5gn0f9lnkuHq4LjDhb/gjTlfxfft64NAvnzJL705aIDneJqQuwCZrrsAQqPfjGNpCB/464pwLYOtrTap8p0CaVSjxSMdGfYfCizef6YkWVOI8f7jKNiBgB"}],"stop_reason":null,"stop_sequence":null,"usage":{"input_tokens":1,"cache_creation_input_tokens":1323,"cache_read_input_tokens":34287,"cache_creation":{"ephemeral_5m_input_tokens":0,"ephemeral_1h_input_tokens":1323},"output_tokens":8,"service_tier":"standard","inference_geo":"not_available"},"context_management":null},"parent_tool_use_id":null,"session_id":"1adece44-0144-4379-9e40-27dbc0b63a56","uuid":"3a26cbf9-d40e-46d5-a1b2-8d29ac68f165"}
{"type":"assistant","message":{"model":"claude-sonnet-4-6","id":"msg_0181Ryuoim82NN2Y2tLbZoNy","type":"message","role":"assistant","content":[{"type":"tool_use","id":"toolu_01Nbag2C8YAsb145fM6GZoJs","name":"mcp__compressed-github__github_invoke_tool","input":{"tool_name":"issue_read","tool_input":{"owner":"openclaw","repo":"openclaw","issue_number":53466,"method":"list_comments"}},"caller":{"type":"direct"}}],"stop_reason":null,"stop_sequence":null,"usage":{"input_tokens":1,"cache_creation_input_tokens":1323,"cache_read_input_tokens":34287,"cache_creation":{"ephemeral_5m_input_tokens":0,"ephemeral_1h_input_tokens":1323},"output_tokens":8,"service_tier":"standard","inference_geo":"not_available"},"context_management":null},"parent_tool_use_id":null,"session_id":"1adece44-0144-4379-9e40-27dbc0b63a56","uuid":"32f4cb20-dd6f-4333-bc11-8b1ce2eeb2aa"}
{"type":"user","message":{"role":"user","content":[{"type":"tool_result","content":"unknown method: list_comments","is_error":true,"tool_use_id":"toolu_01Nbag2C8YAsb145fM6GZoJs"}]},"parent_tool_use_id":null,"session_id":"1adece44-0144-4379-9e40-27dbc0b63a56","uuid":"192bcfec-2d42-4d18-9aba-ac7d092c0805","timestamp":"2026-03-24T06:53:36.383Z","tool_use_result":"Error: unknown method: list_comments"}
{"type":"assistant","message":{"model":"claude-sonnet-4-6","id":"msg_016cku4cxtntJDaBpaJSZkzk","type":"message","role":"assistant","content":[{"type":"tool_use","id":"toolu_013SKxgt7WJzLhvUZX7GKeYV","name":"mcp__compressed-github__github_get_tool_schema","input":{"tool_name":"issue_read"},"caller":{"type":"direct"}}],"stop_reason":null,"stop_sequence":null,"usage":{"input_tokens":1,"cache_creation_input_tokens":184,"cache_read_input_tokens":35610,"cache_creation":{"ephemeral_5m_input_tokens":0,"ephemeral_1h_input_tokens":184},"output_tokens":44,"service_tier":"standard","inference_geo":"not_available"},"context_management":null},"parent_tool_use_id":null,"session_id":"1adece44-0144-4379-9e40-27dbc0b63a56","uuid":"a4abab60-0b2f-46cd-924d-b57cab677105"}
{"type":"user","message":{"role":"user","content":[{"tool_use_id":"toolu_013SKxgt7WJzLhvUZX7GKeYV","type":"tool_result","content":"{\"result\":\"<tool>issue_read(issue_number, method, owner, page, perPage, repo): Get information about a specific issue in a GitHub repository.</tool>\\n\\n{\\n  \\\"type\\\": \\\"object\\\",\\n  \\\"properties\\\": {\\n    \\\"issue_number\\\": {\\n      \\\"type\\\": \\\"number\\\",\\n      \\\"description\\\": \\\"The number of the issue\\\"\\n    },\\n    \\\"method\\\": {\\n      \\\"type\\\": \\\"string\\\",\\n      \\\"description\\\": \\\"The read operation to perform on a single issue.\\\\nOptions are:\\\\n1. get - Get details of a specific issue.\\\\n2. get_comments - Get issue comments.\\\\n3. get_sub_issues - Get sub-issues of the issue.\\\\n4. get_labels - Get labels assigned to the issue.\\\\n\\\",\\n      \\\"enum\\\": [\\n        \\\"get\\\",\\n        \\\"get_comments\\\",\\n        \\\"get_sub_issues\\\",\\n        \\\"get_labels\\\"\\n      ]\\n    },\\n    \\\"owner\\\": {\\n      \\\"type\\\": \\\"string\\\",\\n      \\\"description\\\": \\\"The owner of the repository\\\"\\n    },\\n    \\\"page\\\": {\\n      \\\"type\\\": \\\"number\\\",\\n      \\\"description\\\": \\\"Page number for pagination (min 1)\\\",\\n      \\\"minimum\\\": 1\\n    },\\n    \\\"perPage\\\": {\\n      \\\"type\\\": \\\"number\\\",\\n      \\\"description\\\": \\\"Results per page for pagination (min 1, max 100)\\\",\\n      \\\"minimum\\\": 1,\\n      \\\"maximum\\\": 100\\n    },\\n    \\\"repo\\\": {\\n      \\\"type\\\": \\\"string\\\",\\n      \\\"description\\\": \\\"The name of the repository\\\"\\n    }\\n  },\\n  \\\"required\\\": [\\n    \\\"method\\\",\\n    \\\"owner\\\",\\n    \\\"repo\\\",\\n    \\\"issue_number\\\"\\n  ]\\n}\"}"}]},"parent_tool_use_id":null,"session_id":"1adece44-0144-4379-9e40-27dbc0b63a56","uuid":"828fdcae-9646-430a-a356-80b0113e52ae","timestamp":"2026-03-24T06:53:39.310Z","tool_use_result":{"content":"{\"result\":\"<tool>issue_read(issue_number, method, owner, page, perPage, repo): Get information about a specific issue in a GitHub repository.</tool>\\n\\n{\\n  \\\"type\\\": \\\"object\\\",\\n  \\\"properties\\\": {\\n    \\\"issue_number\\\": {\\n      \\\"type\\\": \\\"number\\\",\\n      \\\"description\\\": \\\"The number of the issue\\\"\\n    },\\n    \\\"method\\\": {\\n      \\\"type\\\": \\\"string\\\",\\n      \\\"description\\\": \\\"The read operation to perform on a single issue.\\\\nOptions are:\\\\n1. get - Get details of a specific issue.\\\\n2. get_comments - Get issue comments.\\\\n3. get_sub_issues - Get sub-issues of the issue.\\\\n4. get_labels - Get labels assigned to the issue.\\\\n\\\",\\n      \\\"enum\\\": [\\n        \\\"get\\\",\\n        \\\"get_comments\\\",\\n        \\\"get_sub_issues\\\",\\n        \\\"get_labels\\\"\\n      ]\\n    },\\n    \\\"owner\\\": {\\n      \\\"type\\\": \\\"string\\\",\\n      \\\"description\\\": \\\"The owner of the repository\\\"\\n    },\\n    \\\"page\\\": {\\n      \\\"type\\\": \\\"number\\\",\\n      \\\"description\\\": \\\"Page number for pagination (min 1)\\\",\\n      \\\"minimum\\\": 1\\n    },\\n    \\\"perPage\\\": {\\n      \\\"type\\\": \\\"number\\\",\\n      \\\"description\\\": \\\"Results per page for pagination (min 1, max 100)\\\",\\n      \\\"minimum\\\": 1,\\n      \\\"maximum\\\": 100\\n    },\\n    \\\"repo\\\": {\\n      \\\"type\\\": \\\"string\\\",\\n      \\\"description\\\": \\\"The name of the repository\\\"\\n    }\\n  },\\n  \\\"required\\\": [\\n    \\\"method\\\",\\n    \\\"owner\\\",\\n    \\\"repo\\\",\\n    \\\"issue_number\\\"\\n  ]\\n}\"}","structuredContent":{"result":"<tool>issue_read(issue_number, method, owner, page, perPage, repo): Get information about a specific issue in a GitHub repository.</tool>\n\n{\n  \"type\": \"object\",\n  \"properties\": {\n    \"issue_number\": {\n      \"type\": \"number\",\n      \"description\": \"The number of the issue\"\n    },\n    \"method\": {\n      \"type\": \"string\",\n      \"description\": \"The read operation to perform on a single issue.\\nOptions are:\\n1. get - Get details of a specific issue.\\n2. get_comments - Get issue comments.\\n3. get_sub_issues - Get sub-issues of the issue.\\n4. get_labels - Get labels assigned to the issue.\\n\",\n      \"enum\": [\n        \"get\",\n        \"get_comments\",\n        \"get_sub_issues\",\n        \"get_labels\"\n      ]\n    },\n    \"owner\": {\n      \"type\": \"string\",\n      \"description\": \"The owner of the repository\"\n    },\n    \"page\": {\n      \"type\": \"number\",\n      \"description\": \"Page number for pagination (min 1)\",\n      \"minimum\": 1\n    },\n    \"perPage\": {\n      \"type\": \"number\",\n      \"description\": \"Results per page for pagination (min 1, max 100)\",\n      \"minimum\": 1,\n      \"maximum\": 100\n    },\n    \"repo\": {\n      \"type\": \"string\",\n      \"description\": \"The name of the repository\"\n    }\n  },\n  \"required\": [\n    \"method\",\n    \"owner\",\n    \"repo\",\n    \"issue_number\"\n  ]\n}"}}}
{"type":"assistant","message":{"model":"claude-sonnet-4-6","id":"msg_01SeAPAhguCDA2fbNm8eMneU","type":"message","role":"assistant","content":[{"type":"tool_use","id":"toolu_011EZHX6kQ9RTBbEb2jQXhNk","name":"mcp__compressed-github__github_invoke_tool","input":{"tool_name":"issue_read","tool_input":{"owner":"openclaw","repo":"openclaw","issue_number":53466,"method":"get_comments"}},"caller":{"type":"direct"}}],"stop_reason":null,"stop_sequence":null,"usage":{"input_tokens":1,"cache_creation_input_tokens":571,"cache_read_input_tokens":35794,"cache_creation":{"ephemeral_5m_input_tokens":0,"ephemeral_1h_input_tokens":571},"output_tokens":63,"service_tier":"standard","inference_geo":"not_available"},"context_management":null},"parent_tool_use_id":null,"session_id":"1adece44-0144-4379-9e40-27dbc0b63a56","uuid":"3eb00f9f-3953-43fe-a759-eaf42218dad7"}
{"type":"user","message":{"role":"user","content":[{"tool_use_id":"toolu_011EZHX6kQ9RTBbEb2jQXhNk","type":"tool_result","content":[{"type":"text","text":"[]"}]}]},"parent_tool_use_id":null,"session_id":"1adece44-0144-4379-9e40-27dbc0b63a56","uuid":"f2214b47-fde8-4875-a51c-be9a2f3fcc58","timestamp":"2026-03-24T06:53:41.954Z","tool_use_result":[{"type":"text","text":"[]"}]}
{"type":"assistant","message":{"model":"claude-sonnet-4-6","id":"msg_011EJnbBygcVWdvMgWg9TyQL","type":"message","role":"assistant","content":[{"type":"text","text":"The most recent open issue with the \"bug\" label in **openclaw/openclaw** is:\n\n**Issue #53466**: *[Bug]: Expired external Codex credentials overwrite fresh re-auth and cause repeated OAuth failures*\n- Opened by: **Hantaison** on 2026-03-24\n\nThis issue has **no comments** yet, so there is no last commenter — only the original author, **Hantaison**."}],"stop_reason":null,"stop_sequence":null,"usage":{"input_tokens":1,"cache_creation_input_tokens":128,"cache_read_input_tokens":36365,"cache_creation":{"ephemeral_5m_input_tokens":0,"ephemeral_1h_input_tokens":128},"output_tokens":1,"service_tier":"standard","inference_geo":"not_available"},"context_management":null},"parent_tool_use_id":null,"session_id":"1adece44-0144-4379-9e40-27dbc0b63a56","uuid":"ab023b7d-7309-46e9-bfc4-45b3e43351f1"}
{"type":"result","subtype":"success","is_error":false,"duration_ms":22118,"duration_api_ms":16791,"num_turns":6,"result":"The most recent open issue with the \"bug\" label in **openclaw/openclaw** is:\n\n**Issue #53466**: *[Bug]: Expired external Codex credentials overwrite fresh re-auth and cause repeated OAuth failures*\n- Opened by: **Hantaison** on 2026-03-24\n\nThis issue has **no comments** yet, so there is no last commenter — only the original author, **Hantaison**.","stop_reason":"end_turn","session_id":"1adece44-0144-4379-9e40-27dbc0b63a56","total_cost_usd":0.10711004999999998,"usage":{"input_tokens":8,"cache_creation_input_tokens":9255,"cache_read_input_tokens":203366,"output_tokens":758,"server_tool_use":{"web_search_requests":0,"web_fetch_requests":0},"service_tier":"standard","cache_creation":{"ephemeral_1h_input_tokens":9255,"ephemeral_5m_input_tokens":0},"inference_geo":"","iterations":[],"speed":"standard"},"modelUsage":{"claude-sonnet-4-6":{"inputTokens":8,"outputTokens":758,"cacheReadInputTokens":203366,"cacheCreationInputTokens":9255,"webSearchRequests":0,"costUSD":0.10711004999999998,"contextWindow":200000,"maxOutputTokens":32000}},"permission_denials":[],"fast_mode_state":"off","uuid":"545b17a1-a0cd-4404-acb1-89a6571aede0"}
